<?xml version="1.0" encoding="UTF-8" standalone="no"?>
<!-- Created with Inkscape (http://www.inkscape.org/) -->

<svg
   width="636.06158"
   height="411.52884"
   id="svg2"
   version="1.1"
   inkscape:version="1.2.2 (b0a8486541, 2022-12-01)"
   sodipodi:docname="bode3.svg"
   xmlns:inkscape="http://www.inkscape.org/namespaces/inkscape"
   xmlns:sodipodi="http://sodipodi.sourceforge.net/DTD/sodipodi-0.dtd"
   xmlns="http://www.w3.org/2000/svg"
   xmlns:svg="http://www.w3.org/2000/svg"
   xmlns:rdf="http://www.w3.org/1999/02/22-rdf-syntax-ns#"
   xmlns:cc="http://creativecommons.org/ns#"
   xmlns:dc="http://purl.org/dc/elements/1.1/">
  <defs
     id="defs4">
    <marker
       inkscape:stockid="Arrow1Mend"
       orient="auto"
       refY="0"
       refX="0"
       id="Arrow1Mend"
       style="overflow:visible">
      <path
         id="path3770"
         d="M -4.5511111,0 -6.8266667,2.2755555 1.1377778,0 -6.8266667,-2.2755555 Z"
         style="fill-rule:evenodd;stroke:#000000;stroke-width:0.455111pt"
         inkscape:connector-curvature="0" />
    </marker>
    <marker
       inkscape:stockid="Arrow1Mend"
       orient="auto"
       refY="0"
       refX="0"
       id="Arrow1Mend-9"
       style="overflow:visible">
      <path
         inkscape:connector-curvature="0"
         id="path3770-8"
         d="M -4.5511111,0 -6.8266667,2.2755555 1.1377778,0 -6.8266667,-2.2755555 Z"
         style="fill-rule:evenodd;stroke:#000000;stroke-width:0.455111pt" />
    </marker>
  </defs>
  <sodipodi:namedview
     id="base"
     pagecolor="#ffffff"
     bordercolor="#666666"
     borderopacity="1.0"
     inkscape:pageopacity="0.0"
     inkscape:pageshadow="2"
     inkscape:zoom="1.0163373"
     inkscape:cx="241.0617"
     inkscape:cy="188.4217"
     inkscape:document-units="px"
     inkscape:current-layer="layer1"
     showgrid="false"
     inkscape:window-width="1373"
     inkscape:window-height="815"
     inkscape:window-x="59"
     inkscape:window-y="24"
     inkscape:window-maximized="0"
     fit-margin-top="0"
     fit-margin-left="0"
     fit-margin-right="0"
     fit-margin-bottom="0"
     inkscape:showpageshadow="2"
     inkscape:pagecheckerboard="0"
     inkscape:deskcolor="#d1d1d1" />
  <metadata
     id="metadata7">
    <rdf:RDF>
      <cc:Work
         rdf:about="">
        <dc:format>image/svg+xml</dc:format>
        <dc:type
           rdf:resource="http://purl.org/dc/dcmitype/StillImage" />
      </cc:Work>
    </rdf:RDF>
  </metadata>
  <g
     inkscape:label="Capa 1"
     inkscape:groupmode="layer"
     id="layer1"
     transform="translate(-227.81366,-492.02747)">
    <g
       id="g1914">
      <path
         id="rect1885"
         style="fill:#ffffff;stroke-width:0;stroke-linecap:round;stroke-linejoin:round"
         d="M 227.81366,493.77716 H 863.87524 V 903.5563 H 227.81366 Z" />
      <path
         inkscape:connector-curvature="0"
         id="path2987"
         d="m 233.88745,697.307 h 620.03718 v 0"
         style="fill:none;stroke:#000000;stroke-width:4.43465;stroke-linecap:butt;stroke-linejoin:miter;stroke-miterlimit:4;stroke-dasharray:none;stroke-opacity:1;marker-end:url(#Arrow1Mend)" />
      <path
         inkscape:connector-curvature="0"
         id="path4225"
         d="M 561.2938,895.96914 V 501.97083"
         style="fill:none;stroke:#000000;stroke-width:4.43465;stroke-linecap:butt;stroke-linejoin:miter;stroke-miterlimit:4;stroke-dasharray:none;stroke-opacity:1;marker-end:url(#Arrow1Mend-9)" />
      <path
         d="m 535.7073,520.70099 q -1.47438,5.69472 -3.82529,8.9155 -2.35091,3.22079 -5.03489,3.22079 -1.42368,0 -2.23579,-1.19029 -0.78272,-1.21363 -0.65816,-3.4075 -1.1792,2.0305 -2.79435,3.22079 -1.61516,1.19029 -3.08552,1.19029 -2.17053,0 -3.14312,-2.82403 -0.96656,-2.84736 0.50177,-8.51874 1.04536,-4.03765 2.6782,-6.55827 1.63887,-2.54395 3.20047,-3.61754 1.56765,-1.09694 2.85129,-1.09694 l -0.0144,0.9569 q -2.12732,2.35724 -2.92433,4.71448 -0.79702,2.35725 -1.70944,5.88144 -1.06348,4.10767 -1.20179,6.53493 -0.10892,2.40392 1.10471,2.40392 1.05026,0 2.33512,-1.44702 1.3082,-1.44702 1.77015,-2.8707 -0.38536,-1.93714 10e-4,-3.43084 0.24775,-0.9569 1.02957,-2.26389 0.78787,-1.33032 1.74477,-1.33032 0.72351,0 0.72313,1.35366 0.029,1.33033 -0.20666,2.24055 -0.43506,1.68041 -1.6351,3.43084 -0.21753,0.8402 -0.0935,1.98381 0.12401,1.14362 0.62041,1.75043 0.52576,0.58348 1.27261,0.58348 0.67683,0 1.34219,-0.67684 0.68869,-0.67683 1.39256,-2.40392 0.70992,-1.75042 1.32543,-4.03765 0.64491,-2.31056 0.92428,-4.20102 0.30878,-1.9138 0.35145,-3.43084 0.066,-1.51704 0.1183,-2.80068 0.0583,-1.30699 -0.25658,-1.98382 l 0.50448,-0.9569 q 1.65707,0 2.57212,1.42368 0.92109,1.40034 1.05077,3.87428 0.15907,2.4506 -0.59625,5.36798 z"
         style="font-size:45.5111px;line-height:1.25;font-family:Alfa-beta;-inkscape-font-specification:Alfa-beta;text-align:center;letter-spacing:0px;word-spacing:0px;text-anchor:middle;stroke-width:1.13778"
         id="path1799" />
      <path
         d="m 849.83848,729.97055 h -8.54209 q 2.18812,2.26388 2.98587,4.29438 0.8211,2.03049 -0.15483,4.87785 -0.95193,2.77735 -3.12756,4.97122 -2.14428,2.17053 -5.05752,3.38416 -2.91325,1.21363 -6.04068,1.21363 -2.73066,0 -4.44655,-1.19029 -1.71588,-1.1903 -2.46027,-3.1041 -0.71305,-1.93713 -0.6466,-4.03765 0.0665,-2.10051 0.7384,-4.06099 1.05592,-3.08075 3.56026,-5.48467 2.52769,-2.40392 5.80767,-3.73424 3.31134,-1.35367 6.60214,-1.35367 h 12.22965 z m -10.04741,9.49898 q 0.64795,-1.89046 0.49504,-3.8276 -0.14492,-1.96048 -0.88527,-3.47751 -0.73234,-1.54038 -1.79201,-2.19387 -2.26389,0 -4.31763,0.81686 -2.05375,0.81687 -3.52995,2.26389 -1.44486,1.42368 -2.07681,3.26746 -0.70395,2.05384 -0.61898,4.59779 0.093,2.52062 1.15008,4.27104 1.08045,1.75043 3.08761,1.75043 1.72709,0 3.47207,-1.0736 1.75297,-1.09693 3.06843,-2.82402 1.31547,-1.72709 1.94742,-3.57087 z"
         style="font-size:45.5111px;line-height:1.25;font-family:Alfa-beta;-inkscape-font-specification:Alfa-beta;text-align:center;letter-spacing:0px;word-spacing:0px;text-anchor:middle;stroke-width:1.13778"
         id="path1802" />
      <path
         d="m 509.5762,500.96371 q 0.93333,0 1.57777,0.66667 0.66667,0.64444 0.66667,1.57778 0,0.93333 -0.66667,1.6 -0.64444,0.64444 -1.57777,0.64444 -0.93334,0 -1.6,-0.64444 -0.64445,-0.66667 -0.64445,-1.6 0,-0.93334 0.64445,-1.57778 0.66666,-0.66667 1.6,-0.66667 z m 0.35555,8.8 -5.75555,19.88888 q -1.53334,5.33334 -4.22222,7.68889 -2.66667,2.35556 -5.77778,2.35556 -1.4,0 -2.11111,-0.64445 -0.73333,-0.64444 -0.73333,-1.53333 0,-0.68889 0.55555,-1.22222 0.53333,-0.51111 1.24444,-0.51111 0.64445,0 1.13334,0.42222 0.4,0.33333 0.4,0.75555 0,0.57778 -0.55556,1 -0.31111,0.24445 -0.31111,0.4 l 0.0444,0.11111 q 0.0667,0.0889 0.2,0.13334 0.13333,0.0444 0.4,0.0444 1.8,0 3.08888,-1.15555 1.26667,-1.13334 2.26667,-4.55556 l 4.97778,-17.06666 q 0.73333,-2.51111 0.73333,-2.77778 0,-0.53333 -0.48889,-0.95555 -0.46667,-0.42222 -1.2,-0.42222 -0.28889,0 -0.66667,0.0667 -0.28888,0.0444 -0.84444,0.13334 v -0.77778 z"
         style="font-style:italic;font-size:45.5111px;line-height:1.25;font-family:'Times New Roman';-inkscape-font-specification:'Times New Roman, Italic';text-align:center;letter-spacing:0px;word-spacing:0px;text-anchor:middle;stroke-width:1.13778"
         id="path1805" />
      <path
         d="m 271.69872,881.03574 q -0.15556,1.11111 -0.15556,1.84444 0,1.97778 1.4,3.37778 1.4,1.37778 3.4,1.37778 1.6,0 3.06667,-0.64445 1.48889,-0.66667 4.4,-2.91111 l 0.46666,0.64445 q -5.26666,5.22222 -10.04444,5.22222 -3.24444,0 -4.88889,-2.04445 -1.64444,-2.04444 -1.64444,-4.51111 0,-3.31111 2.04444,-6.77777 2.04445,-3.46667 5.13334,-5.37778 3.08888,-1.93333 6.35555,-1.93333 2.35555,0 3.48889,0.95555 1.13333,0.95556 1.13333,2.26667 0,1.84444 -1.46667,3.53333 -1.93333,2.2 -5.68888,3.55556 -2.48889,0.91111 -7,1.42222 z m 0.15555,-1.08889 q 3.28889,-0.37778 5.35556,-1.28889 2.73333,-1.22222 4.08889,-2.91111 1.37777,-1.71111 1.37777,-3.24444 0,-0.93334 -0.6,-1.51111 -0.57777,-0.57778 -1.66666,-0.57778 -2.26667,0 -4.82222,2.42222 -2.53334,2.4 -3.73334,7.11111 z"
         style="font-style:italic;font-size:45.5111px;line-height:1.25;font-family:'Times New Roman';-inkscape-font-specification:'Times New Roman, Italic';text-align:center;letter-spacing:0px;word-spacing:0px;text-anchor:middle;stroke-width:1.13778"
         id="path1808" />
      <path
         d="m 292.80031,860.17831 -0.72889,2.36444 h -9.20889 l 0.72889,-2.36444 z"
         style="font-style:italic;font-size:36.4089px;line-height:1.25;font-family:'Times New Roman';-inkscape-font-specification:'Times New Roman, Italic';text-align:center;letter-spacing:0px;word-spacing:0px;text-anchor:middle;stroke-width:1.13778"
         id="path1811" />
      <path
         d="m 311.11143,853.17386 -3.46667,12.05334 -0.39111,1.61778 q -0.0533,0.23111 -0.0533,0.39111 0,0.28444 0.17778,0.49778 0.14222,0.16 0.35556,0.16 0.23111,0 0.60444,-0.28445 0.69334,-0.51555 1.84889,-2.13333 l 0.60445,0.42667 q -1.22667,1.84888 -2.52445,2.82666 -1.29778,0.96 -2.4,0.96 -0.76445,0 -1.15556,-0.39111 -0.37333,-0.37333 -0.37333,-1.10222 0,-0.87111 0.39111,-2.29333 l 0.37333,-1.33334 q -2.32888,3.04 -4.28444,4.24889 -1.40445,0.87111 -2.75556,0.87111 -1.29778,0 -2.24,-1.06666 -0.94222,-1.08445 -0.94222,-2.96889 0,-2.82667 1.68889,-5.95556 1.70667,-3.14667 4.32,-5.03111 2.04445,-1.49334 3.85778,-1.49334 1.08444,0 1.79556,0.56889 0.72888,0.56889 1.10222,1.88445 l 0.64,-2.02667 z m -6.3289,0.92445 q -1.13777,0 -2.41777,1.06666 -1.81334,1.51112 -3.23556,4.48001 -1.40445,2.96889 -1.40445,5.36889 0,1.20889 0.60445,1.92 0.60444,0.69333 1.38667,0.69333 1.93777,0 4.21333,-2.86222 3.04,-3.80445 3.04,-7.80445 0,-1.51111 -0.58666,-2.18667 -0.58667,-0.67555 -1.60001,-0.67555 z"
         style="font-style:italic;font-size:36.4089px;line-height:1.25;font-family:'Times New Roman';-inkscape-font-specification:'Times New Roman, Italic';text-align:center;letter-spacing:0px;word-spacing:0px;text-anchor:middle;stroke-width:1.13778"
         id="path1813" />
      <path
         d="m 321.68921,848.76497 -1.38667,4.83556 h 2.79111 l -0.30222,1.12 h -2.77333 l -3.05778,10.48889 q -0.49778,1.68889 -0.49778,2.18667 0,0.30222 0.14222,0.46222 0.14222,0.16 0.33778,0.16 0.44444,0 1.17333,-0.62222 0.42667,-0.35556 1.90223,-2.18667 l 0.58666,0.44445 q -1.63555,2.38222 -3.09333,3.36 -0.99556,0.67555 -2.00889,0.67555 -0.78222,0 -1.28,-0.48 -0.49778,-0.49777 -0.49778,-1.26222 0,-0.96 0.56889,-2.93333 l 2.96889,-10.29334 h -2.68445 l 0.17778,-0.69333 q 1.95556,-0.53334 3.25334,-1.58223 1.29777,-1.06666 2.89777,-3.68 z"
         style="font-style:italic;font-size:36.4089px;line-height:1.25;font-family:'Times New Roman';-inkscape-font-specification:'Times New Roman, Italic';text-align:center;letter-spacing:0px;word-spacing:0px;text-anchor:middle;stroke-width:1.13778"
         id="path1815" />
      <path
         inkscape:connector-curvature="0"
         id="path3068"
         d="m 467.88218,733.23378 17.9118,20.1508"
         style="fill:none;stroke:#000000;stroke-width:2.34633;stroke-linecap:round;stroke-linejoin:miter;stroke-miterlimit:4;stroke-dasharray:none;stroke-opacity:1" />
      <path
         inkscape:connector-curvature="0"
         id="path3068-0"
         d="m 485.79398,733.23378 -17.9118,20.1508"
         style="fill:none;stroke:#000000;stroke-width:2.34633;stroke-linecap:round;stroke-linejoin:miter;stroke-miterlimit:4;stroke-dasharray:none;stroke-opacity:1" />
      <path
         inkscape:connector-curvature="0"
         id="path3068-7"
         d="m 467.88218,642.21155 17.9118,20.1508"
         style="fill:none;stroke:#000000;stroke-width:2.34633;stroke-linecap:round;stroke-linejoin:miter;stroke-miterlimit:4;stroke-dasharray:none;stroke-opacity:1" />
      <path
         inkscape:connector-curvature="0"
         id="path3068-0-5"
         d="m 485.79398,642.21155 -17.9118,20.1508"
         style="fill:none;stroke:#000000;stroke-width:2.34633;stroke-linecap:round;stroke-linejoin:miter;stroke-miterlimit:4;stroke-dasharray:none;stroke-opacity:1" />
      <path
         style="fill:none;stroke:#000000;stroke-width:2.34633;stroke-linecap:round;stroke-linejoin:miter;stroke-miterlimit:4;stroke-dasharray:none;stroke-opacity:1"
         d="m 387.27901,801.00937 17.9118,20.1508"
         id="path3068-78"
         inkscape:connector-curvature="0" />
      <path
         style="fill:none;stroke:#000000;stroke-width:2.34633;stroke-linecap:round;stroke-linejoin:miter;stroke-miterlimit:4;stroke-dasharray:none;stroke-opacity:1"
         d="m 405.19081,801.00937 -17.9118,20.1508"
         id="path3068-0-9"
         inkscape:connector-curvature="0" />
      <path
         style="fill:none;stroke:#000000;stroke-width:2.34633;stroke-linecap:round;stroke-linejoin:miter;stroke-miterlimit:4;stroke-dasharray:none;stroke-opacity:1"
         d="m 387.27901,573.45382 17.9118,20.1508"
         id="path3068-7-9"
         inkscape:connector-curvature="0" />
      <path
         style="fill:none;stroke:#000000;stroke-width:2.34633;stroke-linecap:round;stroke-linejoin:miter;stroke-miterlimit:4;stroke-dasharray:none;stroke-opacity:1"
         d="m 405.19081,573.45382 -17.9118,20.1508"
         id="path3068-0-5-2"
         inkscape:connector-curvature="0" />
      <path
         inkscape:connector-curvature="0"
         id="path3068-06"
         d="m 305.95873,755.49826 17.9118,20.1508"
         style="fill:none;stroke:#000000;stroke-width:2.34633;stroke-linecap:round;stroke-linejoin:miter;stroke-miterlimit:4;stroke-dasharray:none;stroke-opacity:1" />
      <path
         inkscape:connector-curvature="0"
         id="path3068-0-4"
         d="m 323.87053,755.49826 -17.9118,20.1508"
         style="fill:none;stroke:#000000;stroke-width:2.34633;stroke-linecap:round;stroke-linejoin:miter;stroke-miterlimit:4;stroke-dasharray:none;stroke-opacity:1" />
      <path
         inkscape:connector-curvature="0"
         id="path3068-7-2"
         d="m 305.95873,618.96493 17.9118,20.1508"
         style="fill:none;stroke:#000000;stroke-width:2.34633;stroke-linecap:round;stroke-linejoin:miter;stroke-miterlimit:4;stroke-dasharray:none;stroke-opacity:1" />
      <path
         inkscape:connector-curvature="0"
         id="path3068-0-5-3"
         d="m 323.87053,618.96493 -17.9118,20.1508"
         style="fill:none;stroke:#000000;stroke-width:2.34633;stroke-linecap:round;stroke-linejoin:miter;stroke-miterlimit:4;stroke-dasharray:none;stroke-opacity:1" />
      <path
         style="fill:none;stroke:#000000;stroke-width:2.34633;stroke-linecap:round;stroke-linejoin:miter;stroke-miterlimit:4;stroke-dasharray:none;stroke-opacity:1"
         d="m 424.61004,686.39815 17.9118,20.1508"
         id="path3068-7-9-3"
         inkscape:connector-curvature="0" />
      <path
         style="fill:none;stroke:#000000;stroke-width:2.34633;stroke-linecap:round;stroke-linejoin:miter;stroke-miterlimit:4;stroke-dasharray:none;stroke-opacity:1"
         d="m 442.52184,686.39815 -17.9118,20.1508"
         id="path3068-0-5-2-8"
         inkscape:connector-curvature="0" />
      <path
         style="fill:none;stroke:#000000;stroke-width:2.34633;stroke-linecap:round;stroke-linejoin:miter;stroke-miterlimit:4;stroke-dasharray:none;stroke-opacity:1"
         d="m 342.49948,686.60316 17.9118,20.1508"
         id="path3068-7-9-6"
         inkscape:connector-curvature="0" />
      <path
         style="fill:none;stroke:#000000;stroke-width:2.34633;stroke-linecap:round;stroke-linejoin:miter;stroke-miterlimit:4;stroke-dasharray:none;stroke-opacity:1"
         d="m 360.41128,686.60316 -17.9118,20.1508"
         id="path3068-0-5-2-86"
         inkscape:connector-curvature="0" />
    </g>
  </g>
</svg>
