<?xml version="1.0" encoding="UTF-8" standalone="no"?>
<!-- Created with Inkscape (http://www.inkscape.org/) -->

<svg
   width="524.17584"
   height="101.69165"
   id="svg2"
   version="1.1"
   inkscape:version="1.2.2 (b0a8486541, 2022-12-01)"
   sodipodi:docname="bode1.svg"
   xmlns:inkscape="http://www.inkscape.org/namespaces/inkscape"
   xmlns:sodipodi="http://sodipodi.sourceforge.net/DTD/sodipodi-0.dtd"
   xmlns="http://www.w3.org/2000/svg"
   xmlns:svg="http://www.w3.org/2000/svg"
   xmlns:rdf="http://www.w3.org/1999/02/22-rdf-syntax-ns#"
   xmlns:cc="http://creativecommons.org/ns#"
   xmlns:dc="http://purl.org/dc/elements/1.1/">
  <defs
     id="defs4">
    <marker
       inkscape:stockid="Arrow1Mend"
       orient="auto"
       refY="0"
       refX="0"
       id="Arrow1Mend"
       style="overflow:visible">
      <path
         id="path3783"
         d="M -4.5511111,0 -6.8266667,2.2755555 1.1377778,0 -6.8266667,-2.2755555 Z"
         style="fill-rule:evenodd;stroke:#000000;stroke-width:0.455111pt"
         inkscape:connector-curvature="0" />
    </marker>
    <marker
       inkscape:stockid="Arrow1Mend"
       orient="auto"
       refY="0"
       refX="0"
       id="Arrow1Mend-5"
       style="overflow:visible">
      <path
         inkscape:connector-curvature="0"
         id="path3783-1"
         d="M -4.5511111,0 -6.8266667,2.2755555 1.1377778,0 -6.8266667,-2.2755555 Z"
         style="fill-rule:evenodd;stroke:#000000;stroke-width:0.455111pt" />
    </marker>
  </defs>
  <sodipodi:namedview
     id="base"
     pagecolor="#ffffff"
     bordercolor="#666666"
     borderopacity="1.0"
     inkscape:pageopacity="0.0"
     inkscape:pageshadow="2"
     inkscape:zoom="1.2325822"
     inkscape:cx="161.44968"
     inkscape:cy="12.980879"
     inkscape:document-units="px"
     inkscape:current-layer="layer1"
     showgrid="false"
     fit-margin-top="0"
     fit-margin-left="0"
     fit-margin-right="0"
     fit-margin-bottom="0"
     inkscape:window-width="1487"
     inkscape:window-height="850"
     inkscape:window-x="51"
     inkscape:window-y="24"
     inkscape:window-maximized="0"
     inkscape:showpageshadow="2"
     inkscape:pagecheckerboard="0"
     inkscape:deskcolor="#d1d1d1" />
  <metadata
     id="metadata7">
    <rdf:RDF>
      <cc:Work
         rdf:about="">
        <dc:format>image/svg+xml</dc:format>
        <dc:type
           rdf:resource="http://purl.org/dc/dcmitype/StillImage" />
      </cc:Work>
    </rdf:RDF>
  </metadata>
  <g
     inkscape:label="Capa 1"
     inkscape:groupmode="layer"
     id="layer1"
     transform="translate(-269.72208,-676.69037)">
    <g
       id="g3308">
      <path
         id="rect1350"
         style="fill:#ffffff;stroke-width:0;stroke-linecap:round;stroke-linejoin:round"
         d="M 269.72208,676.69037 H 793.89792 V 778.38202 H 269.72208 Z" />
      <path
         d="m 522.46332,712.51623 0.62222,7.60889 h -0.62222 q -0.94222,-2.84445 -2.43556,-4.28445 -2.15111,-2.08 -5.52889,-2.08 -4.60444,0 -7.00444,3.64445 -2.00889,3.07555 -2.00889,7.32444 0,3.44889 1.33333,6.29334 1.33333,2.84444 3.48445,4.17778 2.16889,1.31555 4.44444,1.31555 1.33334,0 2.57778,-0.33777 1.24444,-0.33778 2.4,-0.99556 v -6.96889 q 0,-1.81334 -0.28444,-2.36445 -0.26667,-0.56889 -0.85334,-0.85333 -0.56889,-0.30222 -2.02666,-0.30222 v -0.67556 h 9.33333 v 0.67556 h -0.44444 q -1.38667,0 -1.90223,0.92444 -0.35555,0.65778 -0.35555,2.59556 v 7.37778 q -2.04445,1.10222 -4.03556,1.61778 -1.99111,0.51555 -4.42667,0.51555 -6.98667,0 -10.61333,-4.48 -2.72,-3.36 -2.72,-7.75111 0,-3.18223 1.52889,-6.09778 1.81333,-3.46667 4.97777,-5.33334 2.64889,-1.54666 6.25778,-1.54666 1.31556,0 2.38223,0.21333 1.08444,0.21333 3.05778,0.94222 0.99555,0.37333 1.33333,0.37333 0.33778,0 0.56889,-0.30222 0.24889,-0.32 0.30222,-1.22666 z"
         style="font-size:36.4089px;line-height:1.25;font-family:'Times New Roman';-inkscape-font-specification:'Times New Roman';text-align:center;letter-spacing:0px;word-spacing:0px;text-anchor:middle;stroke-width:1.13778"
         id="path1260" />
      <path
         d="m 537.71666,744.3029 v 0.65778 q -2.68445,-1.35111 -4.48,-3.16444 -2.56,-2.57778 -3.94667,-6.08001 -1.38667,-3.50222 -1.38667,-7.27111 0,-5.51111 2.72,-10.04445 2.72,-4.55111 7.09334,-6.50667 v 0.74667 q -2.18667,1.20889 -3.59111,3.30667 -1.40445,2.09778 -2.09778,5.31555 -0.69334,3.21778 -0.69334,6.72001 0,3.80444 0.58667,6.91555 0.46222,2.45334 1.12,3.9289 0.65778,1.49333 1.76,2.86222 1.12,1.36889 2.91556,2.61333 z"
         style="font-size:36.4089px;line-height:1.25;font-family:'Times New Roman';-inkscape-font-specification:'Times New Roman';text-align:center;letter-spacing:0px;word-spacing:0px;text-anchor:middle;stroke-width:1.13778"
         id="path1262" />
      <path
         d="m 538.78333,737.72512 1.99111,-8.94222 h 0.60444 q -0.12444,1.29778 -0.12444,2.15111 0,2.43556 1.54667,3.96444 1.56444,1.52889 4.07111,1.52889 2.32889,0 3.53778,-1.42222 1.20889,-1.44 1.20889,-3.30667 0,-1.20889 -0.55111,-2.20444 -0.83556,-1.47556 -4.46223,-5.19111 -1.76,-1.77778 -2.25778,-2.64889 -0.81777,-1.44 -0.81777,-3.02223 0,-2.52444 1.88444,-4.32 1.88445,-1.79555 4.83556,-1.79555 0.99555,0 1.88444,0.19555 0.55111,0.10667 2.00889,0.71111 1.03111,0.40889 1.13778,0.44445 0.24889,0.0533 0.55111,0.0533 0.51556,0 0.88889,-0.26667 0.37333,-0.26666 0.87111,-1.13777 h 0.67556 l -1.84889,8 h -0.60445 q 0.0711,-1.06667 0.0711,-1.72445 0,-2.15111 -1.42223,-3.52 -1.42222,-1.36889 -3.75111,-1.36889 -1.84889,0 -3.00445,1.08445 -1.15555,1.08444 -1.15555,2.50666 0,1.24445 0.72889,2.38223 0.74667,1.12 3.39555,3.68 2.66667,2.54222 3.44889,3.98222 0.78223,1.42223 0.78223,3.04 0,1.83112 -0.97778,3.55556 -0.96,1.70667 -2.77333,2.64889 -1.81334,0.94222 -3.96445,0.94222 -1.06667,0 -1.99111,-0.19555 -0.92445,-0.19556 -2.95111,-0.96 -0.69334,-0.26667 -1.15556,-0.26667 -1.04889,0 -1.63556,1.42222 z"
         style="font-style:italic;font-size:13.6533px;line-height:0%;font-family:'Times New Roman';-inkscape-font-specification:'Times New Roman, Italic';text-align:center;letter-spacing:0px;word-spacing:0px;text-anchor:middle;stroke-width:1.13778"
         id="path1264" />
      <path
         d="M 557.55667,712.64067 V 711.894 q 2.70222,1.33334 4.49777,3.14667 2.54223,2.59556 3.92889,6.09778 1.38667,3.48445 1.38667,7.27111 0,5.51112 -2.72,10.04445 -2.70222,4.55111 -7.09333,6.50667 v -0.65778 q 2.18666,-1.22666 3.59111,-3.32444 1.42222,-2.08 2.09778,-5.29778 0.69333,-3.23556 0.69333,-6.73778 0,-3.78667 -0.58667,-6.91556 -0.44444,-2.45333 -1.12,-3.92889 -0.65778,-1.47556 -1.76,-2.84445 -1.10222,-1.36889 -2.91555,-2.61333 z"
         style="font-size:36.4089px;line-height:1.25;font-family:'Times New Roman';-inkscape-font-specification:'Times New Roman';text-align:center;letter-spacing:0px;word-spacing:0px;text-anchor:middle;stroke-width:1.13778"
         id="path1266" />
      <path
         inkscape:connector-curvature="0"
         style="fill:none;stroke:#ff0000;stroke-width:2.62047;stroke-linecap:round;stroke-linejoin:round;stroke-miterlimit:4;stroke-dashoffset:0;stroke-opacity:1"
         d="m 467.56987,684.17514 h 133.59139 v 88.5043 H 467.56987 Z"
         id="rect2991" />
      <path
         inkscape:connector-curvature="0"
         id="path3768"
         d="M 312.00261,728.4273 H 467.08084"
         style="fill:none;stroke:#000000;stroke-width:3.95893;stroke-linecap:butt;stroke-linejoin:miter;stroke-miterlimit:4;stroke-dasharray:none;stroke-opacity:1;marker-end:url(#Arrow1Mend)" />
      <path
         inkscape:connector-curvature="0"
         id="path3768-9"
         d="M 599.44352,728.4273 H 754.52175"
         style="fill:none;stroke:#000000;stroke-width:3.95893;stroke-linecap:butt;stroke-linejoin:miter;stroke-miterlimit:4;stroke-dasharray:none;stroke-opacity:1;marker-end:url(#Arrow1Mend)" />
      <path
         d="m 273.02959,681.57472 h 10.18667 l -0.19556,0.65778 q -1.56444,0.0356 -2.24,0.30222 -0.65777,0.24889 -1.13777,0.90667 -0.46223,0.65778 -0.97778,2.43556 l -2.47111,8.53333 q -0.65778,2.27556 -0.78223,2.98667 -0.21333,1.13778 -0.21333,2.11556 0,2.15111 1.6,3.64444 1.6,1.47556 4.28445,1.47556 1.76,0 3.14666,-0.65778 1.38667,-0.67556 2.36445,-1.86667 0.99555,-1.20889 1.81333,-3.25333 0.81778,-2.06223 1.44,-4.16 l 2.13334,-7.36001 q 0.8,-2.75555 0.8,-3.59111 0,-0.58667 -0.55111,-0.99555 -0.53334,-0.42667 -2.18667,-0.51556 l 0.19555,-0.65778 h 7.66223 l -0.19556,0.65778 q -1.35111,0 -1.95555,0.26667 -0.58667,0.24889 -1.03111,0.92444 -0.44445,0.65778 -0.99556,2.57778 l -2.61333,8.94223 q -1.26223,4.35555 -2.38223,6.43555 -1.12,2.06223 -3.25333,3.46667 -2.11556,1.38667 -5.26223,1.38667 -3.62666,0 -5.84889,-2.04445 -2.22222,-2.06222 -2.22222,-4.71111 0,-1.04889 0.19556,-2.24 0.14222,-0.78222 0.69333,-2.70222 l 2.38222,-8.19556 q 0.49778,-1.77778 0.49778,-2.61334 0,-0.65777 -0.51555,-1.01333 -0.49778,-0.37333 -2.54223,-0.48 z"
         style="font-style:italic;font-size:13.6533px;line-height:0%;font-family:'Times New Roman';-inkscape-font-specification:'Times New Roman, Italic';text-align:center;letter-spacing:0px;word-spacing:0px;text-anchor:middle;stroke-width:1.13778"
         id="path1242" />
      <path
         d="m 305.86516,712.81029 v 0.65778 q -2.68445,-1.35112 -4.48,-3.16445 -2.56001,-2.57778 -3.94667,-6.08 -1.38667,-3.50223 -1.38667,-7.27112 0,-5.51111 2.72,-10.04444 2.72,-4.55112 7.09334,-6.50667 v 0.74666 q -2.18667,1.20889 -3.59112,3.30667 -1.40444,2.09778 -2.09777,5.31556 -0.69334,3.21778 -0.69334,6.72 0,3.80445 0.58667,6.91556 0.46222,2.45333 1.12,3.92889 0.65778,1.49333 1.76,2.86222 1.12,1.36889 2.91556,2.61334 z"
         style="font-size:36.4089px;line-height:1.25;font-family:'Times New Roman';-inkscape-font-specification:'Times New Roman';text-align:center;letter-spacing:0px;word-spacing:0px;text-anchor:middle;stroke-width:1.13778"
         id="path1244" />
      <path
         d="m 306.93183,706.23251 1.99111,-8.94223 h 0.60444 q -0.12444,1.29778 -0.12444,2.15111 0,2.43556 1.54667,3.96445 1.56444,1.52889 4.07111,1.52889 2.32889,0 3.53778,-1.42222 1.20889,-1.44 1.20889,-3.30667 0,-1.20889 -0.55112,-2.20445 -0.83555,-1.47555 -4.46222,-5.19111 -1.76,-1.77778 -2.25778,-2.64889 -0.81778,-1.44 -0.81778,-3.02222 0,-2.52445 1.88445,-4.32 1.88444,-1.79556 4.83556,-1.79556 0.99555,0 1.88444,0.19556 0.55111,0.10666 2.00889,0.71111 1.03111,0.40889 1.13778,0.44444 0.24889,0.0533 0.55111,0.0533 0.51556,0 0.88889,-0.26667 0.37333,-0.26667 0.87111,-1.13778 h 0.67556 l -1.84889,8 h -0.60445 q 0.0711,-1.06666 0.0711,-1.72444 0,-2.15111 -1.42222,-3.52 -1.42222,-1.36889 -3.75111,-1.36889 -1.84889,0 -3.00445,1.08444 -1.15555,1.08445 -1.15555,2.50667 0,1.24444 0.72889,2.38222 0.74666,1.12 3.39555,3.68 2.66667,2.54223 3.44889,3.98223 0.78223,1.42222 0.78223,3.04 0,1.83111 -0.97778,3.55556 -0.96,1.70666 -2.77334,2.64889 -1.81333,0.94222 -3.96444,0.94222 -1.06667,0 -1.99111,-0.19556 -0.92445,-0.19555 -2.95112,-0.96 -0.69333,-0.26666 -1.15555,-0.26666 -1.04889,0 -1.63556,1.42222 z"
         style="font-style:italic;font-size:13.6533px;line-height:0%;font-family:'Times New Roman';-inkscape-font-specification:'Times New Roman, Italic';text-align:center;letter-spacing:0px;word-spacing:0px;text-anchor:middle;stroke-width:1.13778"
         id="path1246" />
      <path
         d="m 325.70516,681.14805 v -0.74666 q 2.70223,1.33333 4.49778,3.14667 2.54223,2.59555 3.92889,6.09778 1.38667,3.48444 1.38667,7.27111 0,5.51111 -2.72,10.04445 -2.70222,4.55111 -7.09334,6.50667 v -0.65778 q 2.18667,-1.22667 3.59112,-3.32445 1.42222,-2.08 2.09777,-5.29778 0.69334,-3.23555 0.69334,-6.73778 0,-3.78667 -0.58667,-6.91556 -0.44444,-2.45333 -1.12,-3.92889 -0.65778,-1.47555 -1.76,-2.84444 -1.10222,-1.36889 -2.91556,-2.61334 z"
         style="font-size:36.4089px;line-height:1.25;font-family:'Times New Roman';-inkscape-font-specification:'Times New Roman';text-align:center;letter-spacing:0px;word-spacing:0px;text-anchor:middle;stroke-width:1.13778"
         id="path1248" />
      <path
         d="m 740.9432,692.86361 4.58667,-6.41778 q 1.77778,-2.50666 1.77778,-3.2 0,-0.39111 -0.39111,-0.64 -0.37334,-0.26666 -2.16889,-0.37333 l 0.17777,-0.65778 h 7.57334 l -0.14222,0.65778 q -1.10222,0.14222 -1.51111,0.30222 -0.64,0.26667 -1.26223,0.83556 -0.83555,0.74666 -2.41777,2.93333 l -5.90223,8.14223 -1.77778,5.95555 q -0.65778,2.24001 -0.65778,3.09334 0,0.55111 0.19556,0.83555 0.21333,0.28445 0.72889,0.46223 0.67556,0.21333 2.06222,0.23111 l -0.17778,0.65778 h -10.15111 l 0.21333,-0.65778 q 1.51112,-0.0356 2.00889,-0.24889 0.8,-0.32 1.19111,-0.85333 0.60445,-0.81778 1.24445,-2.93334 l 2.11556,-7.04 -2.57778,-8.32 q -0.69334,-2.20445 -1.28,-2.73778 -0.56889,-0.53334 -2.00889,-0.65778 l 0.17777,-0.65778 h 8.90667 l -0.21333,0.65778 q -1.67111,0.12444 -1.90222,0.21333 -0.39111,0.12445 -0.64,0.49778 -0.24889,0.37333 -0.24889,0.87111 0,0.72889 0.51555,2.48889 z"
         style="font-style:italic;font-size:13.6533px;line-height:0%;font-family:'Times New Roman';-inkscape-font-specification:'Times New Roman, Italic';text-align:center;letter-spacing:0px;word-spacing:0px;text-anchor:middle;stroke-width:1.13778"
         id="path1251" />
      <path
         d="m 759.76987,712.81029 v 0.65778 q -2.68444,-1.35112 -4.48,-3.16445 -2.56,-2.57778 -3.94667,-6.08 -1.38666,-3.50223 -1.38666,-7.27112 0,-5.51111 2.72,-10.04444 2.72,-4.55112 7.09333,-6.50667 v 0.74666 q -2.18666,1.20889 -3.59111,3.30667 -1.40444,2.09778 -2.09778,5.31556 -0.69333,3.21778 -0.69333,6.72 0,3.80445 0.58667,6.91556 0.46222,2.45333 1.12,3.92889 0.65777,1.49333 1.76,2.86222 1.12,1.36889 2.91555,2.61334 z"
         style="font-size:36.4089px;line-height:1.25;font-family:'Times New Roman';-inkscape-font-specification:'Times New Roman';text-align:center;letter-spacing:0px;word-spacing:0px;text-anchor:middle;stroke-width:1.13778"
         id="path1253" />
      <path
         d="m 760.83654,706.23251 1.99111,-8.94223 h 0.60445 q -0.12445,1.29778 -0.12445,2.15111 0,2.43556 1.54667,3.96445 1.56445,1.52889 4.07111,1.52889 2.32889,0 3.53778,-1.42222 1.20889,-1.44 1.20889,-3.30667 0,-1.20889 -0.55111,-2.20445 -0.83556,-1.47555 -4.46222,-5.19111 -1.76,-1.77778 -2.25778,-2.64889 -0.81778,-1.44 -0.81778,-3.02222 0,-2.52445 1.88444,-4.32 1.88445,-1.79556 4.83556,-1.79556 0.99556,0 1.88445,0.19556 0.55111,0.10666 2.00889,0.71111 1.03111,0.40889 1.13777,0.44444 0.24889,0.0533 0.55112,0.0533 0.51555,0 0.88889,-0.26667 0.37333,-0.26667 0.87111,-1.13778 h 0.67555 l -1.84889,8 h -0.60444 q 0.0711,-1.06666 0.0711,-1.72444 0,-2.15111 -1.42222,-3.52 -1.42223,-1.36889 -3.75112,-1.36889 -1.84889,0 -3.00444,1.08444 -1.15556,1.08445 -1.15556,2.50667 0,1.24444 0.72889,2.38222 0.74667,1.12 3.39556,3.68 2.66667,2.54223 3.44889,3.98223 0.78222,1.42222 0.78222,3.04 0,1.83111 -0.97778,3.55556 -0.96,1.70666 -2.77333,2.64889 -1.81334,0.94222 -3.96445,0.94222 -1.06666,0 -1.99111,-0.19556 -0.92444,-0.19555 -2.95111,-0.96 -0.69333,-0.26666 -1.15556,-0.26666 -1.04889,0 -1.63555,1.42222 z"
         style="font-style:italic;font-size:13.6533px;line-height:0%;font-family:'Times New Roman';-inkscape-font-specification:'Times New Roman, Italic';text-align:center;letter-spacing:0px;word-spacing:0px;text-anchor:middle;stroke-width:1.13778"
         id="path1255" />
      <path
         d="m 779.60988,681.14805 v -0.74666 q 2.70223,1.33333 4.49778,3.14667 2.54223,2.59555 3.92889,6.09778 1.38667,3.48444 1.38667,7.27111 0,5.51111 -2.72,10.04445 -2.70222,4.55111 -7.09334,6.50667 v -0.65778 q 2.18667,-1.22667 3.59112,-3.32445 1.42222,-2.08 2.09777,-5.29778 0.69334,-3.23555 0.69334,-6.73778 0,-3.78667 -0.58667,-6.91556 -0.44444,-2.45333 -1.12,-3.92889 -0.65778,-1.47555 -1.76,-2.84444 -1.10222,-1.36889 -2.91556,-2.61334 z"
         style="font-size:36.4089px;line-height:1.25;font-family:'Times New Roman';-inkscape-font-specification:'Times New Roman';text-align:center;letter-spacing:0px;word-spacing:0px;text-anchor:middle;stroke-width:1.13778"
         id="path1257" />
    </g>
  </g>
</svg>
