<?xml version="1.0" encoding="UTF-8" standalone="no"?>
<!-- Created with Inkscape (http://www.inkscape.org/) -->

<svg
   width="636.65125"
   height="413.17551"
   id="svg2"
   version="1.1"
   inkscape:version="1.2.2 (b0a8486541, 2022-12-01)"
   sodipodi:docname="bode2.svg"
   xmlns:inkscape="http://www.inkscape.org/namespaces/inkscape"
   xmlns:sodipodi="http://sodipodi.sourceforge.net/DTD/sodipodi-0.dtd"
   xmlns="http://www.w3.org/2000/svg"
   xmlns:svg="http://www.w3.org/2000/svg"
   xmlns:rdf="http://www.w3.org/1999/02/22-rdf-syntax-ns#"
   xmlns:cc="http://creativecommons.org/ns#"
   xmlns:dc="http://purl.org/dc/elements/1.1/">
  <defs
     id="defs4">
    <marker
       inkscape:stockid="Arrow1Mend"
       orient="auto"
       refY="0"
       refX="0"
       id="Arrow1Mend"
       style="overflow:visible">
      <path
         id="path3770"
         d="M -4.5511111,0 -6.8266667,2.2755555 1.1377778,0 -6.8266667,-2.2755555 Z"
         style="fill-rule:evenodd;stroke:#000000;stroke-width:0.455111pt"
         inkscape:connector-curvature="0" />
    </marker>
    <marker
       inkscape:stockid="Arrow1Mend"
       orient="auto"
       refY="0"
       refX="0"
       id="Arrow1Mend-9"
       style="overflow:visible">
      <path
         inkscape:connector-curvature="0"
         id="path3770-8"
         d="M -4.5511111,0 -6.8266667,2.2755555 1.1377778,0 -6.8266667,-2.2755555 Z"
         style="fill-rule:evenodd;stroke:#000000;stroke-width:0.455111pt" />
    </marker>
  </defs>
  <sodipodi:namedview
     id="base"
     pagecolor="#ffffff"
     bordercolor="#666666"
     borderopacity="1.0"
     inkscape:pageopacity="0.0"
     inkscape:pageshadow="2"
     inkscape:zoom="1.0163373"
     inkscape:cx="271.56339"
     inkscape:cy="191.37347"
     inkscape:document-units="px"
     inkscape:current-layer="layer1"
     showgrid="false"
     inkscape:window-width="1373"
     inkscape:window-height="815"
     inkscape:window-x="59"
     inkscape:window-y="24"
     inkscape:window-maximized="0"
     fit-margin-top="0"
     fit-margin-left="0"
     fit-margin-right="0"
     fit-margin-bottom="0"
     inkscape:showpageshadow="2"
     inkscape:pagecheckerboard="0"
     inkscape:deskcolor="#d1d1d1" />
  <metadata
     id="metadata7">
    <rdf:RDF>
      <cc:Work
         rdf:about="">
        <dc:format>image/svg+xml</dc:format>
        <dc:type
           rdf:resource="http://purl.org/dc/dcmitype/StillImage" />
      </cc:Work>
    </rdf:RDF>
  </metadata>
  <g
     inkscape:label="Capa 1"
     inkscape:groupmode="layer"
     id="layer1"
     transform="translate(-228.43867,-490.0282)">
    <g
       id="g1350">
      <rect
         style="fill:#ffffff;stroke-width:0;stroke-linecap:round;stroke-linejoin:round"
         id="rect1334"
         width="636.65125"
         height="413.17551"
         x="228.43867"
         y="490.0282" />
      <path
         style="fill:none;stroke:#ff0000;stroke-width:5.24095;stroke-linecap:butt;stroke-linejoin:miter;stroke-miterlimit:4;stroke-dasharray:none;stroke-opacity:1"
         d="M 406.72717,697.03868 427.917,655.24761 c 0,0 12.7791,-26.34645 22.95566,-36.4936 6.55362,-6.53468 14.32205,-13.93871 23.54427,-14.71517 7.18883,-0.60526 14.41128,3.69399 20.01263,8.24049 8.66177,7.03058 13.16808,18.05532 18.83541,27.66451 20.54924,34.8421 34.67601,73.18007 54.74042,108.30362 4.50838,7.8921 8.41516,16.40424 14.71515,22.95565 7.13038,7.41495 15.03591,17.14359 25.31008,17.6582 9.64975,0.48334 18.16725,-7.62033 25.31009,-14.12656 5.6327,-5.13065 9.07142,-12.277 12.94935,-18.8354 21.7939,-36.8581 57.68345,-114.77829 57.68345,-114.77829 0,0 9.8592,-15.89254 16.48099,-22.36705 6.34402,-6.20294 12.92183,-14.77151 21.77844,-15.30378 9.11276,-0.54766 17.37673,6.80957 24.13287,12.94934 6.80589,6.185 10.65488,15.0208 15.30377,22.95566 10.69009,18.24615 28.84173,56.50623 28.84173,56.50623"
         id="path4499"
         inkscape:connector-curvature="0"
         sodipodi:nodetypes="ccssssssssscssssc" />
      <path
         style="fill:none;stroke:#000000;stroke-width:4.43465;stroke-linecap:butt;stroke-linejoin:miter;stroke-miterlimit:4;stroke-dasharray:none;stroke-opacity:1;marker-end:url(#Arrow1Mend)"
         d="m 233.88745,697.307 h 620.03718 v 0"
         id="path2987"
         inkscape:connector-curvature="0" />
      <path
         style="fill:none;stroke:#000000;stroke-width:4.43465;stroke-linecap:butt;stroke-linejoin:miter;stroke-miterlimit:4;stroke-dasharray:none;stroke-opacity:1;marker-end:url(#Arrow1Mend-9)"
         d="M 406.55602,895.96914 V 501.97083"
         id="path4225"
         inkscape:connector-curvature="0" />
      <path
         d="m 851.10622,720.80877 -2.08,7.25333 h 4.18667 l -0.45334,1.68 h -4.15999 l -4.58667,15.73332 q -0.74666,2.53334 -0.74666,3.28 0,0.45333 0.21333,0.69333 0.21333,0.24 0.50667,0.24 0.66666,0 1.75999,-0.93333 0.64,-0.53333 2.85334,-3.28 l 0.88,0.66667 q -2.45334,3.57333 -4.64,5.04 -1.49333,1.01333 -3.01333,1.01333 -1.17334,0 -1.92,-0.72 -0.74667,-0.74667 -0.74667,-1.89333 0,-1.44 0.85333,-4.4 l 4.45334,-15.43999 h -4.02667 l 0.26667,-1.04 q 2.93333,-0.8 4.87999,-2.37333 1.94667,-1.6 4.34667,-5.52 z"
         style="font-style:italic;font-size:54.6133px;line-height:1.25;font-family:'Times New Roman';-inkscape-font-specification:'Times New Roman, Italic';text-align:center;letter-spacing:0px;word-spacing:0px;text-anchor:middle;stroke-width:1.13778"
         id="path1270" />
      <path
         style="fill:none;stroke:#0000ff;stroke-width:5.24095;stroke-linecap:butt;stroke-linejoin:miter;stroke-miterlimit:4;stroke-dasharray:none;stroke-opacity:1"
         d="m 472.72701,698.74131 21.18983,-67.57692 c 0,0 12.77909,-42.60269 22.95566,-59.01085 6.55362,-10.56669 14.32205,-22.53915 23.54426,-23.79469 7.18884,-0.97872 14.41129,5.97326 20.01264,13.32502 8.66177,11.36859 13.16808,29.1958 18.83541,44.73403 20.54923,56.34032 34.676,118.33356 54.74041,175.12896 4.50839,12.76168 8.41517,26.52597 14.71516,37.11971 7.13038,11.99011 15.03591,27.72148 25.31008,28.55364 9.64975,0.78157 18.16725,-12.32223 25.31009,-22.84291 5.6327,-8.29636 9.07141,-19.85214 12.94935,-30.45719 21.7939,-59.60023 57.68345,-185.59863 57.68345,-185.59863 0,0 9.85919,-25.69851 16.48099,-36.16794 6.34402,-10.03024 12.92183,-23.8858 21.77844,-24.74648"
         id="path4521"
         inkscape:connector-curvature="0" />
      <path
         d="m 521.99926,508.90861 q 0.75555,1.28889 1.04444,2.42222 0.28889,1.11111 0.57778,4.4 l 0.97778,10.93333 q 1.33333,-1.6 3.86666,-5.06667 1.22223,-1.68888 3.02222,-4.6 1.08889,-1.77777 1.33334,-2.48888 0.13333,-0.35556 0.13333,-0.73334 0,-0.24444 -0.15555,-0.4 -0.15556,-0.15555 -0.82223,-0.35555 -0.64444,-0.22222 -1.08888,-0.77778 -0.42223,-0.57778 -0.42223,-1.31111 0,-0.91111 0.53334,-1.46667 0.53333,-0.55555 1.33333,-0.55555 0.97778,0 1.66667,0.82222 0.68888,0.8 0.68888,2.22222 0,1.75556 -1.2,4.02222 -1.2,2.24445 -4.62222,6.91111 -3.42222,4.66667 -8.28888,10.17778 -3.35556,3.8 -4.97778,4.77777 -1.62222,1 -2.77778,1 -0.68889,0 -1.2,-0.53333 -0.53333,-0.51111 -0.53333,-1.2 0,-0.86667 0.73333,-1.57778 0.71111,-0.71111 1.55556,-0.71111 0.44444,0 0.73333,0.2 0.17778,0.11111 0.4,0.62223 0.2,0.53333 0.37778,0.71111 0.11111,0.11111 0.26667,0.11111 0.13333,0 0.46666,-0.22223 1.22222,-0.75555 2.84445,-2.39999 2.13333,-2.17778 3.15555,-3.55556 l -1.24444,-14.08888 q -0.31111,-3.48889 -0.93334,-4.24445 -0.62222,-0.75555 -2.08889,-0.75555 -0.46666,0 -1.66666,0.13333 l -0.2,-0.82222 z"
         style="font-style:italic;font-size:45.5111px;line-height:0%;font-family:'Times New Roman';-inkscape-font-specification:'Times New Roman, Italic';text-align:center;letter-spacing:0px;word-spacing:0px;text-anchor:middle;stroke-width:1.13778"
         id="path1261" />
      <path
         d="m 549.06592,537.93082 v 0.82223 q -3.35556,-1.68889 -5.6,-3.95556 -3.2,-3.22222 -4.93333,-7.6 -1.73334,-4.37777 -1.73334,-9.08888 0,-6.88889 3.4,-12.55556 3.4,-5.68888 8.86667,-8.13333 v 0.93333 q -2.73333,1.51112 -4.48889,4.13334 -1.75555,2.62222 -2.62222,6.64444 -0.86667,4.02222 -0.86667,8.4 0,4.75555 0.73334,8.64444 0.57777,3.06667 1.4,4.91111 0.82222,1.86667 2.19999,3.57778 1.4,1.71111 3.64445,3.26666 z"
         style="font-size:45.5111px;line-height:1.25;font-family:'Times New Roman';-inkscape-font-specification:'Times New Roman';text-align:center;letter-spacing:0px;word-spacing:0px;text-anchor:middle;stroke-width:1.13778"
         id="path1263" />
      <path
         d="m 561.91036,503.3975 -1.73334,6.04444 h 3.48889 l -0.37777,1.4 h -3.46667 l -3.82222,13.11111 q -0.62222,2.11111 -0.62222,2.73333 0,0.37778 0.17777,0.57778 0.17778,0.2 0.42223,0.2 0.55555,0 1.46666,-0.77778 0.53334,-0.44444 2.37778,-2.73333 l 0.73333,0.55555 q -2.04444,2.97778 -3.86666,4.2 -1.24445,0.84445 -2.51111,0.84445 -0.97778,0 -1.6,-0.6 -0.62223,-0.62222 -0.62223,-1.57778 0,-1.2 0.71112,-3.66667 l 3.71111,-12.86666 h -3.35556 l 0.22222,-0.86667 q 2.44445,-0.66666 4.06667,-1.97777 1.62222,-1.33334 3.62222,-4.6 z"
         style="font-style:italic;font-size:45.5111px;line-height:0%;font-family:'Times New Roman';-inkscape-font-specification:'Times New Roman, Italic';text-align:center;letter-spacing:0px;word-spacing:0px;text-anchor:middle;stroke-width:1.13778"
         id="path1265" />
      <path
         d="m 563.7548,498.35305 v -0.93333 q 3.37778,1.66667 5.62222,3.93333 3.17778,3.24445 4.91111,7.62222 1.73334,4.35556 1.73334,9.08889 0,6.88889 -3.4,12.55555 -3.37778,5.68889 -8.86667,8.13334 v -0.82223 q 2.73334,-1.53333 4.48889,-4.15555 1.77778,-2.6 2.62222,-6.62222 0.86667,-4.04445 0.86667,-8.42222 0,-4.73333 -0.73333,-8.64444 -0.55556,-3.06667 -1.4,-4.91111 -0.82223,-1.84445 -2.2,-3.55556 -1.37778,-1.71111 -3.64445,-3.26667 z"
         style="font-size:45.5111px;line-height:1.25;font-family:'Times New Roman';-inkscape-font-specification:'Times New Roman';text-align:center;letter-spacing:0px;word-spacing:0px;text-anchor:middle;stroke-width:1.13778"
         id="path1267" />
      <path
         d="m 546.07186,796.03093 -3.86667,13.24444 q -0.86667,2.95556 -0.86667,3.73333 0,0.4 0.13334,0.6 0.15555,0.17778 0.4,0.17778 0.37778,0 0.82222,-0.33333 0.46667,-0.35556 2.31111,-2.75556 l 0.66667,0.51111 q -1.75556,2.77778 -3.6,4.08889 -1.22222,0.84445 -2.35556,0.84445 -0.86666,0 -1.35555,-0.48889 -0.48889,-0.48889 -0.48889,-1.26667 0,-0.75555 0.28889,-2 0.35555,-1.64444 2.02222,-7.15555 -3.77778,6.2 -6.33333,8.55555 -2.53333,2.35556 -4.71111,2.35556 -1.02222,0 -1.73334,-0.71111 -0.71111,-0.71112 -0.71111,-1.8 0,-1.66667 0.97778,-5.11111 l 1.93333,-6.86667 q 0.71112,-2.46666 0.71112,-3.06666 0,-0.26667 -0.2,-0.44445 -0.17778,-0.2 -0.4,-0.2 -0.46667,0 -0.93334,0.33333 -0.46666,0.33334 -2.11111,2.46667 l -0.68889,-0.48889 q 1.66667,-2.57778 3.53334,-3.8 1.42222,-0.95555 2.62222,-0.95555 0.82222,0 1.33333,0.53333 0.53333,0.51111 0.53333,1.33333 0,1.2 -0.88889,4.28889 l -2.08888,7.17778 q -0.86667,2.93333 -0.86667,3.71111 0,0.42222 0.26667,0.68889 0.28889,0.24444 0.75555,0.24444 0.73333,0 1.91111,-0.73333 1.17778,-0.73334 3.13334,-3.24445 1.97777,-2.53333 3.24444,-4.73333 1.28889,-2.22222 2.73333,-7.04444 l 0.48889,-1.68889 z"
         style="font-style:italic;font-size:45.5111px;line-height:0%;font-family:'Times New Roman';-inkscape-font-specification:'Times New Roman, Italic';text-align:center;letter-spacing:0px;word-spacing:0px;text-anchor:middle;stroke-width:1.13778"
         id="path1252" />
      <path
         d="m 561.53852,824.51981 v 0.82222 q -3.35555,-1.68888 -5.6,-3.95555 -3.2,-3.22222 -4.93333,-7.6 -1.73333,-4.37777 -1.73333,-9.08889 0,-6.88888 3.4,-12.55555 3.39999,-5.68889 8.86666,-8.13333 v 0.93333 q -2.73333,1.51111 -4.48889,4.13334 -1.75555,2.62222 -2.62222,6.64444 -0.86667,4.02222 -0.86667,8.4 0,4.75555 0.73334,8.64444 0.57778,3.06667 1.4,4.91111 0.82222,1.86667 2.2,3.57778 1.4,1.71111 3.64444,3.26666 z"
         style="font-size:45.5111px;line-height:1.25;font-family:'Times New Roman';-inkscape-font-specification:'Times New Roman';text-align:center;letter-spacing:0px;word-spacing:0px;text-anchor:middle;stroke-width:1.13778"
         id="path1254" />
      <path
         d="m 574.38296,789.98649 -1.73333,6.04444 h 3.48889 l -0.37778,1.4 h -3.46667 l -3.82222,13.11111 q -0.62222,2.11111 -0.62222,2.73333 0,0.37778 0.17778,0.57778 0.17778,0.2 0.42222,0.2 0.55556,0 1.46667,-0.77778 0.53333,-0.44444 2.37777,-2.73333 l 0.73334,0.55555 q -2.04445,2.97778 -3.86667,4.2 -1.24444,0.84445 -2.51111,0.84445 -0.97778,0 -1.6,-0.6 -0.62222,-0.62223 -0.62222,-1.57778 0,-1.2 0.71111,-3.66667 l 3.71111,-12.86666 h -3.35556 l 0.22223,-0.86667 q 2.44444,-0.66666 4.06666,-1.97777 1.62222,-1.33334 3.62222,-4.6 z"
         style="font-style:italic;font-size:45.5111px;line-height:0%;font-family:'Times New Roman';-inkscape-font-specification:'Times New Roman, Italic';text-align:center;letter-spacing:0px;word-spacing:0px;text-anchor:middle;stroke-width:1.13778"
         id="path1256" />
      <path
         d="m 576.2274,784.94204 v -0.93333 q 3.37778,1.66667 5.62222,3.93333 3.17778,3.24445 4.91111,7.62222 1.73334,4.35556 1.73334,9.08889 0,6.88889 -3.4,12.55555 -3.37778,5.68889 -8.86667,8.13333 v -0.82222 q 2.73334,-1.53333 4.48889,-4.15555 1.77778,-2.6 2.62222,-6.62222 0.86667,-4.04445 0.86667,-8.42222 0,-4.73334 -0.73333,-8.64445 -0.55556,-3.06666 -1.4,-4.91111 -0.82223,-1.84444 -2.2,-3.55555 -1.37778,-1.71111 -3.64445,-3.26667 z"
         style="font-size:45.5111px;line-height:1.25;font-family:'Times New Roman';-inkscape-font-specification:'Times New Roman';text-align:center;letter-spacing:0px;word-spacing:0px;text-anchor:middle;stroke-width:1.13778"
         id="path1258" />
    </g>
  </g>
</svg>
