<?xml version="1.0" encoding="UTF-8" standalone="no"?>
<svg
   width="145.92216mm"
   height="129.47774mm"
   version="1.2"
   id="svg920"
   sodipodi:docname="model_fig26.svg"
   inkscape:version="1.1.2 (0a00cf5339, 2022-02-04)"
   xmlns:inkscape="http://www.inkscape.org/namespaces/inkscape"
   xmlns:sodipodi="http://sodipodi.sourceforge.net/DTD/sodipodi-0.dtd"
   xmlns="http://www.w3.org/2000/svg"
   xmlns:svg="http://www.w3.org/2000/svg"
   xmlns:rdf="http://www.w3.org/1999/02/22-rdf-syntax-ns#"
   xmlns:cc="http://creativecommons.org/ns#"
   xmlns:dc="http://purl.org/dc/elements/1.1/">
  <metadata
     id="metadata924">
    <rdf:RDF>
      <cc:Work
         rdf:about="">
        <dc:format>image/svg+xml</dc:format>
        <dc:type
           rdf:resource="http://purl.org/dc/dcmitype/StillImage" />
        <dc:title>Qt SVG Document</dc:title>
      </cc:Work>
    </rdf:RDF>
  </metadata>
  <sodipodi:namedview
     pagecolor="#ffffff"
     bordercolor="#666666"
     borderopacity="1"
     objecttolerance="10"
     gridtolerance="10"
     guidetolerance="10"
     inkscape:pageopacity="0"
     inkscape:pageshadow="2"
     inkscape:window-width="2580"
     inkscape:window-height="1052"
     id="namedview922"
     showgrid="false"
     fit-margin-top="0"
     fit-margin-left="0"
     fit-margin-right="0"
     fit-margin-bottom="0"
     inkscape:zoom="1.0811746"
     inkscape:cx="126.71404"
     inkscape:cy="229.38016"
     inkscape:window-x="1920"
     inkscape:window-y="0"
     inkscape:window-maximized="1"
     inkscape:current-layer="svg920"
     inkscape:pagecheckerboard="0"
     inkscape:document-units="mm" />
  <title
     id="title2">Qt SVG Document</title>
  <desc
     id="desc4">Generated with Qt</desc>
  <defs
     id="defs6">
    <marker
       inkscape:stockid="Arrow1Mend"
       orient="auto"
       refY="0"
       refX="0"
       id="marker1008"
       style="overflow:visible"
       inkscape:isstock="true">
      <path
         id="path1006"
         d="M 0,0 5,-5 -12.5,0 5,5 Z"
         style="fill:#ff0000;fill-opacity:1;fill-rule:evenodd;stroke:#ff0000;stroke-width:1pt;stroke-opacity:1"
         transform="matrix(-0.4,0,0,-0.4,-4,0)"
         inkscape:connector-curvature="0" />
    </marker>
    <marker
       inkscape:isstock="true"
       style="overflow:visible"
       id="marker983"
       refX="0"
       refY="0"
       orient="auto"
       inkscape:stockid="Arrow1Mend"
       inkscape:collect="always">
      <path
         inkscape:connector-curvature="0"
         transform="matrix(-0.4,0,0,-0.4,-4,0)"
         style="fill:#000000;fill-opacity:1;fill-rule:evenodd;stroke:#000000;stroke-width:1pt;stroke-opacity:1"
         d="M 0,0 5,-5 -12.5,0 5,5 Z"
         id="path981" />
    </marker>
    <marker
       inkscape:stockid="Arrow1Mend"
       orient="auto"
       refY="0"
       refX="0"
       id="Arrow1Mend"
       style="overflow:visible"
       inkscape:isstock="true"
       inkscape:collect="always">
      <path
         id="path2267"
         d="M 0,0 5,-5 -12.5,0 5,5 Z"
         style="fill:#ff0000;fill-opacity:1;fill-rule:evenodd;stroke:#ff0000;stroke-width:1pt;stroke-opacity:1"
         transform="matrix(-0.4,0,0,-0.4,-4,0)"
         inkscape:connector-curvature="0" />
    </marker>
    <marker
       inkscape:stockid="Arrow1Mend"
       orient="auto"
       refY="0"
       refX="0"
       id="marker1008-3"
       style="overflow:visible"
       inkscape:isstock="true">
      <path
         id="path1006-6"
         d="M 0,0 5,-5 -12.5,0 5,5 Z"
         style="fill:#ff0000;fill-opacity:1;fill-rule:evenodd;stroke:#ff0000;stroke-width:1pt;stroke-opacity:1"
         transform="matrix(-0.4,0,0,-0.4,-4,0)"
         inkscape:connector-curvature="0" />
    </marker>
  </defs>
  <g
     id="g1402"
     transform="translate(4.2829959,2.8238646)">
    <path
       id="rect964"
       style="fill:#ffffff;stroke:#ffffff;stroke-width:0.693333;stroke-miterlimit:10"
       d="M -3.9363294,-2.4771981 H 546.88716 V 486.19416 H -3.9363294 Z" />
    <path
       id="polyline10"
       style="font-family:Ubuntu;vector-effect:non-scaling-stroke;fill:none;fill-rule:evenodd;stroke:#808080;stroke-linecap:square;stroke-linejoin:bevel"
       transform="matrix(1.4936235,0,0,1.4957025,158.0849,209.53239)"
       d="M -3,0 H 3" />
    <path
       id="polyline12"
       style="font-family:Ubuntu;vector-effect:non-scaling-stroke;fill:none;fill-rule:evenodd;stroke:#808080;stroke-linecap:square;stroke-linejoin:bevel"
       transform="matrix(1.4936235,0,0,1.4957025,158.0849,209.53239)"
       d="M 0,-3 V 3" />
    <path
       style="font-style:normal;font-weight:400;font-size:medium;font-family:Ubuntu;vector-effect:none;fill:none;fill-rule:evenodd;stroke:#0000ff;stroke-width:1.49466;stroke-linecap:square;stroke-linejoin:bevel;stroke-opacity:1"
       inkscape:connector-curvature="0"
       id="path22"
       d="m 158.08493,134.74839 h 26.13842 m 0,-14.95703 v 29.91405 m 7.46811,-29.91405 v 29.91405 m 26.13841,-14.95702 h -26.13841" />
    <path
       style="font-style:normal;font-weight:400;font-size:medium;font-family:Ubuntu;vector-effect:none;fill:none;fill-rule:evenodd;stroke:#0000ff;stroke-width:1.49466;stroke-linecap:square;stroke-linejoin:bevel;stroke-opacity:1"
       inkscape:connector-curvature="0"
       id="path38"
       d="m 337.31993,30.048686 h 11.94899 m 0,0 2.98725,-7.478512 m 0,0 5.9745,14.957025 m 0,0 5.97448,-14.957025 m 0,0 5.9745,14.957025 m 0,0 5.97449,-14.957025 m 0,0 5.9745,14.957025 m 0,0 2.98725,-7.478513 m 0,0 h 11.94898" />
    <path
       style="font-style:normal;font-weight:400;font-size:medium;font-family:Ubuntu;vector-effect:none;fill:none;fill-rule:evenodd;stroke:#0000ff;stroke-width:1.49466;stroke-linecap:square;stroke-linejoin:bevel;stroke-opacity:1"
       inkscape:connector-curvature="0"
       id="path54"
       d="m 187.95743,30.048686 h 11.94899 m 0,0 2.98725,-7.478512 m 0,0 5.9745,14.957025 m 0,0 5.97448,-14.957025 m 0,0 5.9745,14.957025 m 0,0 5.97449,-14.957025 m 0,0 5.9745,14.957025 m 0,0 2.98725,-7.478513 m 0,0 h 11.94898" />
    <path
       style="font-style:normal;font-weight:400;font-size:medium;font-family:Ubuntu;vector-effect:none;fill:none;fill-rule:evenodd;stroke:#0000ff;stroke-width:1.49466;stroke-linecap:square;stroke-linejoin:bevel;stroke-opacity:1"
       inkscape:connector-curvature="0"
       id="path70"
       d="m 337.31993,239.44689 h 11.94899 m 0,0 2.98725,-7.47852 m 0,0 5.9745,14.95702 m 0,0 5.97448,-14.95702 m 0,0 5.9745,14.95702 m 0,0 5.97449,-14.95702 m 0,0 5.9745,14.95702 m 0,0 2.98725,-7.4785 m 0,0 h 11.94898" />
    <path
       style="font-style:normal;font-weight:400;font-size:medium;font-family:Ubuntu;vector-effect:none;fill:none;fill-rule:evenodd;stroke:#0000ff;stroke-width:1.49466;stroke-linecap:square;stroke-linejoin:bevel;stroke-opacity:1"
       inkscape:connector-curvature="0"
       id="path86"
       d="m 187.95743,239.44689 h 11.94899 m 0,0 2.98725,-7.47852 m 0,0 5.9745,14.95702 m 0,0 5.97448,-14.95702 m 0,0 5.9745,14.95702 m 0,0 5.97449,-14.95702 m 0,0 5.9745,14.95702 m 0,0 2.98725,-7.4785 m 0,0 h 11.94898" />
    <path
       style="font-style:normal;font-weight:400;font-size:medium;font-family:Ubuntu;vector-effect:none;fill:none;fill-rule:evenodd;stroke:#0000ff;stroke-width:1.49466;stroke-linecap:square;stroke-linejoin:bevel;stroke-opacity:1"
       inkscape:connector-curvature="0"
       id="path102"
       d="m 292.5119,149.70534 v 11.96562 m 0,0 7.46811,2.9914 m 0,0 -14.93623,5.98281 m 0,0 14.93623,5.98281 m 0,0 -14.93623,5.98281 m 0,0 14.93623,5.98281 m 0,0 -14.93623,5.98281 m 0,0 7.46812,2.99141 m 0,0 v 11.96562" />
    <path
       style="font-style:normal;font-weight:400;font-size:medium;font-family:Ubuntu;vector-effect:none;fill:none;fill-rule:evenodd;stroke:#0000ff;stroke-width:1.49466;stroke-linecap:square;stroke-linejoin:bevel;stroke-opacity:1"
       inkscape:connector-curvature="0"
       id="path118"
       d="m 262.6394,448.84539 v 14.95702 m -14.93623,0 h 29.87247 m -22.40436,7.47851 h 14.93623 m -10.45536,7.47852 h 5.9745" />
    <path
       style="font-style:normal;font-weight:400;font-size:medium;font-family:Ubuntu;vector-effect:none;fill:none;fill-rule:evenodd;stroke:#0000ff;stroke-width:1.49466;stroke-linecap:square;stroke-linejoin:bevel;stroke-opacity:1"
       inkscape:connector-curvature="0"
       id="path130"
       d="m 128.2127,179.61939 v 14.95702 m -14.93623,0 h 29.87247 m -22.40435,7.47851 h 14.93623 m -10.45536,7.47852 h 5.97449" />
    <path
       id="polyline142"
       style="font-family:Ubuntu;vector-effect:none;fill:none;fill-rule:evenodd;stroke:#0000ff;stroke-linecap:square;stroke-linejoin:bevel"
       transform="matrix(1.4936235,0,0,1.4957025,173.0219,224.49039)"
       d="m 150,-130 h 40" />
    <path
       id="polyline158"
       style="font-family:Ubuntu;vector-effect:none;fill:none;fill-rule:evenodd;stroke:#0000ff;stroke-linecap:square;stroke-linejoin:bevel"
       transform="matrix(1.4936235,0,0,1.4957025,173.0219,224.49039)"
       d="M 190,10 H 150" />
    <path
       id="circle166"
       style="font-family:Ubuntu;fill:#0000ff;fill-rule:evenodd;stroke:#0000ff;stroke-width:1.49466;stroke-linecap:square;stroke-linejoin:bevel"
       d="m 459.79715,239.44688 a 2.987247,2.991405 0 0 1 -2.98724,2.99141 2.987247,2.991405 0 0 1 -2.98725,-2.99141 2.987247,2.991405 0 0 1 2.98725,-2.9914 2.987247,2.991405 0 0 1 2.98724,2.9914 z" />
    <path
       id="polyline178"
       style="font-family:Ubuntu;vector-effect:none;fill:none;fill-rule:evenodd;stroke:#0000ff;stroke-linecap:square;stroke-linejoin:bevel"
       transform="matrix(1.4936235,0,0,1.4957025,173.0219,224.49039)"
       d="m 190,-130 v 60" />
    <path
       id="polyline194"
       style="font-family:Ubuntu;vector-effect:none;fill:none;fill-rule:evenodd;stroke:#0000ff;stroke-linecap:square;stroke-linejoin:bevel"
       transform="matrix(1.4936235,0,0,1.4957025,173.0219,224.49039)"
       d="M 190,-70 V 10" />
    <path
       id="circle206"
       style="font-family:Ubuntu;fill:#0000ff;fill-rule:evenodd;stroke:#0000ff;stroke-width:1.49466;stroke-linecap:square;stroke-linejoin:bevel"
       d="m 459.79715,239.44688 a 2.987247,2.991405 0 0 1 -2.98724,2.99141 2.987247,2.991405 0 0 1 -2.98725,-2.99141 2.987247,2.991405 0 0 1 2.98725,-2.9914 2.987247,2.991405 0 0 1 2.98724,2.9914 z" />
    <path
       id="polyline214"
       style="font-family:Ubuntu;vector-effect:none;fill:none;fill-rule:evenodd;stroke:#0000ff;stroke-linecap:square;stroke-linejoin:bevel"
       transform="matrix(1.4936235,0,0,1.4957025,173.0219,224.49039)"
       d="M 80,-50 V -60" />
    <path
       id="circle226"
       style="font-family:Ubuntu;fill:#0000ff;fill-rule:evenodd;stroke:#0000ff;stroke-width:1.49466;stroke-linecap:square;stroke-linejoin:bevel"
       d="m 295.49915,134.74838 a 2.987247,2.991405 0 0 1 -2.98725,2.99141 2.987247,2.991405 0 0 1 -2.98725,-2.99141 2.987247,2.991405 0 0 1 2.98725,-2.9914 2.987247,2.991405 0 0 1 2.98725,2.9914 z" />
    <path
       id="polyline234"
       style="font-family:Ubuntu;vector-effect:none;fill:none;fill-rule:evenodd;stroke:#0000ff;stroke-linecap:square;stroke-linejoin:bevel"
       transform="matrix(1.4936235,0,0,1.4957025,173.0219,224.49039)"
       d="M 100,-60 H 80" />
    <path
       id="circle246"
       style="font-family:Ubuntu;fill:#0000ff;fill-rule:evenodd;stroke:#0000ff;stroke-width:1.49466;stroke-linecap:square;stroke-linejoin:bevel"
       d="m 295.49915,134.74838 a 2.987247,2.991405 0 0 1 -2.98725,2.99141 2.987247,2.991405 0 0 1 -2.98725,-2.99141 2.987247,2.991405 0 0 1 2.98725,-2.9914 2.987247,2.991405 0 0 1 2.98725,2.9914 z" />
    <path
       id="polyline254"
       style="font-family:Ubuntu;vector-effect:none;fill:none;fill-rule:evenodd;stroke:#0000ff;stroke-linecap:square;stroke-linejoin:bevel"
       transform="matrix(1.4936235,0,0,1.4957025,173.0219,224.49039)"
       d="M 80,-60 H 30" />
    <path
       id="circle262"
       style="font-family:Ubuntu;fill:#0000ff;fill-rule:evenodd;stroke:#0000ff;stroke-width:1.49466;stroke-linecap:square;stroke-linejoin:bevel"
       d="m 295.49915,134.74838 a 2.987247,2.991405 0 0 1 -2.98725,2.99141 2.987247,2.991405 0 0 1 -2.98725,-2.99141 2.987247,2.991405 0 0 1 2.98725,-2.9914 2.987247,2.991405 0 0 1 2.98725,2.9914 z" />
    <path
       id="polyline274"
       style="font-family:Ubuntu;vector-effect:none;fill:none;fill-rule:evenodd;stroke:#0000ff;stroke-linecap:square;stroke-linejoin:bevel"
       transform="matrix(1.4936235,0,0,1.4957025,173.0219,224.49039)"
       d="M 100,-80 H 80" />
    <path
       id="polyline290"
       style="font-family:Ubuntu;vector-effect:none;fill:none;fill-rule:evenodd;stroke:#0000ff;stroke-linecap:square;stroke-linejoin:bevel"
       transform="matrix(1.4936235,0,0,1.4957025,173.0219,224.49039)"
       d="m 80,-80 v -50" />
    <path
       id="circle302"
       style="font-family:Ubuntu;fill:#0000ff;fill-rule:evenodd;stroke:#0000ff;stroke-width:1.49466;stroke-linecap:square;stroke-linejoin:bevel"
       d="m 295.49915,30.048685 a 2.987247,2.991405 0 0 1 -2.98725,2.991405 2.987247,2.991405 0 0 1 -2.98725,-2.991405 2.987247,2.991405 0 0 1 2.98725,-2.991405 2.987247,2.991405 0 0 1 2.98725,2.991405 z" />
    <path
       id="polyline310"
       style="font-family:Ubuntu;vector-effect:none;fill:none;fill-rule:evenodd;stroke:#0000ff;stroke-linecap:square;stroke-linejoin:bevel"
       transform="matrix(1.4936235,0,0,1.4957025,173.0219,224.49039)"
       d="M 50,-130 H 80" />
    <path
       id="circle322"
       style="font-family:Ubuntu;fill:#0000ff;fill-rule:evenodd;stroke:#0000ff;stroke-width:1.49466;stroke-linecap:square;stroke-linejoin:bevel"
       d="m 295.49915,30.048685 a 2.987247,2.991405 0 0 1 -2.98725,2.991405 2.987247,2.991405 0 0 1 -2.98725,-2.991405 2.987247,2.991405 0 0 1 2.98725,-2.991405 2.987247,2.991405 0 0 1 2.98725,2.991405 z" />
    <path
       id="polyline330"
       style="font-family:Ubuntu;vector-effect:none;fill:none;fill-rule:evenodd;stroke:#0000ff;stroke-linecap:square;stroke-linejoin:bevel"
       transform="matrix(1.4936235,0,0,1.4957025,173.0219,224.49039)"
       d="m 80,-130 h 30" />
    <path
       id="circle338"
       style="font-family:Ubuntu;fill:#0000ff;fill-rule:evenodd;stroke:#0000ff;stroke-width:1.49466;stroke-linecap:square;stroke-linejoin:bevel"
       d="m 295.49915,30.048685 a 2.987247,2.991405 0 0 1 -2.98725,2.991405 2.987247,2.991405 0 0 1 -2.98725,-2.991405 2.987247,2.991405 0 0 1 2.98725,-2.991405 2.987247,2.991405 0 0 1 2.98725,2.991405 z" />
    <path
       id="polyline350"
       style="font-family:Ubuntu;vector-effect:none;fill:none;fill-rule:evenodd;stroke:#0000ff;stroke-linecap:square;stroke-linejoin:bevel"
       transform="matrix(1.4936235,0,0,1.4957025,173.0219,224.49039)"
       d="M 80,-10 V 10" />
    <path
       id="circle362"
       style="font-family:Ubuntu;fill:#0000ff;fill-rule:evenodd;stroke:#0000ff;stroke-width:1.49466;stroke-linecap:square;stroke-linejoin:bevel"
       d="m 295.49915,239.44688 a 2.987247,2.991405 0 0 1 -2.98725,2.99141 2.987247,2.991405 0 0 1 -2.98725,-2.99141 2.987247,2.991405 0 0 1 2.98725,-2.9914 2.987247,2.991405 0 0 1 2.98725,2.9914 z" />
    <path
       id="polyline370"
       style="font-family:Ubuntu;vector-effect:none;fill:none;fill-rule:evenodd;stroke:#0000ff;stroke-linecap:square;stroke-linejoin:bevel"
       transform="matrix(1.4936235,0,0,1.4957025,173.0219,224.49039)"
       d="M 110,10 H 80" />
    <path
       id="circle382"
       style="font-family:Ubuntu;fill:#0000ff;fill-rule:evenodd;stroke:#0000ff;stroke-width:1.49466;stroke-linecap:square;stroke-linejoin:bevel"
       d="m 295.49915,239.44688 a 2.987247,2.991405 0 0 1 -2.98725,2.99141 2.987247,2.991405 0 0 1 -2.98725,-2.99141 2.987247,2.991405 0 0 1 2.98725,-2.9914 2.987247,2.991405 0 0 1 2.98725,2.9914 z" />
    <path
       id="polyline390"
       style="font-family:Ubuntu;vector-effect:none;fill:none;fill-rule:evenodd;stroke:#0000ff;stroke-linecap:square;stroke-linejoin:bevel"
       transform="matrix(1.4936235,0,0,1.4957025,173.0219,224.49039)"
       d="M 80,10 H 50" />
    <path
       id="circle398"
       style="font-family:Ubuntu;fill:#0000ff;fill-rule:evenodd;stroke:#0000ff;stroke-width:1.49466;stroke-linecap:square;stroke-linejoin:bevel"
       d="m 295.49915,239.44688 a 2.987247,2.991405 0 0 1 -2.98725,2.99141 2.987247,2.991405 0 0 1 -2.98725,-2.99141 2.987247,2.991405 0 0 1 2.98725,-2.9914 2.987247,2.991405 0 0 1 2.98725,2.9914 z" />
    <path
       id="polyline410"
       style="font-family:Ubuntu;vector-effect:none;fill:none;fill-rule:evenodd;stroke:#0000ff;stroke-linecap:square;stroke-linejoin:bevel"
       transform="matrix(1.4936235,0,0,1.4957025,173.0219,224.49039)"
       d="M 10,10 H -60" />
    <path
       id="circle422"
       style="font-family:Ubuntu;fill:#0000ff;fill-rule:evenodd;stroke:#0000ff;stroke-width:1.49466;stroke-linecap:square;stroke-linejoin:bevel"
       d="m 86.391201,239.44688 a 2.987247,2.991405 0 0 1 -2.987247,2.99141 2.987247,2.991405 0 0 1 -2.987247,-2.99141 2.987247,2.991405 0 0 1 2.987247,-2.9914 2.987247,2.991405 0 0 1 2.987247,2.9914 z" />
    <path
       id="polyline430"
       style="font-family:Ubuntu;vector-effect:none;fill:none;fill-rule:evenodd;stroke:#0000ff;stroke-linecap:square;stroke-linejoin:bevel"
       transform="matrix(1.4936235,0,0,1.4957025,173.0219,224.49039)"
       d="M -60,10 V -130" />
    <path
       id="circle438"
       style="font-family:Ubuntu;fill:#0000ff;fill-rule:evenodd;stroke:#0000ff;stroke-width:1.49466;stroke-linecap:square;stroke-linejoin:bevel"
       d="m 86.391201,239.44688 a 2.987247,2.991405 0 0 1 -2.987247,2.99141 2.987247,2.991405 0 0 1 -2.987247,-2.99141 2.987247,2.991405 0 0 1 2.987247,-2.9914 2.987247,2.991405 0 0 1 2.987247,2.9914 z" />
    <path
       id="polyline450"
       style="font-family:Ubuntu;vector-effect:none;fill:none;fill-rule:evenodd;stroke:#0000ff;stroke-linecap:square;stroke-linejoin:bevel"
       transform="matrix(1.4936235,0,0,1.4957025,173.0219,224.49039)"
       d="M -60,-130 H 10" />
    <path
       id="polyline466"
       style="font-family:Ubuntu;vector-effect:none;fill:none;fill-rule:evenodd;stroke:#0000ff;stroke-linecap:square;stroke-linejoin:bevel"
       transform="matrix(1.4936235,0,0,1.4957025,173.0219,224.49039)"
       d="M -30,-30 V -60" />
    <path
       id="polyline482"
       style="font-family:Ubuntu;vector-effect:none;fill:none;fill-rule:evenodd;stroke:#0000ff;stroke-linecap:square;stroke-linejoin:bevel"
       transform="matrix(1.4936235,0,0,1.4957025,173.0219,224.49039)"
       d="m -30,-60 h 20" />
    <path
       d="m 7.0200179,346.83819 q -0.5825121,2.18372 -1.3741312,4.18796 -0.7766828,2.00423 -1.5085571,3.58967 H 2.8826881 Q 2.1508139,353.03038 1.3591948,351.02615 0.58251192,349.02191 -2.1585706e-7,346.83819 H 1.4936207 q 0.1792345,0.73289 0.4182138,1.57048 0.2539156,0.82264 0.5227673,1.64527 0.283788,0.80768 0.567576,1.57049 0.2837879,0.76281 0.5377035,1.36108 0.2539155,-0.59827 0.5377035,-1.36108 0.283788,-0.76281 0.5526397,-1.57049 0.283788,-0.82263 0.5227673,-1.64527 0.2539156,-0.83759 0.4331501,-1.57048 z"
       id="path1212"
       style="font-size:14.9466px;font-family:Ubuntu;fill:#0000ff;fill-rule:evenodd;stroke-width:1.49466;stroke-linecap:square;stroke-linejoin:bevel" />
    <path
       d="M 9.8429449,354.61582 H 8.4538775 v -7.77763 h 1.3890674 z m -0.7020018,-9.18359 q -0.3734052,0 -0.642257,-0.23931 -0.2539155,-0.25427 -0.2539155,-0.67306 0,-0.41881 0.2539155,-0.65811 0.2688518,-0.25427 0.642257,-0.25427 0.3734052,0 0.6273208,0.25427 0.2688511,0.2393 0.2688511,0.65811 0,0.41879 -0.2688511,0.67306 -0.2539156,0.23931 -0.6273208,0.23931 z"
       id="path1214"
       style="font-size:14.9466px;font-family:Ubuntu;fill:#0000ff;fill-rule:evenodd;stroke-width:1.49466;stroke-linecap:square;stroke-linejoin:bevel" />
    <path
       d="m 12.232713,347.06254 q 0.477959,-0.11965 1.269577,-0.25426 0.79162,-0.13462 1.822219,-0.13462 0.926044,0 1.538428,0.26923 0.612385,0.25427 0.970854,0.73289 0.373405,0.46367 0.522767,1.12178 0.149362,0.65811 0.149362,1.45083 v 4.36743 h -1.389066 v -4.06829 q 0,-0.71794 -0.104555,-1.22648 -0.08962,-0.50854 -0.313659,-0.82264 -0.224043,-0.31409 -0.597449,-0.4487 -0.373405,-0.14957 -0.926044,-0.14957 -0.224044,0 -0.463023,0.0149 -0.23898,0.0149 -0.463023,0.0448 -0.209107,0.0149 -0.388341,0.0448 -0.164299,0.0299 -0.23898,0.0448 v 6.56611 h -1.389067 z"
       id="path1216"
       style="font-size:14.9466px;font-family:Ubuntu;fill:#0000ff;fill-rule:evenodd;stroke-width:1.49466;stroke-linecap:square;stroke-linejoin:bevel" />
    <path
       d="m 22.165284,350.14369 q 0,1.91449 0.552639,3.5448 0.55264,1.63031 1.628047,3.02132 l -0.98579,0.67306 q -1.165024,-1.42091 -1.881962,-3.26062 -0.702002,-1.85467 -0.702002,-3.97856 0,-2.1239 0.702002,-3.96361 0.716938,-1.85467 1.881962,-3.27558 l 0.98579,0.67306 q -1.075407,1.39101 -1.628047,3.02132 -0.552639,1.63031 -0.552639,3.54481 z"
       id="path1218"
       style="font-size:14.9466px;font-family:Ubuntu;fill:#0000ff;fill-rule:evenodd;stroke-width:1.49466;stroke-linecap:square;stroke-linejoin:bevel" />
    <path
       d="m 26.944861,346.83819 h 2.942433 v 1.16665 h -2.942433 v 3.58967 q 0,0.58333 0.08962,0.97221 0.08962,0.37392 0.268852,0.59828 0.179234,0.2094 0.448086,0.29914 0.268851,0.0898 0.627321,0.0898 0.62732,0 1.000726,-0.13461 0.388341,-0.14957 0.537704,-0.2094 l 0.26885,1.15169 q -0.209106,0.1047 -0.731873,0.25426 -0.522768,0.16454 -1.194897,0.16454 -0.791619,0 -1.314387,-0.19445 -0.50783,-0.20939 -0.821491,-0.61323 -0.31366,-0.40384 -0.448086,-0.98717 -0.11949,-0.59827 -0.11949,-1.37604 v -6.94005 l 1.389067,-0.23931 z"
       id="path1220"
       style="font-size:14.9466px;font-family:Ubuntu;fill:#0000ff;fill-rule:evenodd;stroke-width:1.49466;stroke-linecap:square;stroke-linejoin:bevel" />
    <path
       d="m 32.740088,350.14369 q 0,-1.9145 -0.55264,-3.54481 -0.552639,-1.63031 -1.628046,-3.02132 l 0.985789,-0.67306 q 1.165024,1.42091 1.867026,3.27558 0.716938,1.83971 0.716938,3.96361 0,2.12389 -0.716938,3.97856 -0.702002,1.83971 -1.867026,3.26062 l -0.985789,-0.67306 q 1.075407,-1.39101 1.628046,-3.02132 0.55264,-1.63031 0.55264,-3.5448 z"
       id="path1222"
       style="font-size:14.9466px;font-family:Ubuntu;fill:#0000ff;fill-rule:evenodd;stroke-width:1.49466;stroke-linecap:square;stroke-linejoin:bevel" />
    <path
       d="m 215.2168,6.2670013 q 0.23898,0.29914 0.59745,0.7927209 0.37341,0.478624 0.76175,1.0769039 0.38834,0.583323 0.76174,1.2264739 0.38834,0.643151 0.65719,1.24143 h -1.58324 q -0.29872,-0.568365 -0.65719,-1.151688 -0.34353,-0.583323 -0.702,-1.1068179 -0.35846,-0.5384519 -0.71693,-1.0021189 -0.34355,-0.4636669 -0.62733,-0.8076779 -0.19417,0.014957 -0.40328,0.014957 -0.19416,0 -0.40328,0 h -1.29944 V 10.60453 h -1.44881 V 0.38890103 q 0.61238,-0.14956998 1.35919,-0.19444098 0.76175,-0.059828 1.38906,-0.059828 2.1807,0 3.31585,0.82263491 1.15009,0.82263494 1.15009,2.45294774 0,1.0320328 -0.55265,1.7649257 -0.5377,0.732893 -1.59817,1.0918609 z M 213.02118,1.405977 q -0.92605,0 -1.41894,0.044871 v 3.9037764 h 1.03059 q 0.74681,0 1.34427,-0.074785 0.59744,-0.074785 1.00072,-0.2841829 0.41822,-0.209398 0.64225,-0.583323 0.22405,-0.3888819 0.22405,-1.0170758 0,-0.5833229 -0.22405,-0.9722049 -0.22403,-0.3888819 -0.61238,-0.6132369 -0.3734,-0.224355 -0.89617,-0.314097 -0.50783,-0.089742 -1.09034,-0.089742 z"
       id="path1207"
       style="font-size:14.9466px;font-family:Ubuntu;fill:#0000ff;fill-rule:evenodd;stroke-width:1.49466;stroke-linecap:square;stroke-linejoin:bevel" />
    <path
       d="m 219.65285,2.3781819 q 0.85136,-0.329054 1.65791,-0.837592 0.80656,-0.5234949 1.47869,-1.30125885 h 0.98579 V 10.60453 h -1.38906 V 2.1687839 q -0.17924,0.164527 -0.44809,0.3440109 -0.25392,0.179484 -0.56758,0.344011 -0.29872,0.164527 -0.64225,0.314097 -0.3286,0.1495699 -0.64226,0.2542689 z"
       id="path1209"
       style="font-size:14.9466px;font-family:Ubuntu;fill:#0000ff;fill-rule:evenodd;stroke-width:1.49466;stroke-linecap:square;stroke-linejoin:bevel" />
    <path
       d="m 364.57929,6.2670013 q 0.23897,0.29914 0.59745,0.7927209 0.37341,0.478624 0.76175,1.0769039 0.38834,0.583323 0.76174,1.2264739 0.38835,0.643151 0.65719,1.24143 h -1.58324 q -0.29872,-0.568365 -0.65719,-1.151688 -0.34353,-0.583323 -0.702,-1.1068179 -0.35847,-0.5384519 -0.71694,-1.0021189 -0.34353,-0.4636669 -0.62732,-0.8076779 -0.19417,0.014957 -0.40328,0.014957 -0.19416,0 -0.40328,0 h -1.29944 V 10.60453 h -1.44882 V 0.38890103 q 0.61239,-0.14956998 1.3592,-0.19444098 0.76175,-0.059828 1.38906,-0.059828 2.18069,0 3.31584,0.82263491 1.15009,0.82263494 1.15009,2.45294774 0,1.0320328 -0.55264,1.7649257 -0.53771,0.732893 -1.59817,1.0918609 z M 362.38367,1.405977 q -0.92605,0 -1.41894,0.044871 v 3.9037764 h 1.03059 q 0.74681,0 1.34426,-0.074785 0.59745,-0.074785 1.00073,-0.2841829 0.41822,-0.209398 0.64225,-0.583323 0.22404,-0.3888819 0.22404,-1.0170758 0,-0.5833229 -0.22404,-0.9722049 -0.22403,-0.3888819 -0.61238,-0.6132369 -0.3734,-0.224355 -0.89617,-0.314097 -0.50784,-0.089742 -1.09034,-0.089742 z"
       id="path1202"
       style="font-size:14.9466px;font-family:Ubuntu;fill:#0000ff;fill-rule:evenodd;stroke-width:1.49466;stroke-linecap:square;stroke-linejoin:bevel" />
    <path
       d="m 374.60148,2.8867198 q 0,0.5384519 -0.22405,1.0469898 -0.2091,0.4935809 -0.56757,0.9871619 -0.35847,0.4786239 -0.80656,0.9572479 -0.44808,0.4636669 -0.89617,0.9123769 -0.25391,0.2542689 -0.59745,0.5982799 -0.32859,0.344011 -0.62731,0.7179359 -0.29873,0.373925 -0.50784,0.7179359 -0.19417,0.344011 -0.19417,0.59828 h 4.76465 v 1.181602 h -6.27321 q -0.0149,-0.08974 -0.0149,-0.179483 0,-0.08974 0,-0.164527 0,-0.702979 0.22405,-1.301259 0.23898,-0.6132369 0.61238,-1.1516888 0.37341,-0.538452 0.83643,-1.0170759 0.46303,-0.478624 0.91112,-0.9273339 0.3734,-0.358968 0.702,-0.702979 0.34353,-0.3589679 0.59744,-0.7029789 0.26886,-0.3589679 0.41821,-0.7328928 0.16431,-0.373925 0.16431,-0.7927209 0,-0.44871 -0.14937,-0.7628069 -0.13443,-0.314097 -0.3734,-0.523495 Q 372.3611,1.435891 372.03251,1.346149 371.71884,1.24145 371.36037,1.24145 q -0.43315,0 -0.79162,0.119656 -0.35847,0.1196559 -0.64226,0.2841829 -0.28378,0.14957 -0.47796,0.329054 -0.19416,0.164527 -0.29872,0.254269 L 368.46275,1.24145 q 0.13443,-0.14957 0.40328,-0.35896802 0.26885,-0.22435498 0.64225,-0.41879596 0.37341,-0.19444098 0.83643,-0.32905396 0.46302,-0.134612986605 1.00072,-0.134612986605 1.62805,0 2.43461,0.762806916605 0.82149,0.74784991 0.82149,2.12389381 z"
       id="path1204"
       style="font-size:14.9466px;font-family:Ubuntu;fill:#0000ff;fill-rule:evenodd;stroke-width:1.49466;stroke-linecap:square;stroke-linejoin:bevel" />
    <path
       d="m 215.2168,215.66528 q 0.23898,0.29915 0.59745,0.79273 0.37341,0.47863 0.76175,1.0769 0.38834,0.58333 0.76174,1.22648 0.38834,0.64314 0.65719,1.24143 h -1.58324 q -0.29872,-0.56837 -0.65719,-1.15169 -0.34353,-0.58333 -0.702,-1.10682 -0.35846,-0.53845 -0.71693,-1.00212 -0.34355,-0.46366 -0.62733,-0.80768 -0.19417,0.0149 -0.40328,0.0149 -0.19416,0 -0.40328,0 h -1.29944 v 4.05335 h -1.44881 v -10.21563 q 0.61238,-0.14957 1.35919,-0.19444 0.76175,-0.0598 1.38906,-0.0598 2.1807,0 3.31585,0.82263 1.15009,0.82263 1.15009,2.45295 0,1.03204 -0.55265,1.76492 -0.5377,0.7329 -1.59817,1.09186 z m -2.19562,-4.86102 q -0.92605,0 -1.41894,0.0448 v 3.90377 h 1.03059 q 0.74681,0 1.34427,-0.0747 0.59744,-0.0747 1.00072,-0.28419 0.41822,-0.2094 0.64225,-0.58332 0.22405,-0.38889 0.22405,-1.01707 0,-0.58333 -0.22405,-0.97221 -0.22403,-0.38888 -0.61238,-0.61323 -0.3734,-0.22436 -0.89617,-0.3141 -0.50783,-0.0898 -1.09034,-0.0898 z"
       id="path1197"
       style="font-size:14.9466px;font-family:Ubuntu;fill:#0000ff;fill-rule:evenodd;stroke-width:1.49466;stroke-linecap:square;stroke-linejoin:bevel" />
    <path
       d="m 219.65285,211.77647 q 0.85136,-0.32906 1.65791,-0.83759 0.80656,-0.5235 1.47869,-1.30126 h 0.98579 v 10.3652 h -1.38906 v -8.43575 q -0.17924,0.16453 -0.44809,0.34401 -0.25392,0.17949 -0.56758,0.34401 -0.29872,0.16453 -0.64225,0.3141 -0.3286,0.14957 -0.64226,0.25427 z"
       id="path1199"
       style="font-size:14.9466px;font-family:Ubuntu;fill:#0000ff;fill-rule:evenodd;stroke-width:1.49466;stroke-linecap:square;stroke-linejoin:bevel" />
    <path
       d="m 364.57929,215.66528 q 0.23897,0.29915 0.59745,0.79273 0.37341,0.47863 0.76175,1.0769 0.38834,0.58333 0.76174,1.22648 0.38835,0.64314 0.65719,1.24143 h -1.58324 q -0.29872,-0.56837 -0.65719,-1.15169 -0.34353,-0.58333 -0.702,-1.10682 -0.35847,-0.53845 -0.71694,-1.00212 -0.34353,-0.46366 -0.62732,-0.80768 -0.19417,0.0149 -0.40328,0.0149 -0.19416,0 -0.40328,0 h -1.29944 v 4.05335 h -1.44882 v -10.21563 q 0.61239,-0.14957 1.3592,-0.19444 0.76175,-0.0598 1.38906,-0.0598 2.18069,0 3.31584,0.82263 1.15009,0.82263 1.15009,2.45295 0,1.03204 -0.55264,1.76492 -0.53771,0.7329 -1.59817,1.09186 z m -2.19562,-4.86102 q -0.92605,0 -1.41894,0.0448 v 3.90377 h 1.03059 q 0.74681,0 1.34426,-0.0747 0.59745,-0.0747 1.00073,-0.28419 0.41822,-0.2094 0.64225,-0.58332 0.22404,-0.38889 0.22404,-1.01707 0,-0.58333 -0.22404,-0.97221 -0.22403,-0.38888 -0.61238,-0.61323 -0.3734,-0.22436 -0.89617,-0.3141 -0.50784,-0.0898 -1.09034,-0.0898 z"
       id="path1192"
       style="font-size:14.9466px;font-family:Ubuntu;fill:#0000ff;fill-rule:evenodd;stroke-width:1.49466;stroke-linecap:square;stroke-linejoin:bevel" />
    <path
       d="m 374.60148,212.285 q 0,0.53846 -0.22405,1.047 -0.2091,0.49358 -0.56757,0.98716 -0.35847,0.47862 -0.80656,0.95724 -0.44808,0.46368 -0.89617,0.91239 -0.25391,0.25426 -0.59745,0.59827 -0.32859,0.34401 -0.62731,0.71794 -0.29873,0.37392 -0.50784,0.71793 -0.19417,0.34402 -0.19417,0.59829 h 4.76465 v 1.1816 h -6.27321 q -0.0149,-0.0898 -0.0149,-0.17949 0,-0.0898 0,-0.16452 0,-0.70298 0.22405,-1.30126 0.23898,-0.61324 0.61238,-1.15169 0.37341,-0.53845 0.83643,-1.01707 0.46303,-0.47863 0.91112,-0.92734 0.3734,-0.35897 0.702,-0.70298 0.34353,-0.35897 0.59744,-0.70297 0.26886,-0.35897 0.41821,-0.7329 0.16431,-0.37392 0.16431,-0.79272 0,-0.44872 -0.14937,-0.76281 -0.13443,-0.31409 -0.3734,-0.52349 -0.23898,-0.2094 -0.56757,-0.29915 -0.31367,-0.10469 -0.67214,-0.10469 -0.43315,0 -0.79162,0.11965 -0.35847,0.11966 -0.64226,0.28419 -0.28378,0.14956 -0.47796,0.32905 -0.19416,0.16452 -0.29872,0.25427 l -0.68706,-0.98716 q 0.13443,-0.14957 0.40328,-0.35897 0.26885,-0.22436 0.64225,-0.4188 0.37341,-0.19444 0.83643,-0.32905 0.46302,-0.13461 1.00072,-0.13461 1.62805,0 2.43461,0.76281 0.82149,0.74785 0.82149,2.12388 z"
       id="path1194"
       style="font-size:14.9466px;font-family:Ubuntu;fill:#0000ff;fill-rule:evenodd;stroke-width:1.49466;stroke-linecap:square;stroke-linejoin:bevel" />
    <path
       d="m 319.76979,185.75079 q 0.23898,0.29913 0.59745,0.79272 0.37341,0.47862 0.76175,1.0769 0.38834,0.58332 0.76175,1.22647 0.38834,0.64316 0.65719,1.24143 h -1.58324 q -0.29873,-0.56836 -0.65719,-1.15169 -0.34354,-0.58331 -0.702,-1.10682 -0.35847,-0.53844 -0.71694,-1.00211 -0.34353,-0.46367 -0.62733,-0.80768 -0.19416,0.0149 -0.40327,0.0149 -0.19417,0 -0.40327,0 h -1.29946 v 4.05335 h -1.44881 v -10.21563 q 0.61238,-0.14956 1.35919,-0.19443 0.76175,-0.0599 1.38908,-0.0599 2.18068,0 3.31583,0.82264 1.15009,0.82264 1.15009,2.45295 0,1.03203 -0.55265,1.76493 -0.53769,0.73289 -1.59817,1.09186 z m -2.19562,-4.86103 q -0.92604,0 -1.41894,0.0448 v 3.90377 h 1.0306 q 0.74681,0 1.34426,-0.0747 0.59744,-0.0747 1.00072,-0.28418 0.41822,-0.2094 0.64226,-0.58332 0.22405,-0.38888 0.22405,-1.01708 0,-0.58333 -0.22405,-0.97221 -0.22404,-0.38888 -0.61238,-0.61323 -0.37341,-0.22436 -0.89618,-0.3141 -0.50782,-0.0898 -1.09034,-0.0898 z"
       id="path1187"
       style="font-size:14.9466px;font-family:Ubuntu;fill:#0000ff;fill-rule:evenodd;stroke-width:1.49466;stroke-linecap:square;stroke-linejoin:bevel" />
    <path
       d="m 326.19236,189.07124 q 1.32932,0 1.8969,-0.5235 0.58251,-0.52349 0.58251,-1.40596 0,-0.56836 -0.23898,-0.95724 -0.23898,-0.38888 -0.62732,-0.61324 -0.38835,-0.23931 -0.91111,-0.32906 -0.50783,-0.10469 -1.04553,-0.10469 h -0.35847 v -1.13673 h 0.49289 q 0.37341,0 0.76175,-0.0747 0.40327,-0.0748 0.73187,-0.26923 0.3286,-0.19443 0.53771,-0.52349 0.2091,-0.34401 0.2091,-0.85255 0,-0.4188 -0.14936,-0.71793 -0.14936,-0.29914 -0.40327,-0.49359 -0.23899,-0.19443 -0.56758,-0.26922 -0.31366,-0.0898 -0.67213,-0.0898 -0.71694,0 -1.22477,0.20941 -0.49289,0.20939 -0.83643,0.43375 l -0.5377,-1.06195 q 0.17923,-0.11965 0.44809,-0.25427 0.28378,-0.14957 0.62731,-0.26922 0.34354,-0.11967 0.73188,-0.19445 0.40328,-0.0898 0.83643,-0.0898 0.82149,0 1.41893,0.2094 0.59746,0.19444 0.9858,0.56837 0.38834,0.35896 0.58251,0.8675 0.19417,0.49359 0.19417,1.0769 0,0.80768 -0.46302,1.39101 -0.46303,0.56836 -1.12022,0.8675 0.40328,0.11966 0.77669,0.34401 0.3734,0.22436 0.64225,0.56837 0.28379,0.34401 0.44809,0.79272 0.17923,0.44871 0.17923,1.00211 0,0.67307 -0.23898,1.2564 -0.22404,0.56836 -0.71693,0.98715 -0.47797,0.41881 -1.20984,0.65811 -0.73187,0.23932 -1.73259,0.23932 -0.38835,0 -0.80656,-0.0598 -0.40328,-0.0598 -0.76175,-0.14957 -0.35847,-0.0898 -0.62732,-0.17948 -0.26885,-0.0898 -0.38835,-0.14958 l 0.26886,-1.21151 q 0.25391,0.11966 0.83642,0.3141 0.59746,0.19444 1.44882,0.19444 z"
       id="path1189"
       style="font-size:14.9466px;font-family:Ubuntu;fill:#0000ff;fill-rule:evenodd;stroke-width:1.49466;stroke-linecap:square;stroke-linejoin:bevel" />
    <path
       d="m 199.6674,115.52809 q -1.09034,0 -1.98652,-0.35897 -0.89616,-0.35897 -1.53842,-1.04699 -0.64226,-0.68802 -1.00073,-1.69015 -0.34353,-1.01706 -0.34353,-2.31833 0,-1.30125 0.38834,-2.30337 0.40328,-1.01708 1.07541,-1.7051 0.67212,-0.68802 1.5683,-1.04699 0.89618,-0.35897 1.91184,-0.35897 0.64225,0 1.15008,0.0898 0.52276,0.0898 0.89618,0.2094 0.38833,0.11966 0.62732,0.23931 0.23897,0.11966 0.32859,0.17949 l -0.41821,1.19656 q -0.13443,-0.0898 -0.38834,-0.19445 -0.25392,-0.10469 -0.58251,-0.20939 -0.31367,-0.1047 -0.70201,-0.16453 -0.37341,-0.0748 -0.76175,-0.0748 -0.82148,0 -1.47868,0.28419 -0.65719,0.28418 -1.12022,0.82263 -0.46302,0.53846 -0.71693,1.31622 -0.23898,0.76281 -0.23898,1.72005 0,0.92734 0.2091,1.69015 0.22405,0.7628 0.6572,1.31621 0.43315,0.53846 1.07541,0.8376 0.65719,0.29913 1.52349,0.29913 1.00072,0 1.65791,-0.20939 0.65721,-0.20941 0.9858,-0.37393 l 0.37341,1.19656 q -0.10456,0.0747 -0.37341,0.19444 -0.26886,0.1047 -0.67213,0.2094 -0.40327,0.10469 -0.94098,0.17949 -0.53771,0.0747 -1.16503,0.0747 z"
       id="path1184"
       style="font-size:14.9466px;font-family:Ubuntu;fill:#0000ff;fill-rule:evenodd;stroke-width:1.49466;stroke-linecap:square;stroke-linejoin:bevel" />
    <path
       id="polyline666"
       style="font-family:Ubuntu;vector-effect:none;fill:none;fill-rule:evenodd;stroke:#0000ff;stroke-linecap:square;stroke-linejoin:bevel"
       transform="matrix(1.4936235,0,0,1.4957025,322.3844,134.74839)"
       d="M 0,0 V -20" />
    <path
       style="font-style:normal;font-weight:400;font-size:medium;font-family:Ubuntu;vector-effect:none;fill:none;fill-rule:evenodd;stroke:#0000ff;stroke-width:1.49466;stroke-linecap:square;stroke-linejoin:bevel;stroke-opacity:1"
       inkscape:connector-curvature="0"
       id="path682"
       d="m 113.27642,344.14539 c 0,16.52107 -13.37435,29.91405 -29.872467,29.91405 -16.498118,0 -29.87247,-13.39298 -29.87247,-29.91405 0,-16.52108 13.374352,-29.91405 29.87247,-29.91405 16.498117,0 29.872467,13.39297 29.872467,29.91405 m -29.872467,29.91405 v 14.95702 m 0,-74.78512 v -14.95703 m -37.340588,7.47851 H 60.9996 m -7.468117,7.47852 v -14.95703 m -7.468118,82.26363 H 60.9996" />
    <path
       style="font-style:normal;font-weight:400;font-size:medium;font-family:Ubuntu;vector-effect:none;fill:none;fill-rule:evenodd;stroke:#0000ff;stroke-width:1.49466;stroke-linecap:square;stroke-linejoin:bevel;stroke-opacity:1"
       inkscape:connector-curvature="0"
       id="path698"
       d="m 486.68237,344.14539 c 0,16.52107 -13.37436,29.91405 -29.87247,29.91405 -16.49811,0 -29.87247,-13.39298 -29.87247,-29.91405 0,-16.52108 13.37436,-29.91405 29.87247,-29.91405 16.49811,0 29.87247,13.39297 29.87247,29.91405 m -29.87247,29.91405 v 14.95702 m 0,-74.78512 v -14.95703 m -37.34059,7.47851 h 14.93623 m -7.46811,7.47852 v -14.95703 m -7.46812,82.26363 h 14.93623" />
    <path
       id="polyline714"
       style="font-family:Ubuntu;vector-effect:none;fill:none;fill-rule:evenodd;stroke:#0000ff;stroke-linecap:square;stroke-linejoin:bevel"
       transform="matrix(1.4936235,0,0,1.4957025,83.403953,299.27439)"
       d="M 0,0 V -40" />
    <path
       id="circle726"
       style="font-family:Ubuntu;fill:#0000ff;fill-rule:evenodd;stroke:#0000ff;stroke-width:1.49466;stroke-linecap:square;stroke-linejoin:bevel"
       d="m 86.391201,239.44688 a 2.987247,2.991405 0 0 1 -2.987247,2.99141 2.987247,2.991405 0 0 1 -2.987247,-2.99141 2.987247,2.991405 0 0 1 2.987247,-2.9914 2.987247,2.991405 0 0 1 2.987247,2.9914 z" />
    <path
       id="polyline734"
       style="font-family:Ubuntu;vector-effect:none;fill:none;fill-rule:evenodd;stroke:#0000ff;stroke-linecap:square;stroke-linejoin:bevel"
       transform="matrix(1.4936235,0,0,1.4957025,83.403953,389.01639)"
       d="M 0,0 V 30" />
    <path
       id="polyline750"
       style="font-family:Ubuntu;vector-effect:none;fill:none;fill-rule:evenodd;stroke:#0000ff;stroke-linecap:square;stroke-linejoin:bevel"
       transform="matrix(1.4936235,0,0,1.4957025,456.8099,433.88889)"
       d="M 0,0 V -30" />
    <path
       id="polyline766"
       style="font-family:Ubuntu;vector-effect:none;fill:none;fill-rule:evenodd;stroke:#0000ff;stroke-linecap:square;stroke-linejoin:bevel"
       transform="matrix(1.4936235,0,0,1.4957025,456.8099,299.27439)"
       d="M 0,0 V -40" />
    <path
       id="circle778"
       style="font-family:Ubuntu;fill:#0000ff;fill-rule:evenodd;stroke:#0000ff;stroke-width:1.49466;stroke-linecap:square;stroke-linejoin:bevel"
       d="m 459.79715,239.44688 a 2.987247,2.991405 0 0 1 -2.98724,2.99141 2.987247,2.991405 0 0 1 -2.98725,-2.99141 2.987247,2.991405 0 0 1 2.98725,-2.9914 2.987247,2.991405 0 0 1 2.98724,2.9914 z" />
    <path
       id="polyline786"
       style="font-family:Ubuntu;vector-effect:none;fill:none;fill-rule:evenodd;stroke:#0000ff;stroke-linecap:square;stroke-linejoin:bevel"
       transform="matrix(1.4936235,0,0,1.4957025,262.6394,448.84539)"
       d="M 0,0 V -10" />
    <path
       id="circle798"
       style="font-family:Ubuntu;fill:#0000ff;fill-rule:evenodd;stroke:#0000ff;stroke-width:1.49466;stroke-linecap:square;stroke-linejoin:bevel"
       d="m 265.62665,433.88889 a 2.987247,2.991405 0 0 1 -2.98725,2.9914 2.987247,2.991405 0 0 1 -2.98724,-2.9914 2.987247,2.991405 0 0 1 2.98724,-2.99141 2.987247,2.991405 0 0 1 2.98725,2.99141 z" />
    <path
       id="polyline806"
       style="font-family:Ubuntu;vector-effect:none;fill:none;fill-rule:evenodd;stroke:#0000ff;stroke-linecap:square;stroke-linejoin:bevel"
       transform="matrix(1.4936235,0,0,1.4957025,83.403953,433.88889)"
       d="M 0,0 H 120" />
    <path
       id="circle818"
       style="font-family:Ubuntu;fill:#0000ff;fill-rule:evenodd;stroke:#0000ff;stroke-width:1.49466;stroke-linecap:square;stroke-linejoin:bevel"
       d="m 265.62665,433.88889 a 2.987247,2.991405 0 0 1 -2.98725,2.9914 2.987247,2.991405 0 0 1 -2.98724,-2.9914 2.987247,2.991405 0 0 1 2.98724,-2.99141 2.987247,2.991405 0 0 1 2.98725,2.99141 z" />
    <path
       id="polyline826"
       style="font-family:Ubuntu;vector-effect:none;fill:none;fill-rule:evenodd;stroke:#0000ff;stroke-linecap:square;stroke-linejoin:bevel"
       transform="matrix(1.4936235,0,0,1.4957025,262.6394,433.88889)"
       d="M 0,0 H 130" />
    <path
       id="circle834"
       style="font-family:Ubuntu;fill:#0000ff;fill-rule:evenodd;stroke:#0000ff;stroke-width:1.49466;stroke-linecap:square;stroke-linejoin:bevel"
       d="m 265.62665,433.88889 a 2.987247,2.991405 0 0 1 -2.98725,2.9914 2.987247,2.991405 0 0 1 -2.98724,-2.9914 2.987247,2.991405 0 0 1 2.98724,-2.99141 2.987247,2.991405 0 0 1 2.98725,2.99141 z" />
    <path
       d="m 514.85142,346.83819 q -0.58251,2.18372 -1.37413,4.18796 -0.77669,2.00423 -1.50856,3.58967 h -1.25464 q -0.73188,-1.58544 -1.5235,-3.58967 -0.77668,-2.00424 -1.35919,-4.18796 h 1.49362 q 0.17924,0.73289 0.41822,1.57048 0.25391,0.82264 0.52277,1.64527 0.28378,0.80768 0.56757,1.57049 0.28378,0.76281 0.53771,1.36108 0.25391,-0.59827 0.53769,-1.36108 0.2838,-0.76281 0.55265,-1.57049 0.28378,-0.82263 0.52276,-1.64527 0.25392,-0.83759 0.43315,-1.57048 z"
       id="path1160"
       style="font-size:14.9466px;font-family:Ubuntu;fill:#0000ff;fill-rule:evenodd;stroke-width:1.49466;stroke-linecap:square;stroke-linejoin:bevel" />
    <path
       d="m 522.93186,350.72701 q 0,0.92734 -0.26885,1.67519 -0.26885,0.74785 -0.76174,1.28629 -0.47797,0.53845 -1.15009,0.83759 -0.67213,0.28419 -1.46375,0.28419 -0.79162,0 -1.46375,-0.28419 -0.67212,-0.29914 -1.16502,-0.83759 -0.47796,-0.53844 -0.74681,-1.28629 -0.26885,-0.74785 -0.26885,-1.67519 0,-0.91238 0.26885,-1.66023 0.26885,-0.7628 0.74681,-1.30126 0.4929,-0.53845 1.16502,-0.82263 0.67213,-0.29914 1.46375,-0.29914 0.79162,0 1.46375,0.29914 0.67212,0.28418 1.15009,0.82263 0.49289,0.53846 0.76174,1.30126 0.26885,0.74785 0.26885,1.66023 z m -1.44881,0 q 0,-1.31621 -0.59744,-2.07902 -0.58252,-0.77776 -1.59818,-0.77776 -1.01566,0 -1.61311,0.77776 -0.58251,0.76281 -0.58251,2.07902 0,1.31622 0.58251,2.09398 0.59745,0.76281 1.61311,0.76281 1.01566,0 1.59818,-0.76281 0.59744,-0.77776 0.59744,-2.09398 z"
       id="path1162"
       style="font-size:14.9466px;font-family:Ubuntu;fill:#0000ff;fill-rule:evenodd;stroke-width:1.49466;stroke-linecap:square;stroke-linejoin:bevel" />
    <path
       d="m 526.24768,350.14369 q 0,1.91449 0.55264,3.5448 0.55264,1.63031 1.62804,3.02132 l -0.98578,0.67306 q -1.16503,-1.42091 -1.88196,-3.26062 -0.70201,-1.85467 -0.70201,-3.97856 0,-2.1239 0.70201,-3.96361 0.71693,-1.85467 1.88196,-3.27558 l 0.98578,0.67306 q -1.0754,1.39101 -1.62804,3.02132 -0.55264,1.63031 -0.55264,3.54481 z"
       id="path1164"
       style="font-size:14.9466px;font-family:Ubuntu;fill:#0000ff;fill-rule:evenodd;stroke-width:1.49466;stroke-linecap:square;stroke-linejoin:bevel" />
    <path
       d="m 531.02725,346.83819 h 2.94244 v 1.16665 h -2.94244 v 3.58967 q 0,0.58333 0.0896,0.97221 0.0896,0.37392 0.26885,0.59828 0.17924,0.2094 0.44809,0.29914 0.26885,0.0898 0.62732,0.0898 0.62732,0 1.00073,-0.13461 0.38834,-0.14957 0.5377,-0.2094 l 0.26886,1.15169 q -0.20912,0.1047 -0.73188,0.25426 -0.52277,0.16454 -1.1949,0.16454 -0.79161,0 -1.31439,-0.19445 -0.50782,-0.20939 -0.82149,-0.61323 -0.31366,-0.40384 -0.44808,-0.98717 -0.11949,-0.59827 -0.11949,-1.37604 v -6.94005 l 1.38906,-0.23931 z"
       id="path1166"
       style="font-size:14.9466px;font-family:Ubuntu;fill:#0000ff;fill-rule:evenodd;stroke-width:1.49466;stroke-linecap:square;stroke-linejoin:bevel" />
    <path
       d="m 536.82248,350.14369 q 0,-1.9145 -0.55263,-3.54481 -0.55265,-1.63031 -1.62805,-3.02132 l 0.98578,-0.67306 q 1.16503,1.42091 1.86703,3.27558 0.71694,1.83971 0.71694,3.96361 0,2.12389 -0.71694,3.97856 -0.702,1.83971 -1.86703,3.26062 l -0.98578,-0.67306 q 1.0754,-1.39101 1.62805,-3.02132 0.55263,-1.63031 0.55263,-3.5448 z"
       id="path1168"
       style="font-size:14.9466px;font-family:Ubuntu;fill:#0000ff;fill-rule:evenodd;stroke-width:1.49466;stroke-linecap:square;stroke-linejoin:bevel" />
    <path
       d="m 287.37307,9.602412 q 0.4929,0 0.86631,-0.014957 0.38834,-0.029914 0.64225,-0.089742 V 7.179379 q -0.14936,-0.074785 -0.49289,-0.119656 -0.32859,-0.059828 -0.80655,-0.059828 -0.31366,0 -0.67213,0.044871 -0.34354,0.044871 -0.64227,0.194441 -0.28378,0.134613 -0.47796,0.388882 -0.19416,0.2393119 -0.19416,0.6431509 0,0.7478499 0.47796,1.0469899 0.47796,0.284183 1.29944,0.2841822 z m -0.11948,-6.9699612 q 0.83642,0 1.404,0.224355 0.58251,0.209398 0.92605,0.6132369 0.35847,0.3888819 0.50782,0.9422908 0.14937,0.538452 0.14937,1.1965599 v 4.8610246 q -0.17924,0.02991 -0.50783,0.08974 -0.31366,0.04487 -0.71694,0.08974 -0.40328,0.04487 -0.88124,0.07478 -0.46301,0.04487 -0.92604,0.04487 -0.65719,0 -1.20983,-0.134613 -0.55265,-0.134613 -0.95593,-0.418796 -0.40326,-0.2991401 -0.62731,-0.777764 -0.22404,-0.478624 -0.22404,-1.1516889 0,-0.6431509 0.25391,-1.1068179 0.26885,-0.4636669 0.71694,-0.7478499 0.44808,-0.284183 1.04553,-0.418796 0.59745,-0.1346129 1.25464,-0.1346129 0.20912,0 0.43315,0.029914 0.22404,0.014957 0.41822,0.059828 0.2091,0.029914 0.35847,0.059827 0.14936,0.029914 0.2091,0.044871 v -0.388871 q 0,-0.344011 -0.0746,-0.6730649 -0.0746,-0.344011 -0.26886,-0.59828 -0.19417,-0.2692259 -0.5377,-0.4187959 -0.32859,-0.164527 -0.8663,-0.164527 -0.68707,0 -1.20984,0.104699 -0.50783,0.089742 -0.76174,0.194441 l -0.1643,-1.1516888 q 0.26885,-0.119656 0.89617,-0.224355 0.62733,-0.119656 1.3592,-0.119656 z"
       id="path1157"
       style="font-size:14.9466px;font-family:Ubuntu;fill:#0000ff;fill-rule:evenodd;stroke-width:1.49466;stroke-linecap:square;stroke-linejoin:bevel" />
    <path
       d="m 286.13338,257.44022 q 0.25391,-0.16454 0.76174,-0.34401 0.52276,-0.17949 1.19489,-0.17949 0.83643,0 1.47869,0.29914 0.65719,0.29914 1.10528,0.83759 0.44809,0.53846 0.67213,1.28631 0.23897,0.74785 0.23897,1.64526 0,0.9423 -0.28378,1.7051 -0.26885,0.74785 -0.77668,1.27134 -0.50784,0.5235 -1.22478,0.80768 -0.71693,0.28419 -1.6131,0.28419 -0.97086,0 -1.71767,-0.13461 -0.74681,-0.13462 -1.22477,-0.26923 v -11.14297 l 1.38908,-0.2393 z m 0,6.2221 q 0.2091,0.0598 0.5825,0.11967 0.38834,0.0448 0.95593,0.0448 1.12021,0 1.79234,-0.7329 0.67212,-0.74785 0.67212,-2.10894 0,-0.59827 -0.11949,-1.12177 -0.11948,-0.52349 -0.38834,-0.89742 -0.26885,-0.38888 -0.702,-0.59828 -0.41822,-0.22435 -1.01566,-0.22435 -0.56758,0 -1.04553,0.19443 -0.47796,0.19445 -0.73187,0.40384 z"
       id="path1154"
       style="font-size:14.9466px;font-family:Ubuntu;fill:#0000ff;fill-rule:evenodd;stroke-width:1.49466;stroke-linecap:square;stroke-linejoin:bevel" />
    <path
       sodipodi:nodetypes="sssss"
       inkscape:connector-curvature="0"
       id="path2253"
       d="m 342.98813,84.243902 c 0,37.561798 -2.53261,68.011648 -45.95832,68.011648 -30.3942,0 -45.9583,-30.44986 -45.9583,-68.011648 0,-37.561786 13.55926,-69.014056 45.9583,-68.011642 25.36994,0.784936 45.95832,30.449848 45.95832,68.011642 z"
       style="fill:none;stroke:#ff0000;stroke-width:1.8;stroke-miterlimit:4;stroke-dasharray:3.6, 3.6;stroke-dashoffset:0;stroke-opacity:1" />
    <path
       sodipodi:nodetypes="csssc"
       inkscape:connector-curvature="0"
       id="path2256"
       d="m 99.552272,113.3142 c 0,0 -0.04651,-38.348134 21.050908,-53.128476 33.76664,-23.656096 110.51923,-15.548686 164.39753,-15.036359 40.20776,0.382333 83.7467,-7.146627 117.28361,15.036359 18.82149,12.449468 26.06302,59.143016 26.06302,59.143016"
       style="fill:none;stroke:#ff0000;stroke-width:1.5px;stroke-linecap:butt;stroke-linejoin:miter;stroke-opacity:1;marker-end:url(#Arrow1Mend)" />
    <path
       d="m 420.10339,72.522629 v -0.445313 q 1.45313,0 1.85157,-0.398437 0.42187,-0.421875 0.42187,-1.710938 v -10.40625 q 0,-1.335937 -0.42187,-1.710937 -0.39844,-0.398438 -1.85157,-0.398438 v -0.445312 h 6.96094 v 0.445312 q -1.35937,0 -1.82812,0.398438 -0.46875,0.375 -0.46875,1.710937 v 10.40625 q 0,1.3125 0.46875,1.710938 0.46875,0.398437 1.82812,0.398437 v 0.445313 z"
       style="font-size:24px;line-height:1.25;font-family:Rekha;-inkscape-font-specification:Rekha;letter-spacing:0px;word-spacing:0px;fill:#0000ff"
       id="path1151" />
    <path
       sodipodi:nodetypes="czzzc"
       inkscape:connector-curvature="0"
       id="path973"
       d="m 272.85139,214.97966 c 0,0 3.54628,-40.2348 -10.17412,-52.72044 -13.7204,-12.48564 -41.12573,-6.66448 -57.34504,-5.54952 -16.21931,1.11496 -31.07926,3.66909 -38.84664,9.2492 -7.76738,5.58011 -9.24919,14.79872 -9.24919,14.79872"
       style="fill:none;stroke:#ff0000;stroke-width:1.5;stroke-linecap:butt;stroke-linejoin:miter;stroke-miterlimit:4;stroke-dasharray:none;stroke-opacity:1;marker-end:url(#marker983)" />
    <path
       inkscape:connector-curvature="0"
       id="path998"
       d="m 146.13736,276.94929 109.14056,-0.92492"
       style="fill:none;stroke:#ff0000;stroke-width:1.5;stroke-linecap:butt;stroke-linejoin:miter;stroke-miterlimit:4;stroke-dasharray:none;stroke-opacity:1;marker-end:url(#marker1008)" />
    <path
       inkscape:connector-curvature="0"
       id="path998-7"
       d="M 320.39738,274.08662 429.53794,273.1617"
       style="fill:none;stroke:#ff0000;stroke-width:1.5;stroke-linecap:butt;stroke-linejoin:miter;stroke-miterlimit:4;stroke-dasharray:none;stroke-opacity:1;marker-end:url(#marker1008-3)" />
    <path
       d="m 221.27509,182.96591 v -0.44531 q 1.45312,0 1.85156,-0.39844 0.42187,-0.42187 0.42187,-1.71094 v -10.40625 q 0,-1.33593 -0.42187,-1.71093 -0.39844,-0.39844 -1.85156,-0.39844 v -0.44531 h 6.96093 v 0.44531 q -1.35937,0 -1.82812,0.39844 -0.46875,0.375 -0.46875,1.71093 v 10.40625 q 0,1.3125 0.46875,1.71094 0.46875,0.39844 1.82812,0.39844 v 0.44531 z"
       style="font-size:24px;line-height:1.25;font-family:Rekha;-inkscape-font-specification:Rekha;letter-spacing:0px;word-spacing:0px;fill:#0000ff"
       id="path1148" />
    <path
       d="m 189.8278,312.45471 v -0.44531 q 1.45313,0 1.85157,-0.39844 0.42187,-0.42187 0.42187,-1.71094 v -10.40625 q 0,-1.33593 -0.42187,-1.71093 -0.39844,-0.39844 -1.85157,-0.39844 v -0.44531 h 6.96094 v 0.44531 q -1.35937,0 -1.82812,0.39844 -0.46875,0.375 -0.46875,1.71093 v 10.40625 q 0,1.3125 0.46875,1.71094 0.46875,0.39844 1.82812,0.39844 v 0.44531 z"
       style="font-size:24px;line-height:1.25;font-family:Rekha;-inkscape-font-specification:Rekha;letter-spacing:0px;word-spacing:0px;fill:#0000ff"
       id="path1145" />
    <path
       d="m 360.61374,309.67993 v -0.44531 q 1.45312,0 1.85156,-0.39844 0.42188,-0.42187 0.42188,-1.71094 v -10.40625 q 0,-1.33593 -0.42188,-1.71093 -0.39844,-0.39844 -1.85156,-0.39844 v -0.44531 h 6.96094 v 0.44531 q -1.35938,0 -1.82813,0.39844 -0.46875,0.375 -0.46875,1.71093 v 10.40625 q 0,1.3125 0.46875,1.71094 0.46875,0.39844 1.82813,0.39844 v 0.44531 z"
       style="font-size:24px;line-height:1.25;font-family:Rekha;-inkscape-font-specification:Rekha;letter-spacing:0px;word-spacing:0px;fill:#0000ff"
       id="path1142" />
    <path
       d="m 201.1729,311.4717 h 3.00781 v -10.38153 l -3.27214,0.65625 v -1.67709 l 3.25392,-0.65625 h 1.84114 v 12.05862 h 3.00782 v 1.54948 h -7.83855 z"
       style="font-size:18.6667px;line-height:1.25;letter-spacing:0px;word-spacing:0px;fill:#0000ff"
       id="path1139" />
    <path
       d="m 372.67307,309.02651 h 6.42579 v 1.54948 h -8.64064 v -1.54948 q 1.04818,-1.08464 2.85287,-2.90756 1.81381,-1.83204 2.27865,-2.36068 0.88412,-0.99349 1.23047,-1.67709 0.35547,-0.69271 0.35547,-1.35807 0,-1.08464 -0.76562,-1.76824 -0.75651,-0.68359 -1.97787,-0.68359 -0.86589,0 -1.83204,0.30078 -0.95703,0.30078 -2.05078,0.91146 v -1.85938 q 1.11198,-0.44661 2.07813,-0.67448 0.96615,-0.22786 1.76823,-0.22786 2.11459,0 3.3724,1.05729 1.25782,1.05729 1.25782,2.82553 0,0.83854 -0.31901,1.59505 -0.3099,0.7474 -1.13933,1.76823 -0.22786,0.26433 -1.44922,1.53126 -1.22136,1.25781 -3.44532,3.52735 z"
       style="font-size:18.6667px;line-height:1.25;letter-spacing:0px;word-spacing:0px;fill:#0000ff"
       id="path1136" />
    <path
       d="m 236.4017,175.59979 q 1.32162,0.28255 2.0599,1.17578 0.7474,0.89323 0.7474,2.20574 0,2.01432 -1.38542,3.11719 -1.38542,1.10287 -3.93751,1.10287 -0.85677,0 -1.76823,-0.17318 -0.90235,-0.16406 -1.86849,-0.5013 v -1.77735 q 0.76562,0.44661 1.67708,0.67448 0.91146,0.22786 1.90495,0.22786 1.73178,0 2.63412,-0.68359 0.91146,-0.6836 0.91146,-1.98698 0,-1.20313 -0.84765,-1.87761 -0.83855,-0.6836 -2.34246,-0.6836 h -1.58594 v -1.51302 h 1.65886 q 1.35808,0 2.07813,-0.53776 0.72005,-0.54688 0.72005,-1.56771 0,-1.04818 -0.74739,-1.60417 -0.73829,-0.56511 -2.12371,-0.56511 -0.75651,0 -1.6224,0.16407 -0.86588,0.16406 -1.90495,0.51041 v -1.64063 q 1.04818,-0.29166 1.95964,-0.4375 0.92058,-0.14583 1.73178,-0.14583 2.09635,0 3.31771,0.95703 1.22136,0.94792 1.22136,2.57032 0,1.13021 -0.64714,1.91407 -0.64714,0.77474 -1.84115,1.07552 z"
       style="font-size:18.6667px;line-height:1.25;letter-spacing:0px;word-spacing:0px;fill:#0000ff"
       id="path1133" />
  </g>
</svg>
