<?xml version="1.0" encoding="UTF-8" standalone="no"?>
<!-- Created with Inkscape (http://www.inkscape.org/) -->

<svg
   width="372.69281"
   height="107.29768"
   id="svg2"
   version="1.1"
   inkscape:version="1.1.2 (0a00cf5339, 2022-02-04)"
   sodipodi:docname="model_fig31.svg"
   viewBox="0 0 349.39951 100.59157"
   xmlns:inkscape="http://www.inkscape.org/namespaces/inkscape"
   xmlns:sodipodi="http://sodipodi.sourceforge.net/DTD/sodipodi-0.dtd"
   xmlns="http://www.w3.org/2000/svg"
   xmlns:svg="http://www.w3.org/2000/svg"
   xmlns:rdf="http://www.w3.org/1999/02/22-rdf-syntax-ns#"
   xmlns:cc="http://creativecommons.org/ns#"
   xmlns:dc="http://purl.org/dc/elements/1.1/">
  <defs
     id="defs4">
    <marker
       inkscape:stockid="Arrow1Mend"
       orient="auto"
       refY="0"
       refX="0"
       id="Arrow1Mend"
       style="overflow:visible">
      <path
         id="path3809"
         d="M 0,0 5,-5 -12.5,0 5,5 Z"
         style="fill-rule:evenodd;stroke:#000000;stroke-width:1pt"
         transform="matrix(-0.4,0,0,-0.4,-4,0)"
         inkscape:connector-curvature="0" />
    </marker>
    <marker
       inkscape:stockid="Arrow1Mend"
       orient="auto"
       refY="0"
       refX="0"
       id="Arrow1Mend-3"
       style="overflow:visible">
      <path
         inkscape:connector-curvature="0"
         id="path3809-6"
         d="M 0,0 5,-5 -12.5,0 5,5 Z"
         style="fill-rule:evenodd;stroke:#000000;stroke-width:1pt"
         transform="matrix(-0.4,0,0,-0.4,-4,0)" />
    </marker>
    <marker
       inkscape:stockid="Arrow1Mend"
       orient="auto"
       refY="0"
       refX="0"
       id="Arrow1Mend-36"
       style="overflow:visible">
      <path
         id="path3809-7"
         d="M 0,0 5,-5 -12.5,0 5,5 Z"
         style="fill-rule:evenodd;stroke:#000000;stroke-width:1pt"
         transform="matrix(-0.4,0,0,-0.4,-4,0)"
         inkscape:connector-curvature="0" />
    </marker>
  </defs>
  <sodipodi:namedview
     id="base"
     pagecolor="#ffffff"
     bordercolor="#666666"
     borderopacity="1.0"
     inkscape:pageopacity="0.0"
     inkscape:pageshadow="2"
     inkscape:zoom="0.85631068"
     inkscape:cx="273.26531"
     inkscape:cy="-57.222222"
     inkscape:document-units="px"
     inkscape:current-layer="layer1"
     showgrid="false"
     inkscape:window-width="2580"
     inkscape:window-height="1052"
     inkscape:window-x="1920"
     inkscape:window-y="0"
     inkscape:window-maximized="1"
     fit-margin-top="0"
     fit-margin-left="0"
     fit-margin-right="0"
     fit-margin-bottom="0"
     inkscape:pagecheckerboard="0" />
  <metadata
     id="metadata7">
    <rdf:RDF>
      <cc:Work
         rdf:about="">
        <dc:format>image/svg+xml</dc:format>
        <dc:type
           rdf:resource="http://purl.org/dc/dcmitype/StillImage" />
      </cc:Work>
    </rdf:RDF>
  </metadata>
  <g
     inkscape:label="Layer 1"
     inkscape:groupmode="layer"
     id="layer1"
     transform="translate(-119.41474,-540.3365)">
    <g
       id="g1101">
      <path
         id="rect885"
         style="fill:#ffffff;stroke:#ffffff;stroke-width:0.65;stroke-miterlimit:10"
         d="m 119.73974,540.6615 h 348.74951 v 99.94157 H 119.73974 Z" />
      <path
         id="rect2989"
         style="fill:none;stroke:#000000;stroke-width:2.59687;stroke-linecap:round;stroke-linejoin:round"
         d="m 246.33749,545.07983 h 98.81762 v 86.54054 h -98.81762 z" />
      <path
         inkscape:connector-curvature="0"
         id="path3794"
         d="m 184.6337,588.3501 h 63.43749"
         style="fill:none;stroke:#000000;stroke-width:2.59687;stroke-linecap:butt;stroke-linejoin:miter;stroke-miterlimit:4;stroke-dasharray:none;stroke-opacity:1;marker-end:url(#Arrow1Mend)" />
      <path
         inkscape:connector-curvature="0"
         id="path3794-7"
         d="m 345.80307,588.3501 h 58.14157"
         style="fill:none;stroke:#000000;stroke-width:2.59687;stroke-linecap:butt;stroke-linejoin:miter;stroke-miterlimit:4;stroke-dasharray:none;stroke-opacity:1;marker-end:url(#Arrow1Mend)" />
      <path
         d="m 141.2462,575.37049 -0.14664,1.08517 q -1.29047,0.17597 -2.11167,0.55724 l -8.21207,18.1252 q -0.99718,0 -1.58375,-0.2053 l -2.90355,-17.86124 q -0.93852,-0.49859 -1.87705,-0.6159 l 0.14665,-1.08517 h 7.30287 l -0.14665,1.08517 q -1.46644,0.17597 -2.58093,0.76254 l 1.96503,13.46192 5.89509,-13.49124 q -0.93852,-0.52792 -2.46362,-0.73322 l 0.14664,-1.08517 z"
         style="font-style:italic;font-size:29.3288px;line-height:1.25;font-family:Caladea;-inkscape-font-specification:'Caladea Italic';text-align:center;letter-spacing:0px;word-spacing:0px;text-anchor:middle"
         id="path1002" />
      <path
         d="m 142.27268,589.27234 q 0,-4.45798 2.141,-8.32938 2.141,-3.8714 6.24704,-6.83361 l 0.76255,0.82121 q -3.2555,2.93288 -4.9859,6.86294 -1.7304,3.90073 -1.7304,8.47602 0,4.57529 2.81557,8.15341 l -0.82121,0.76255 q -0.17597,-0.14665 -0.49859,-0.41061 -0.29329,-0.23463 -1.05584,-1.17315 -0.76255,-0.90919 -1.34912,-1.96503 -0.55725,-1.05584 -1.05584,-2.75691 -0.46926,-1.73039 -0.46926,-3.60744 z"
         style="font-style:italic;font-size:29.3288px;line-height:1.25;font-family:Caladea;-inkscape-font-specification:'Caladea Italic';text-align:center;letter-spacing:0px;word-spacing:0px;text-anchor:middle"
         id="path1004" />
      <path
         d="m 157.1717,582.29209 q -0.70389,0 -1.31979,0.46926 -0.61591,0.46926 -0.61591,1.31979 0,0.85054 0.52792,1.46644 0.52792,0.61591 1.61309,1.5251 1.11449,0.87987 1.75972,1.70107 0.67457,0.82121 0.67457,1.81839 0,2.17033 -1.49577,3.37281 -1.49577,1.17315 -3.54879,1.17315 -2.02369,0 -3.8714,-1.23181 l 0.87986,-3.54878 1.20249,0.2053 q -0.0587,0.58658 -0.0587,1.3198 0,0.73322 0.52792,1.29046 0.55724,0.55725 1.96503,0.55725 0.64523,0 1.29046,-0.46926 0.64524,-0.46926 0.64524,-1.49577 0,-0.49859 -0.20531,-0.76255 -0.17597,-0.26396 -0.29328,-0.4106 -0.088,-0.14665 -0.35195,-0.38128 -0.26396,-0.26396 -0.38127,-0.38127 -0.52792,-0.52792 -1.08517,-0.96785 -0.52792,-0.43993 -0.96785,-0.87987 -0.4106,-0.46926 -0.79188,-1.2318 -0.38127,-0.79188 -0.38127,-1.61309 0,-2.02369 1.37845,-3.07952 1.37846,-1.08517 3.31416,-1.08517 1.9357,0 3.75408,0.99718 l -0.96785,3.31416 h -1.17315 q 0.0293,-0.38128 0.0293,-1.05584 0,-0.67456 -0.32262,-1.29047 -0.32261,-0.64523 -1.7304,-0.64523 z"
         style="font-style:italic;font-size:29.3288px;line-height:1.25;font-family:Caladea;-inkscape-font-specification:'Caladea Italic';text-align:center;letter-spacing:0px;word-spacing:0px;text-anchor:middle"
         id="path1006" />
      <path
         d="m 170.25235,584.02249 q 0,4.39932 -2.19966,8.3587 -2.17033,3.93006 -6.18838,6.80429 l -0.76255,-0.82121 q 3.22617,-2.87422 4.95657,-6.80428 1.75973,-3.95939 1.75973,-8.50535 0,-4.54597 -2.81557,-8.18274 l 0.82121,-0.76255 q 0.17597,0.14665 0.46926,0.41061 0.32262,0.23463 1.08517,1.17315 0.76255,0.90919 1.31979,1.96503 0.58658,1.05583 1.05584,2.78623 0.49859,1.70107 0.49859,3.57812 z"
         style="font-style:italic;font-size:29.3288px;line-height:1.25;font-family:Caladea;-inkscape-font-specification:'Caladea Italic';text-align:center;letter-spacing:0px;word-spacing:0px;text-anchor:middle"
         id="path1008" />
      <path
         d="m 266.63221,597.05537 q 6.7163,0 6.7163,5.16186 0,3.87141 -4.04738,4.83926 0.99718,0.64523 1.81839,2.52227 l 2.31698,5.16187 q 0.87986,0.58658 2.46361,0.76255 l -0.17597,1.1145 h -4.42865 l -2.5516,-6.54033 q -0.70389,-1.78905 -1.29047,-2.17033 -0.58658,-0.4106 -2.46362,-0.4106 h -0.58657 v 7.24421 q 0.8212,0.52792 2.84489,0.79188 -0.11732,0.70389 -0.14665,1.08517 h -8.12407 l 0.14664,-1.08517 q 1.70107,-0.2053 2.69825,-0.79188 v -15.83755 q -1.02651,-0.58658 -2.87422,-0.79188 l 0.14664,-1.05583 z m -0.0293,1.20248 q -0.99718,0 -2.19966,0.2053 v 7.68414 h 0.90919 q 5.3965,0 5.3965,-3.98871 0,-3.90073 -4.10603,-3.90073 z"
         style="font-size:29.3288px;line-height:1.25;font-family:Caladea;-inkscape-font-specification:Caladea;text-align:center;letter-spacing:0px;word-spacing:0px;text-anchor:middle"
         id="path1015" />
      <path
         d="m 279.30661,611.23584 0.22876,2.28765 h 1.98263 v 1.01037 h -1.98263 v 6.76763 q 0.43847,0.32408 1.54416,0.53378 l -0.0572,0.64817 h -4.44185 l 0.0763,-0.6863 q 0.80068,-0.13344 1.2582,-0.49565 v -6.76763 h -1.41071 l -0.0953,-0.66723 q 0.99131,-0.0953 1.50603,-0.34314 v -1.02944 q 0,-1.58229 0.6863,-2.55454 0.70536,-0.97225 2.1542,-0.97225 1.44884,0 2.19233,0.47659 v 1.83012 h -1.04851 q -0.22876,-1.60135 -1.29633,-1.60135 -0.59098,0 -0.95319,0.4194 -0.34314,0.40034 -0.34314,1.14382 z"
         style="font-size:65%;line-height:0%;font-family:Caladea;-inkscape-font-specification:Caladea;text-align:center;letter-spacing:0px;word-spacing:0px;baseline-shift:sub;text-anchor:middle"
         id="path1017" />
      <path
         d="m 283.93468,609.02152 v -1.55443 h 5.04455 v -5.22053 h 1.75973 v 5.22053 h 5.1912 v 1.55443 h -5.1912 v 5.19119 h -1.75973 v -5.19119 z"
         style="font-size:29.3288px;line-height:1.25;font-family:Caladea;-inkscape-font-specification:Caladea;text-align:center;letter-spacing:0px;word-spacing:0px;text-anchor:middle"
         id="path1019" />
      <path
         d="m 304.90474,614.91661 h 5.48449 q 0.87986,-1.29047 1.26114,-3.31416 0.2053,-0.088 0.49859,-0.088 0.32262,0 0.67456,0.088 l -0.26396,5.01523 h -13.08064 l 0.17597,-1.08517 q 1.7304,-0.2053 2.63959,-0.79188 v -15.83755 q -1.08516,-0.58658 -2.81556,-0.79188 0.0293,-0.35194 0.14664,-1.05583 h 8.12408 l -0.14665,1.05583 q -1.61308,0.2053 -2.69825,0.79188 z"
         style="font-size:29.3288px;line-height:1.25;font-family:Caladea;-inkscape-font-specification:Caladea;text-align:center;letter-spacing:0px;word-spacing:0px;text-anchor:middle"
         id="path1021" />
      <path
         d="m 317.08056,611.23584 0.22876,2.28765 h 1.98263 v 1.01037 h -1.98263 v 6.76763 q 0.43847,0.32408 1.54416,0.53378 l -0.0572,0.64817 h -4.44184 l 0.0763,-0.6863 q 0.80068,-0.13344 1.25821,-0.49565 v -6.76763 h -1.41072 l -0.0953,-0.66723 q 0.99132,-0.0953 1.50604,-0.34314 v -1.02944 q 0,-1.58229 0.68629,-2.55454 0.70536,-0.97225 2.1542,-0.97225 1.44884,0 2.19233,0.47659 v 1.83012 h -1.04851 q -0.22876,-1.60135 -1.29633,-1.60135 -0.59098,0 -0.95319,0.4194 -0.34314,0.40034 -0.34314,1.14382 z"
         style="font-size:65%;line-height:0%;font-family:Caladea;-inkscape-font-specification:Caladea;text-align:center;letter-spacing:0px;word-spacing:0px;baseline-shift:sub;text-anchor:middle"
         id="path1023" />
      <path
         d="m 328.45426,606.9685 q -0.11732,-1.55443 -0.67457,-2.31697 -0.55724,-0.79188 -1.81838,-0.79188 -1.26114,0 -1.9357,0.52792 -0.67456,0.52791 -0.67456,1.43711 0,0.90919 0.76254,1.49577 0.76255,0.58657 1.84772,0.96785 1.08516,0.35194 2.17033,0.79187 1.08517,0.41061 1.84771,1.3198 0.76255,0.87986 0.76255,2.22899 0,1.96503 -1.37845,3.07952 -1.37845,1.08517 -3.8714,1.08517 -1.02651,0 -2.37563,-0.32262 -1.3198,-0.35194 -1.99436,-0.79188 v -3.60744 l 1.55442,-0.2053 q 0.17598,2.141 0.79188,3.31415 0.93852,0.29329 2.19966,0.29329 1.26114,0 2.02369,-0.64523 0.76255,-0.64523 0.76255,-1.55443 0,-0.93852 -0.76255,-1.49577 -0.73322,-0.55724 -1.81839,-0.87986 -1.05583,-0.35195 -2.141,-0.76255 -1.08517,-0.43993 -1.84771,-1.34912 -0.73322,-0.93853 -0.73322,-2.52228 0,-1.58376 1.29046,-2.58094 1.3198,-0.99717 3.75409,-0.99717 2.46362,0 4.04737,0.76254 l -0.26396,3.51946 z"
         style="font-size:29.3288px;line-height:1.25;font-family:Caladea;-inkscape-font-specification:Caladea;text-align:center;letter-spacing:0px;word-spacing:0px;text-anchor:middle"
         id="path1025" />
      <path
         d="m 294.95639,565.93834 h -3.93005 v -1.26114 q 2.9622,-0.26395 5.54314,-1.64241 l 0.96785,0.43993 v 17.36265 q 0.96785,0.52792 3.6661,0.87987 l -0.088,0.99718 h -10.20642 l 0.0587,-0.99718 q 2.61026,-0.29329 3.98871,-0.87987 z"
         style="font-size:29.3288px;line-height:1.25;font-family:Caladea;-inkscape-font-specification:Caladea;text-align:center;letter-spacing:0px;word-spacing:0px;text-anchor:middle"
         id="path1012" />
      <path
         style="fill:none;stroke:#000000;stroke-width:2.53125;stroke-linecap:butt;stroke-linejoin:miter;stroke-miterlimit:4;stroke-dasharray:none;stroke-opacity:1"
         d="M 258.20755,588.3501 H 335.0786"
         id="path3794-5"
         inkscape:connector-curvature="0" />
      <path
         d="m 418.96171,598.38324 0.14664,-1.08517 q 1.58375,-0.2053 2.52228,-0.76254 l 2.52227,-15.86689 q -0.96785,-0.58657 -2.52227,-0.76254 l 0.14664,-1.08517 h 7.59616 l -0.14664,1.08517 q -1.49577,0.17597 -2.49295,0.76254 l -2.52228,15.86689 q 0.93852,0.55724 2.63959,0.76254 l -0.14664,1.08517 z"
         style="font-style:italic;font-size:29.3288px;line-height:1.25;font-family:Caladea;-inkscape-font-specification:'Caladea Italic';text-align:center;letter-spacing:0px;word-spacing:0px;text-anchor:middle"
         id="path991" />
      <path
         d="m 429.07573,608.02362 q -0.28595,0.15251 -0.68629,0.26689 -0.38127,0.13344 -1.01038,0.13344 -0.64816,0 -1.16288,-0.40033 -0.53379,-0.40034 -0.53379,-1.04851 0,-0.6291 0.34315,-0.95318 0.32408,-0.32409 0.78161,-0.32409 0.76255,0 0.91506,0.6863 -0.32408,0.17157 -0.32408,0.59097 0,0.53379 0.51472,0.53379 0.78161,0 1.06756,-1.04851 0.19064,-0.68629 0.30502,-1.88731 0.13345,-1.20101 0.20971,-1.65854 l 1.0485,-6.53886 h -1.41072 l 0.11439,-0.64816 1.44884,-0.38128 0.17157,-0.87693 q 0.66723,-3.50772 3.24084,-3.50772 0.85786,0 1.44884,0.45753 0.61004,0.43846 0.61004,1.10569 0,0.66723 -0.36221,1.04851 -0.36221,0.38127 -0.81974,0.38127 -0.66723,0 -0.85787,-0.68629 0.45753,-0.34315 0.45753,-0.6863 0,-0.72442 -0.83881,-0.72442 -0.87693,0 -1.14382,0.95319 -0.19064,0.70536 -0.22876,1.56322 -0.0381,0.85787 -0.0572,1.06757 h 1.83011 l -0.13344,0.93412 h -1.84918 l -1.06757,6.74856 q -0.28596,1.86824 -0.4194,2.23046 -0.11439,0.36221 -0.28596,0.85786 -0.17157,0.51472 -0.34315,0.72442 -0.15251,0.22877 -0.4194,0.57192 -0.26689,0.36221 -0.55285,0.51472 z"
         style="font-size:7.8px;line-height:0%;font-family:Caladea;-inkscape-font-specification:Caladea;text-align:center;letter-spacing:0px;word-spacing:0px;baseline-shift:sub;text-anchor:middle"
         id="path993" />
      <path
         d="m 436.34781,592.72278 q 0,-4.45798 2.141,-8.32938 2.141,-3.8714 6.24703,-6.83361 l 0.76255,0.82121 q -3.2555,2.93288 -4.9859,6.86294 -1.73039,3.90073 -1.73039,8.47602 0,4.57529 2.81556,8.15341 l -0.82121,0.76255 q -0.17597,-0.14665 -0.49859,-0.41061 -0.29328,-0.23463 -1.05583,-1.17315 -0.76255,-0.90919 -1.34913,-1.96503 -0.55724,-1.05584 -1.05583,-2.75691 -0.46926,-1.7304 -0.46926,-3.60744 z"
         style="font-style:italic;font-size:29.3288px;line-height:1.25;font-family:Caladea;-inkscape-font-specification:'Caladea Italic';text-align:center;letter-spacing:0px;word-spacing:0px;text-anchor:middle"
         id="path995" />
      <path
         d="m 451.24683,585.74253 q -0.70389,0 -1.3198,0.46926 -0.6159,0.46926 -0.6159,1.31979 0,0.85054 0.52792,1.46644 0.52791,0.61591 1.61308,1.5251 1.11449,0.87987 1.75973,1.70107 0.67456,0.82121 0.67456,1.81839 0,2.17033 -1.49577,3.37281 -1.49577,1.17315 -3.54878,1.17315 -2.02369,0 -3.8714,-1.23181 l 0.87986,-3.54878 1.20248,0.2053 q -0.0587,0.58657 -0.0587,1.31979 0,0.73322 0.52792,1.29047 0.55725,0.55725 1.96503,0.55725 0.64523,0 1.29047,-0.46926 0.64523,-0.46926 0.64523,-1.49577 0,-0.49859 -0.2053,-0.76255 -0.17597,-0.26396 -0.29329,-0.4106 -0.088,-0.14665 -0.35194,-0.38128 -0.26396,-0.26396 -0.38128,-0.38127 -0.52792,-0.52792 -1.08516,-0.96785 -0.52792,-0.43993 -0.96785,-0.87987 -0.41061,-0.46926 -0.79188,-1.23181 -0.38128,-0.79187 -0.38128,-1.61308 0,-2.02369 1.37846,-3.07952 1.37845,-1.08517 3.31415,-1.08517 1.9357,0 3.75409,0.99718 l -0.96785,3.31415 h -1.17315 q 0.0293,-0.38127 0.0293,-1.05583 0,-0.67456 -0.32261,-1.29047 -0.32262,-0.64523 -1.7304,-0.64523 z"
         style="font-style:italic;font-size:29.3288px;line-height:1.25;font-family:Caladea;-inkscape-font-specification:'Caladea Italic';text-align:center;letter-spacing:0px;word-spacing:0px;text-anchor:middle"
         id="path997" />
      <path
         d="m 464.32747,587.47293 q 0,4.39932 -2.19966,8.3587 -2.17033,3.93006 -6.18837,6.80429 l -0.76255,-0.82121 q 3.22616,-2.87422 4.95656,-6.80428 1.75973,-3.95939 1.75973,-8.50535 0,-4.54597 -2.81556,-8.18274 l 0.8212,-0.76255 q 0.17598,0.14665 0.46926,0.4106 0.32262,0.23464 1.08517,1.17316 0.76255,0.90919 1.3198,1.96503 0.58657,1.05583 1.05583,2.78623 0.49859,1.70107 0.49859,3.57812 z"
         style="font-style:italic;font-size:29.3288px;line-height:1.25;font-family:Caladea;-inkscape-font-specification:'Caladea Italic';text-align:center;letter-spacing:0px;word-spacing:0px;text-anchor:middle"
         id="path999" />
    </g>
  </g>
</svg>
