<?xml version="1.0" encoding="UTF-8" standalone="no"?>
<!-- Created with Inkscape (http://www.inkscape.org/) -->

<svg
   width="1090.6128"
   height="132.02301"
   id="svg2"
   version="1.1"
   inkscape:version="1.1.2 (0a00cf5339, 2022-02-04)"
   sodipodi:docname="model_fig66.svg"
   viewBox="0 0 1022.4495 123.77156"
   xmlns:inkscape="http://www.inkscape.org/namespaces/inkscape"
   xmlns:sodipodi="http://sodipodi.sourceforge.net/DTD/sodipodi-0.dtd"
   xmlns="http://www.w3.org/2000/svg"
   xmlns:svg="http://www.w3.org/2000/svg"
   xmlns:rdf="http://www.w3.org/1999/02/22-rdf-syntax-ns#"
   xmlns:cc="http://creativecommons.org/ns#"
   xmlns:dc="http://purl.org/dc/elements/1.1/">
  <defs
     id="defs4">
    <marker
       inkscape:isstock="true"
       style="overflow:visible"
       id="marker5703"
       refX="0"
       refY="0"
       orient="auto"
       inkscape:stockid="DotM">
      <path
         inkscape:connector-curvature="0"
         transform="matrix(0.4,0,0,0.4,2.96,0.4)"
         style="fill:#000000;fill-opacity:1;fill-rule:evenodd;stroke:#000000;stroke-width:1pt;stroke-opacity:1"
         d="m -2.5,-1 c 0,2.76 -2.24,5 -5,5 -2.76,0 -5,-2.24 -5,-5 0,-2.76 2.24,-5 5,-5 2.76,0 5,2.24 5,5 z"
         id="path5701" />
    </marker>
    <marker
       inkscape:isstock="true"
       style="overflow:visible"
       id="marker2493"
       refX="0"
       refY="0"
       orient="auto"
       inkscape:stockid="Arrow1Mstart">
      <path
         transform="matrix(0.4,0,0,0.4,4,0)"
         style="fill:#000000;fill-opacity:1;fill-rule:evenodd;stroke:#000000;stroke-width:1pt;stroke-opacity:1"
         d="M 0,0 5,-5 -12.5,0 5,5 Z"
         id="path2491"
         inkscape:connector-curvature="0" />
    </marker>
    <marker
       inkscape:stockid="Arrow1Mend"
       orient="auto"
       refY="0"
       refX="0"
       id="Arrow1Mend"
       style="overflow:visible">
      <path
         id="path3809"
         d="M 0,0 5,-5 -12.5,0 5,5 Z"
         style="fill-rule:evenodd;stroke:#000000;stroke-width:1pt"
         transform="matrix(-0.4,0,0,-0.4,-4,0)"
         inkscape:connector-curvature="0" />
    </marker>
    <marker
       inkscape:stockid="Arrow1Mend"
       orient="auto"
       refY="0"
       refX="0"
       id="Arrow1Mend-3"
       style="overflow:visible">
      <path
         inkscape:connector-curvature="0"
         id="path3809-6"
         d="M 0,0 5,-5 -12.5,0 5,5 Z"
         style="fill-rule:evenodd;stroke:#000000;stroke-width:1pt"
         transform="matrix(-0.4,0,0,-0.4,-4,0)" />
    </marker>
    <marker
       inkscape:stockid="Arrow1Mend"
       orient="auto"
       refY="0"
       refX="0"
       id="Arrow1Mend-36"
       style="overflow:visible">
      <path
         id="path3809-7"
         d="M 0,0 5,-5 -12.5,0 5,5 Z"
         style="fill-rule:evenodd;stroke:#000000;stroke-width:1pt"
         transform="matrix(-0.4,0,0,-0.4,-4,0)"
         inkscape:connector-curvature="0" />
    </marker>
    <marker
       inkscape:stockid="Arrow1Mend"
       orient="auto"
       refY="0"
       refX="0"
       id="Arrow1Mend-367"
       style="overflow:visible">
      <path
         id="path3809-5"
         d="M 0,0 5,-5 -12.5,0 5,5 Z"
         style="fill-rule:evenodd;stroke:#000000;stroke-width:1pt"
         transform="matrix(-0.4,0,0,-0.4,-4,0)"
         inkscape:connector-curvature="0" />
    </marker>
    <marker
       inkscape:stockid="Arrow1Mend"
       orient="auto"
       refY="0"
       refX="0"
       id="Arrow1Mend-367-5"
       style="overflow:visible">
      <path
         id="path3809-5-6"
         d="M 0,0 5,-5 -12.5,0 5,5 Z"
         style="fill-rule:evenodd;stroke:#000000;stroke-width:1pt"
         transform="matrix(-0.4,0,0,-0.4,-4,0)"
         inkscape:connector-curvature="0" />
    </marker>
    <marker
       style="overflow:visible"
       id="Arrow1Mend-7"
       refX="0"
       refY="0"
       orient="auto"
       inkscape:stockid="Arrow1Mend">
      <path
         inkscape:connector-curvature="0"
         transform="matrix(-0.4,0,0,-0.4,-4,0)"
         style="fill-rule:evenodd;stroke:#000000;stroke-width:1pt"
         d="M 0,0 5,-5 -12.5,0 5,5 Z"
         id="path3809-53" />
    </marker>
    <marker
       style="overflow:visible"
       id="Arrow1Mend-3-5"
       refX="0"
       refY="0"
       orient="auto"
       inkscape:stockid="Arrow1Mend">
      <path
         transform="matrix(-0.4,0,0,-0.4,-4,0)"
         style="fill-rule:evenodd;stroke:#000000;stroke-width:1pt"
         d="M 0,0 5,-5 -12.5,0 5,5 Z"
         id="path3809-6-6"
         inkscape:connector-curvature="0" />
    </marker>
    <marker
       style="overflow:visible"
       id="Arrow1Mend-36-2"
       refX="0"
       refY="0"
       orient="auto"
       inkscape:stockid="Arrow1Mend">
      <path
         inkscape:connector-curvature="0"
         transform="matrix(-0.4,0,0,-0.4,-4,0)"
         style="fill-rule:evenodd;stroke:#000000;stroke-width:1pt"
         d="M 0,0 5,-5 -12.5,0 5,5 Z"
         id="path3809-7-9" />
    </marker>
    <marker
       style="overflow:visible"
       id="Arrow1Mend-9"
       refX="0"
       refY="0"
       orient="auto"
       inkscape:stockid="Arrow1Mend">
      <path
         inkscape:connector-curvature="0"
         transform="matrix(-0.4,0,0,-0.4,-4,0)"
         style="fill-rule:evenodd;stroke:#000000;stroke-width:1pt"
         d="M 0,0 5,-5 -12.5,0 5,5 Z"
         id="path3809-2" />
    </marker>
    <marker
       style="overflow:visible"
       id="Arrow1Mend-3-0"
       refX="0"
       refY="0"
       orient="auto"
       inkscape:stockid="Arrow1Mend">
      <path
         transform="matrix(-0.4,0,0,-0.4,-4,0)"
         style="fill-rule:evenodd;stroke:#000000;stroke-width:1pt"
         d="M 0,0 5,-5 -12.5,0 5,5 Z"
         id="path3809-6-2"
         inkscape:connector-curvature="0" />
    </marker>
    <marker
       style="overflow:visible"
       id="Arrow1Mend-36-3"
       refX="0"
       refY="0"
       orient="auto"
       inkscape:stockid="Arrow1Mend">
      <path
         inkscape:connector-curvature="0"
         transform="matrix(-0.4,0,0,-0.4,-4,0)"
         style="fill-rule:evenodd;stroke:#000000;stroke-width:1pt"
         d="M 0,0 5,-5 -12.5,0 5,5 Z"
         id="path3809-7-7" />
    </marker>
    <marker
       style="overflow:visible"
       id="Arrow1Mend-4"
       refX="0"
       refY="0"
       orient="auto"
       inkscape:stockid="Arrow1Mend">
      <path
         inkscape:connector-curvature="0"
         transform="matrix(-0.4,0,0,-0.4,-4,0)"
         style="fill-rule:evenodd;stroke:#000000;stroke-width:1pt"
         d="M 0,0 5,-5 -12.5,0 5,5 Z"
         id="path3809-78" />
    </marker>
    <marker
       style="overflow:visible"
       id="Arrow1Mend-3-4"
       refX="0"
       refY="0"
       orient="auto"
       inkscape:stockid="Arrow1Mend">
      <path
         transform="matrix(-0.4,0,0,-0.4,-4,0)"
         style="fill-rule:evenodd;stroke:#000000;stroke-width:1pt"
         d="M 0,0 5,-5 -12.5,0 5,5 Z"
         id="path3809-6-5"
         inkscape:connector-curvature="0" />
    </marker>
    <marker
       style="overflow:visible"
       id="Arrow1Mend-36-0"
       refX="0"
       refY="0"
       orient="auto"
       inkscape:stockid="Arrow1Mend">
      <path
         inkscape:connector-curvature="0"
         transform="matrix(-0.4,0,0,-0.4,-4,0)"
         style="fill-rule:evenodd;stroke:#000000;stroke-width:1pt"
         d="M 0,0 5,-5 -12.5,0 5,5 Z"
         id="path3809-7-3" />
    </marker>
    <marker
       inkscape:stockid="Arrow1Mend"
       orient="auto"
       refY="0"
       refX="0"
       id="Arrow1Mend-3675"
       style="overflow:visible">
      <path
         id="path3809-3"
         d="M 0,0 5,-5 -12.5,0 5,5 Z"
         style="fill-rule:evenodd;stroke:#000000;stroke-width:1pt"
         transform="matrix(-0.4,0,0,-0.4,-4,0)"
         inkscape:connector-curvature="0" />
    </marker>
    <marker
       inkscape:stockid="Arrow1Mend"
       orient="auto"
       refY="0"
       refX="0"
       id="Arrow1Mend-91"
       style="overflow:visible">
      <path
         id="path3809-27"
         d="M 0,0 5,-5 -12.5,0 5,5 Z"
         style="fill-rule:evenodd;stroke:#000000;stroke-width:1pt"
         transform="matrix(-0.4,0,0,-0.4,-4,0)"
         inkscape:connector-curvature="0" />
    </marker>
    <marker
       inkscape:stockid="Arrow1Mend"
       orient="auto"
       refY="0"
       refX="0"
       id="Arrow1Mend-91-2"
       style="overflow:visible">
      <path
         id="path3809-27-6"
         d="M 0,0 5,-5 -12.5,0 5,5 Z"
         style="fill-rule:evenodd;stroke:#000000;stroke-width:1pt"
         transform="matrix(-0.4,0,0,-0.4,-4,0)"
         inkscape:connector-curvature="0" />
    </marker>
    <marker
       inkscape:stockid="Arrow1Mend"
       orient="auto"
       refY="0"
       refX="0"
       id="Arrow1Mend-36753"
       style="overflow:visible">
      <path
         id="path3809-56"
         d="M 0,0 5,-5 -12.5,0 5,5 Z"
         style="fill-rule:evenodd;stroke:#000000;stroke-width:1pt"
         transform="matrix(-0.4,0,0,-0.4,-4,0)"
         inkscape:connector-curvature="0" />
    </marker>
    <marker
       inkscape:stockid="Arrow1Mend"
       orient="auto"
       refY="0"
       refX="0"
       id="Arrow1Mend-912"
       style="overflow:visible">
      <path
         id="path3809-70"
         d="M 0,0 5,-5 -12.5,0 5,5 Z"
         style="fill-rule:evenodd;stroke:#000000;stroke-width:1pt"
         transform="matrix(-0.4,0,0,-0.4,-4,0)"
         inkscape:connector-curvature="0" />
    </marker>
    <marker
       inkscape:stockid="Arrow1Mend"
       orient="auto"
       refY="0"
       refX="0"
       id="Arrow1Mend-912-3"
       style="overflow:visible">
      <path
         id="path3809-70-6"
         d="M 0,0 5,-5 -12.5,0 5,5 Z"
         style="fill-rule:evenodd;stroke:#000000;stroke-width:1pt"
         transform="matrix(-0.4,0,0,-0.4,-4,0)"
         inkscape:connector-curvature="0" />
    </marker>
    <marker
       inkscape:stockid="Arrow1Mend"
       orient="auto"
       refY="0"
       refX="0"
       id="Arrow1Mend-367-9"
       style="overflow:visible">
      <path
         id="path3809-5-3"
         d="M 0,0 5,-5 -12.5,0 5,5 Z"
         style="fill-rule:evenodd;stroke:#000000;stroke-width:1pt"
         transform="matrix(-0.4,0,0,-0.4,-4,0)"
         inkscape:connector-curvature="0" />
    </marker>
    <marker
       inkscape:stockid="Arrow1Mend"
       orient="auto"
       refY="0"
       refX="0"
       id="Arrow1Mend-367-9-9"
       style="overflow:visible">
      <path
         id="path3809-5-3-4"
         d="M 0,0 5,-5 -12.5,0 5,5 Z"
         style="fill-rule:evenodd;stroke:#000000;stroke-width:1pt"
         transform="matrix(-0.4,0,0,-0.4,-4,0)"
         inkscape:connector-curvature="0" />
    </marker>
    <marker
       inkscape:stockid="Arrow1Mend"
       orient="auto"
       refY="0"
       refX="0"
       id="Arrow1Mend-367-9-6"
       style="overflow:visible">
      <path
         id="path3809-5-3-3"
         d="M 0,0 5,-5 -12.5,0 5,5 Z"
         style="fill-rule:evenodd;stroke:#000000;stroke-width:1pt"
         transform="matrix(-0.4,0,0,-0.4,-4,0)"
         inkscape:connector-curvature="0" />
    </marker>
    <marker
       inkscape:stockid="Arrow1Mend"
       orient="auto"
       refY="0"
       refX="0"
       id="Arrow1Mend-0"
       style="overflow:visible">
      <path
         id="path3809-61"
         d="M 0,0 5,-5 -12.5,0 5,5 Z"
         style="fill-rule:evenodd;stroke:#000000;stroke-width:1pt"
         transform="matrix(-0.4,0,0,-0.4,-4,0)"
         inkscape:connector-curvature="0" />
    </marker>
    <marker
       inkscape:stockid="Arrow1Mend"
       orient="auto"
       refY="0"
       refX="0"
       id="Arrow1Mend-367-9-7"
       style="overflow:visible">
      <path
         id="path3809-5-3-45"
         d="M 0,0 5,-5 -12.5,0 5,5 Z"
         style="fill-rule:evenodd;stroke:#000000;stroke-width:1pt"
         transform="matrix(-0.4,0,0,-0.4,-4,0)"
         inkscape:connector-curvature="0" />
    </marker>
    <marker
       inkscape:stockid="Arrow1Mend"
       orient="auto"
       refY="0"
       refX="0"
       id="Arrow1Mend-367535"
       style="overflow:visible">
      <path
         id="path3809-62"
         d="M 0,0 5,-5 -12.5,0 5,5 Z"
         style="fill-rule:evenodd;stroke:#000000;stroke-width:1pt"
         transform="matrix(-0.4,0,0,-0.4,-4,0)"
         inkscape:connector-curvature="0" />
    </marker>
    <marker
       inkscape:stockid="Arrow1Mend"
       orient="auto"
       refY="0"
       refX="0"
       id="Arrow1Mend-367535-1"
       style="overflow:visible">
      <path
         id="path3809-62-8"
         d="M 0,0 5,-5 -12.5,0 5,5 Z"
         style="fill-rule:evenodd;stroke:#000000;stroke-width:1pt"
         transform="matrix(-0.4,0,0,-0.4,-4,0)"
         inkscape:connector-curvature="0" />
    </marker>
    <marker
       inkscape:stockid="Arrow1Mend"
       orient="auto"
       refY="0"
       refX="0"
       id="Arrow1Mend-367535-6"
       style="overflow:visible">
      <path
         id="path3809-62-1"
         d="M 0,0 5,-5 -12.5,0 5,5 Z"
         style="fill-rule:evenodd;stroke:#000000;stroke-width:1pt"
         transform="matrix(-0.4,0,0,-0.4,-4,0)"
         inkscape:connector-curvature="0" />
    </marker>
    <marker
       inkscape:stockid="Arrow1Mend"
       orient="auto"
       refY="0"
       refX="0"
       id="Arrow1Mend-367535-0"
       style="overflow:visible">
      <path
         id="path3809-62-6"
         d="M 0,0 5,-5 -12.5,0 5,5 Z"
         style="fill-rule:evenodd;stroke:#000000;stroke-width:1pt"
         transform="matrix(-0.4,0,0,-0.4,-4,0)"
         inkscape:connector-curvature="0" />
    </marker>
    <marker
       inkscape:stockid="Arrow1Mend"
       orient="auto"
       refY="0"
       refX="0"
       id="Arrow1Mend-44"
       style="overflow:visible">
      <path
         id="path3809-30"
         d="M 0,0 5,-5 -12.5,0 5,5 Z"
         style="fill-rule:evenodd;stroke:#000000;stroke-width:1pt"
         transform="matrix(-0.4,0,0,-0.4,-4,0)"
         inkscape:connector-curvature="0" />
    </marker>
    <marker
       inkscape:stockid="Arrow1Mend"
       orient="auto"
       refY="0"
       refX="0"
       id="Arrow1Mend-8"
       style="overflow:visible">
      <path
         id="path3809-68"
         d="M 0,0 5,-5 -12.5,0 5,5 Z"
         style="fill-rule:evenodd;stroke:#000000;stroke-width:1pt"
         transform="matrix(-0.4,0,0,-0.4,-4,0)"
         inkscape:connector-curvature="0" />
    </marker>
  </defs>
  <sodipodi:namedview
     id="base"
     pagecolor="#ffffff"
     bordercolor="#666666"
     borderopacity="1.0"
     inkscape:pageopacity="0.0"
     inkscape:pageshadow="2"
     inkscape:zoom="0.97012117"
     inkscape:cx="527.76912"
     inkscape:cy="-14.431187"
     inkscape:document-units="px"
     inkscape:current-layer="layer1"
     showgrid="false"
     inkscape:window-width="2580"
     inkscape:window-height="1052"
     inkscape:window-x="1920"
     inkscape:window-y="0"
     inkscape:window-maximized="1"
     fit-margin-top="0"
     fit-margin-left="0"
     fit-margin-right="0"
     fit-margin-bottom="0"
     showguides="false"
     inkscape:pagecheckerboard="0" />
  <metadata
     id="metadata7">
    <rdf:RDF>
      <cc:Work
         rdf:about="">
        <dc:format>image/svg+xml</dc:format>
        <dc:type
           rdf:resource="http://purl.org/dc/dcmitype/StillImage" />
      </cc:Work>
    </rdf:RDF>
  </metadata>
  <g
     inkscape:label="Layer 1"
     inkscape:groupmode="layer"
     id="layer1"
     transform="translate(535.57304,-107.68355)">
    <g
       id="g1691">
      <rect
         style="fill:#ffffff;stroke:#ffffff;stroke-width:0.67;stroke-linecap:round;paint-order:stroke markers fill"
         id="rect1508"
         width="1021.7795"
         height="123.10157"
         x="-535.23804"
         y="108.01855" />
      <g
         id="g1484">
        <g
           aria-label="U(s)"
           id="text3778-5"
           style="line-height:0%;font-family:Caladea;-inkscape-font-specification:Caladea;text-align:center;letter-spacing:0px;word-spacing:0px;text-anchor:middle">
          <path
             d="m -511.82452,171.66373 q -0.49859,3.07953 -2.34631,4.75127 -1.84771,1.67174 -4.86858,1.67174 -2.99154,0 -4.42865,-1.11449 -1.40778,-1.1145 -1.40778,-3.49013 0,-0.64523 0.14665,-1.67174 l 1.87704,-11.64354 q -0.90919,-0.55724 -2.52228,-0.76254 l 0.14665,-1.08517 h 7.62548 l -0.17597,1.08517 q -1.43711,0.17597 -2.43429,0.73322 l -1.87704,11.67286 q -0.11732,0.73322 -0.11732,1.46644 0,1.7304 0.85054,2.52227 0.87986,0.76255 2.78623,0.76255 1.90638,0 3.19684,-1.26114 1.29047,-1.26113 1.67174,-3.63677 l 1.84772,-11.49689 q -0.96785,-0.58657 -2.52228,-0.76254 l 0.14665,-1.08517 h 6.86294 l -0.17598,1.08517 q -1.43711,0.17597 -2.43429,0.73322 z"
             style="font-style:italic;font-size:29.3288px;line-height:1.25;-inkscape-font-specification:'Caladea Italic'"
             id="path1358" />
          <path
             d="m -506.10541,172.22098 q 0,-4.45798 2.14101,-8.32938 2.141,-3.8714 6.24703,-6.83361 l 0.76255,0.82121 q -3.2555,2.93288 -4.9859,6.86294 -1.7304,3.90073 -1.7304,8.47602 0,4.57529 2.81557,8.15341 l -0.82121,0.76255 q -0.17597,-0.14665 -0.49859,-0.41061 -0.29329,-0.23463 -1.05583,-1.17315 -0.76255,-0.90919 -1.34913,-1.96503 -0.55725,-1.05584 -1.05584,-2.75691 -0.46926,-1.7304 -0.46926,-3.60744 z"
             style="font-style:italic;font-size:29.3288px;line-height:1.25;-inkscape-font-specification:'Caladea Italic'"
             id="path1360" />
          <path
             d="m -491.20639,165.24073 q -0.70389,0 -1.31979,0.46926 -0.61591,0.46926 -0.61591,1.31979 0,0.85054 0.52792,1.46644 0.52792,0.61591 1.61309,1.5251 1.11449,0.87986 1.75972,1.70107 0.67457,0.82121 0.67457,1.81839 0,2.17033 -1.49577,3.37281 -1.49577,1.17315 -3.54879,1.17315 -2.02368,0 -3.8714,-1.23181 l 0.87987,-3.54878 1.20248,0.2053 q -0.0587,0.58657 -0.0587,1.31979 0,0.73322 0.52792,1.29047 0.55724,0.55725 1.96503,0.55725 0.64523,0 1.29046,-0.46926 0.64524,-0.46926 0.64524,-1.49577 0,-0.49859 -0.2053,-0.76255 -0.17598,-0.26396 -0.29329,-0.4106 -0.088,-0.14665 -0.35195,-0.38128 -0.26396,-0.26396 -0.38127,-0.38127 -0.52792,-0.52792 -1.08517,-0.96785 -0.52792,-0.43993 -0.96785,-0.87987 -0.4106,-0.46926 -0.79188,-1.23181 -0.38127,-0.79187 -0.38127,-1.61308 0,-2.02369 1.37845,-3.07952 1.37846,-1.08517 3.31416,-1.08517 1.9357,0 3.75408,0.99718 l -0.96785,3.31415 h -1.17315 q 0.0293,-0.38127 0.0293,-1.05583 0,-0.67457 -0.32262,-1.29047 -0.32261,-0.64523 -1.7304,-0.64523 z"
             style="font-style:italic;font-size:29.3288px;line-height:1.25;-inkscape-font-specification:'Caladea Italic'"
             id="path1362" />
          <path
             d="m -478.12574,166.97113 q 0,4.39932 -2.19966,8.3587 -2.17033,3.93006 -6.18838,6.80429 l -0.76255,-0.82121 q 3.22617,-2.87422 4.95657,-6.80428 1.75973,-3.95939 1.75973,-8.50535 0,-4.54597 -2.81557,-8.18274 l 0.82121,-0.76255 q 0.17597,0.14665 0.46926,0.4106 0.32262,0.23463 1.08517,1.17316 0.76255,0.90919 1.31979,1.96503 0.58658,1.05583 1.05584,2.78623 0.49859,1.70107 0.49859,3.57812 z"
             style="font-style:italic;font-size:29.3288px;line-height:1.25;-inkscape-font-specification:'Caladea Italic'"
             id="path1364" />
        </g>
        <path
           inkscape:connector-curvature="0"
           id="path3794-3"
           d="m -493.77893,188.17374 h 54.13553"
           style="fill:none;stroke:#000000;stroke-width:2.59687;stroke-linecap:butt;stroke-linejoin:miter;stroke-miterlimit:4;stroke-dasharray:none;stroke-opacity:1;marker-end:url(#Arrow1Mend-367)" />
        <g
           aria-label="Y(s)"
           id="text3778-5-3-9"
           style="font-size:12px;line-height:0%;font-family:Caladea;-inkscape-font-specification:Caladea;text-align:center;letter-spacing:0px;word-spacing:0px;text-anchor:middle">
          <path
             d="m 432.80197,199.22678 0.14664,-1.08517 q 1.9357,-0.23463 2.78624,-0.76255 l 0.93852,-6.12972 -3.22617,-9.94246 q -0.90919,-0.43993 -1.81839,-0.55725 l 0.14665,-1.08516 h 7.1269 l -0.14665,1.08516 q -1.46644,0.2053 -2.3463,0.67456 l 2.28765,7.62549 4.57529,-7.5375 q -0.93852,-0.55725 -2.49295,-0.76255 l 0.14664,-1.08516 h 6.83361 l -0.14664,1.08516 q -1.49577,0.2053 -2.37563,0.70389 l -5.89509,9.41455 -1.02651,6.51099 q 0.87987,0.49859 2.93288,0.76255 l -0.11731,1.08517 z"
             style="font-style:italic;font-size:29.3288px;line-height:1.25;-inkscape-font-specification:'Caladea Italic'"
             id="path1349" />
          <path
             d="m 448.69813,193.56632 q 0,-4.45798 2.141,-8.32938 2.141,-3.8714 6.24704,-6.83361 l 0.76255,0.8212 q -3.2555,2.93288 -4.9859,6.86294 -1.7304,3.90073 -1.7304,8.47603 0,4.57529 2.81556,8.1534 l -0.8212,0.76255 q -0.17597,-0.14664 -0.49859,-0.4106 -0.29329,-0.23463 -1.05584,-1.17315 -0.76255,-0.9092 -1.34912,-1.96503 -0.55725,-1.05584 -1.05584,-2.75691 -0.46926,-1.7304 -0.46926,-3.60744 z"
             style="font-style:italic;font-size:29.3288px;line-height:1.25;-inkscape-font-specification:'Caladea Italic'"
             id="path1351" />
          <path
             d="m 463.59715,186.58606 q -0.70389,0 -1.31979,0.46926 -0.61591,0.46926 -0.61591,1.3198 0,0.85054 0.52792,1.46644 0.52792,0.6159 1.61308,1.5251 1.1145,0.87986 1.75973,1.70107 0.67456,0.8212 0.67456,1.81838 0,2.17033 -1.49577,3.37282 -1.49576,1.17315 -3.54878,1.17315 -2.02369,0 -3.8714,-1.23181 l 0.87986,-3.54879 1.20248,0.2053 q -0.0587,0.58658 -0.0587,1.3198 0,0.73322 0.52791,1.29047 0.55725,0.55725 1.96503,0.55725 0.64524,0 1.29047,-0.46927 0.64523,-0.46926 0.64523,-1.49576 0,-0.49859 -0.2053,-0.76255 -0.17597,-0.26396 -0.29329,-0.41061 -0.088,-0.14664 -0.35194,-0.38127 -0.26396,-0.26396 -0.38128,-0.38128 -0.52791,-0.52791 -1.08516,-0.96785 -0.52792,-0.43993 -0.96785,-0.87986 -0.4106,-0.46926 -0.79188,-1.23181 -0.38127,-0.79188 -0.38127,-1.61308 0,-2.02369 1.37845,-3.07953 1.37845,-1.08516 3.31415,-1.08516 1.93571,0 3.75409,0.99718 l -0.96785,3.31415 h -1.17315 q 0.0293,-0.38127 0.0293,-1.05584 0,-0.67456 -0.32262,-1.29046 -0.32262,-0.64524 -1.7304,-0.64524 z"
             style="font-style:italic;font-size:29.3288px;line-height:1.25;-inkscape-font-specification:'Caladea Italic'"
             id="path1353" />
          <path
             d="m 476.6778,188.31646 q 0,4.39932 -2.19966,8.35871 -2.17033,3.93006 -6.18838,6.80428 l -0.76255,-0.8212 q 3.22617,-2.87423 4.95657,-6.80429 1.75973,-3.95938 1.75973,-8.50535 0,-4.54596 -2.81557,-8.18273 l 0.82121,-0.76255 q 0.17597,0.14664 0.46926,0.4106 0.32262,0.23463 1.08516,1.17315 0.76255,0.9092 1.3198,1.96503 0.58658,1.05584 1.05584,2.78624 0.49859,1.70107 0.49859,3.57811 z"
             style="font-style:italic;font-size:29.3288px;line-height:1.25;-inkscape-font-specification:'Caladea Italic'"
             id="path1355" />
        </g>
        <path
           inkscape:connector-curvature="0"
           id="path3794"
           d="m -343.77544,188.83487 h 44.2942"
           style="fill:none;stroke:#000000;stroke-width:2.59687;stroke-linecap:butt;stroke-linejoin:miter;stroke-miterlimit:4;stroke-dasharray:none;stroke-opacity:1;marker-end:url(#Arrow1Mend)" />
        <path
           id="path880"
           style="fill:#ffffff;stroke:#000000;stroke-width:2.59687;stroke-linecap:round;stroke-linejoin:round"
           d="m -343.03527,188.17374 a 9.1749678,9.1749668 0 0 1 -9.17497,9.17496 9.1749678,9.1749668 0 0 1 -9.17496,-9.17496 9.1749678,9.1749668 0 0 1 9.17496,-9.17497 9.1749678,9.1749668 0 0 1 9.17497,9.17497 z" />
        <g
           aria-label="+"
           id="text1232"
           style="font-size:27.5px;line-height:1.25;font-family:Caladea;-inkscape-font-specification:Caladea;text-align:center;letter-spacing:0px;word-spacing:0px;text-anchor:middle;stroke-width:0.9375">
          <path
             d="m -357.8245,188.91623 v -1.4575 h 4.73 v -4.895 h 1.65 v 4.895 h 4.8675 v 1.4575 h -4.8675 v 4.8675 h -1.65 v -4.8675 z"
             id="path1345" />
        </g>
        <path
           inkscape:connector-curvature="0"
           id="path3794-9-8"
           d="m 368.59072,189.19366 h 54.13553"
           style="fill:none;stroke:#000000;stroke-width:2.59687;stroke-linecap:butt;stroke-linejoin:miter;stroke-miterlimit:4;stroke-dasharray:none;stroke-opacity:1;marker-end:url(#Arrow1Mend-91-2)" />
        <path
           id="path880-6-9"
           style="fill:#ffffff;stroke:#000000;stroke-width:2.59687;stroke-linecap:round;stroke-linejoin:round"
           d="m 369.99201,189.19363 a 9.1749678,9.1749668 0 0 1 -9.17496,9.17497 9.1749678,9.1749668 0 0 1 -9.17497,-9.17497 9.1749678,9.1749668 0 0 1 9.17497,-9.17496 9.1749678,9.1749668 0 0 1 9.17496,9.17496 z" />
        <g
           aria-label="+"
           id="text1232-0-2"
           style="font-size:27.5px;line-height:1.25;font-family:Caladea;-inkscape-font-specification:Caladea;text-align:center;letter-spacing:0px;word-spacing:0px;text-anchor:middle;stroke-width:0.9375">
          <path
             d="m 355.20275,189.93614 v -1.4575 h 4.73 v -4.895 h 1.65 v 4.895 h 4.8675 v 1.4575 h -4.8675 v 4.8675 h -1.65 v -4.8675 z"
             id="path1341" />
        </g>
        <g
           aria-label="X4(s)"
           id="text3778-5-2"
           style="font-size:12px;line-height:0%;font-family:Caladea;-inkscape-font-specification:Caladea;text-align:center;letter-spacing:0px;word-spacing:0px;text-anchor:middle">
          <path
             d="m -332.17595,153.44426 q -0.99718,0 -1.43712,-0.38127 -0.43993,-0.41061 -0.90919,-1.55443 l -2.5516,-6.33502 -4.69261,6.42301 q 0.96785,0.55724 2.63959,0.76254 l -0.11731,1.08517 h -6.98026 l 0.17597,-1.08517 q 1.58376,-0.2053 2.37564,-0.70389 l 5.95374,-8.06542 -2.90355,-7.27354 q -0.52792,-1.3198 -2.31697,-1.34912 l 0.14664,-1.08517 h 3.02087 q 0.67456,0 0.85053,0.17597 l 0.23463,0.23463 q 0.0587,0.0587 0.14665,0.29329 0.11731,0.2053 0.17597,0.32262 0.0587,0.11731 0.17597,0.43993 0.11732,0.32262 0.2053,0.49859 l 2.28765,5.63113 3.78342,-5.74845 q -0.96786,-0.58657 -2.52228,-0.76254 l 0.14664,-1.08517 h 6.80428 l -0.14664,1.08517 q -1.40778,0.17597 -2.3463,0.70389 l -5.07389,7.42018 3.22617,7.91878 q 0.29329,0.6159 0.76255,0.90919 0.46926,0.29329 1.61308,0.41061 l -0.17597,1.11449 z"
             style="font-style:italic;font-size:29.3288px;line-height:1.25;-inkscape-font-specification:'Caladea Italic'"
             id="path1330" />
          <path
             d="m -322.71014,155.82136 h -5.49035 l -0.0381,-0.64817 6.74856,-8.57867 h 1.92544 l -1.29634,8.17833 h 1.81106 l -0.17158,1.04851 h -1.81105 l -0.36221,2.26858 q 0.51472,0.36221 1.58229,0.51472 l -0.2097,0.70536 h -5.10908 l 0.22876,-0.70536 q 1.12476,-0.13344 1.83012,-0.51472 z m -3.94619,-1.04851 h 4.11777 l 1.0485,-6.63417 z"
             style="font-size:65%;baseline-shift:sub"
             id="path1332" />
          <path
             d="m -316.00998,147.7838 q 0,-4.45798 2.14101,-8.32938 2.141,-3.8714 6.24703,-6.83361 l 0.76255,0.82121 q -3.2555,2.93288 -4.9859,6.86294 -1.7304,3.90073 -1.7304,8.47602 0,4.57529 2.81557,8.15341 l -0.82121,0.76255 q -0.17597,-0.14665 -0.49859,-0.41061 -0.29328,-0.23463 -1.05583,-1.17315 -0.76255,-0.90919 -1.34913,-1.96503 -0.55725,-1.05584 -1.05584,-2.75691 -0.46926,-1.7304 -0.46926,-3.60744 z"
             style="font-style:italic;font-size:29.3288px;line-height:1.25;-inkscape-font-specification:'Caladea Italic'"
             id="path1334" />
          <path
             d="m -301.11095,140.80355 q -0.70389,0 -1.3198,0.46926 -0.6159,0.46926 -0.6159,1.31979 0,0.85054 0.52792,1.46644 0.52791,0.61591 1.61308,1.5251 1.11449,0.87987 1.75973,1.70107 0.67456,0.82121 0.67456,1.81839 0,2.17033 -1.49577,3.37281 -1.49577,1.17315 -3.54878,1.17315 -2.02369,0 -3.87141,-1.23181 l 0.87987,-3.54878 1.20248,0.2053 q -0.0587,0.58657 -0.0587,1.31979 0,0.73322 0.52792,1.29047 0.55725,0.55725 1.96503,0.55725 0.64523,0 1.29047,-0.46926 0.64523,-0.46926 0.64523,-1.49577 0,-0.49859 -0.2053,-0.76255 -0.17597,-0.26396 -0.29329,-0.4106 -0.088,-0.14665 -0.35194,-0.38128 -0.26396,-0.26396 -0.38128,-0.38127 -0.52792,-0.52792 -1.08516,-0.96785 -0.52792,-0.43993 -0.96786,-0.87987 -0.4106,-0.46926 -0.79187,-1.23181 -0.38128,-0.79187 -0.38128,-1.61308 0,-2.02369 1.37846,-3.07952 1.37845,-1.08517 3.31415,-1.08517 1.9357,0 3.75409,0.99718 l -0.96785,3.31415 h -1.17316 q 0.0293,-0.38127 0.0293,-1.05583 0,-0.67456 -0.32261,-1.29047 -0.32262,-0.64523 -1.7304,-0.64523 z"
             style="font-style:italic;font-size:29.3288px;line-height:1.25;-inkscape-font-specification:'Caladea Italic'"
             id="path1336" />
          <path
             d="m -288.03031,142.53395 q 0,4.39932 -2.19966,8.3587 -2.17033,3.93006 -6.18838,6.80429 l -0.76255,-0.82121 q 3.22617,-2.87422 4.95657,-6.80428 1.75973,-3.95939 1.75973,-8.50535 0,-4.54597 -2.81557,-8.18274 l 0.82121,-0.76255 q 0.17597,0.14665 0.46926,0.4106 0.32262,0.23464 1.08517,1.17316 0.76255,0.90919 1.31979,1.96503 0.58658,1.05583 1.05584,2.78623 0.49859,1.70107 0.49859,3.57812 z"
             style="font-style:italic;font-size:29.3288px;line-height:1.25;-inkscape-font-specification:'Caladea Italic'"
             id="path1338" />
        </g>
        <path
           id="path1023"
           style="fill:#002b00;stroke:#000000;stroke-width:2.59687;stroke-linecap:round;stroke-linejoin:round"
           d="m -318.07297,125.7534 a 3.4015772,3.4015772 0 0 1 -3.40158,3.40158 3.4015772,3.4015772 0 0 1 -3.40158,-3.40158 3.4015772,3.4015772 0 0 1 3.40158,-3.40157 3.4015772,3.4015772 0 0 1 3.40158,3.40157 z" />
        <g
           aria-label="s"
           id="text1029"
           style="font-size:27.5px;line-height:1.25;font-family:Caladea;-inkscape-font-specification:Caladea;text-align:center;letter-spacing:0px;word-spacing:0px;text-anchor:middle;stroke-width:0.9375">
          <path
             d="m -282.3406,197.74024 q -0.66,0 -1.2375,0.44 -0.5775,0.44 -0.5775,1.2375 0,0.7975 0.495,1.375 0.495,0.5775 1.5125,1.43 1.045,0.825 1.65,1.595 0.6325,0.77 0.6325,1.705 0,2.035 -1.4025,3.1625 -1.4025,1.1 -3.3275,1.1 -1.8975,0 -3.63,-1.155 l 0.825,-3.3275 1.1275,0.1925 q -0.055,0.55 -0.055,1.2375 0,0.6875 0.495,1.21 0.5225,0.5225 1.8425,0.5225 0.605,0 1.21,-0.44 0.605,-0.44 0.605,-1.4025 0,-0.4675 -0.1925,-0.715 -0.165,-0.2475 -0.275,-0.385 -0.0825,-0.1375 -0.33,-0.3575 -0.2475,-0.2475 -0.3575,-0.3575 -0.495,-0.495 -1.0175,-0.9075 -0.495,-0.4125 -0.9075,-0.825 -0.385,-0.44 -0.7425,-1.155 -0.3575,-0.7425 -0.3575,-1.5125 0,-1.8975 1.2925,-2.8875 1.2925,-1.0175 3.1075,-1.0175 1.815,0 3.52,0.935 l -0.9075,3.1075 h -1.1 q 0.0275,-0.3575 0.0275,-0.99 0,-0.6325 -0.3025,-1.21 -0.3025,-0.605 -1.6225,-0.605 z"
             style="font-style:italic;-inkscape-font-specification:'Caladea Italic'"
             id="path1326" />
        </g>
        <g
           aria-label="1"
           id="text1033"
           style="font-size:27.5px;line-height:1.25;font-family:Caladea;-inkscape-font-specification:Caladea;text-align:center;letter-spacing:0px;word-spacing:0px;text-anchor:middle;stroke-width:0.9375">
          <path
             d="m -282.95613,170.61863 h -3.685 v -1.1825 q 2.7775,-0.2475 5.1975,-1.54 l 0.9075,0.4125 v 16.28 q 0.9075,0.495 3.4375,0.825 l -0.0825,0.935 h -9.57 l 0.055,-0.935 q 2.4475,-0.275 3.74,-0.825 z"
             id="path1323" />
        </g>
        <path
           inkscape:connector-curvature="0"
           id="path1035"
           d="m -290.10624,192.58487 h 14.74016"
           style="fill:none;stroke:#000000;stroke-width:1.40625;stroke-linecap:butt;stroke-linejoin:miter;stroke-miterlimit:4;stroke-dasharray:none;stroke-opacity:1" />
        <path
           inkscape:connector-curvature="0"
           id="rect1044"
           d="m -295.76511,160.88288 h 26.99056 v 55.90396 h -26.99056 z"
           style="fill:none;fill-opacity:1;stroke:#000000;stroke-width:2.59687;stroke-linecap:round;stroke-linejoin:round;stroke-miterlimit:4;stroke-dasharray:none;stroke-dashoffset:0;stroke-opacity:1" />
        <path
           inkscape:connector-curvature="0"
           id="path3794-91"
           d="m -268.91568,188.83487 h 113.04174"
           style="fill:none;stroke:#000000;stroke-width:2.59687;stroke-linecap:butt;stroke-linejoin:miter;stroke-miterlimit:4;stroke-dasharray:none;stroke-opacity:1;marker-end:url(#Arrow1Mend-367535)" />
        <g
           aria-label="X4(s)"
           id="text3778-5-2-27"
           style="font-size:12px;line-height:0%;font-family:Caladea;-inkscape-font-specification:Caladea;text-align:center;letter-spacing:0px;word-spacing:0px;text-anchor:middle">
          <path
             d="m -253.62486,153.44426 q -0.99718,0 -1.43711,-0.38127 -0.43994,-0.41061 -0.9092,-1.55443 l -2.5516,-6.33502 -4.69261,6.42301 q 0.96785,0.55724 2.63959,0.76254 l -0.11731,1.08517 h -6.98026 l 0.17597,-1.08517 q 1.58376,-0.2053 2.37564,-0.70389 l 5.95374,-8.06542 -2.90355,-7.27354 q -0.52792,-1.3198 -2.31697,-1.34912 l 0.14664,-1.08517 h 3.02087 q 0.67456,0 0.85053,0.17597 l 0.23463,0.23463 q 0.0587,0.0587 0.14665,0.29329 0.11731,0.2053 0.17597,0.32262 0.0587,0.11731 0.17597,0.43993 0.11732,0.32262 0.2053,0.49859 l 2.28765,5.63113 3.78342,-5.74845 q -0.96785,-0.58657 -2.52228,-0.76254 l 0.14664,-1.08517 h 6.80429 l -0.14665,1.08517 q -1.40778,0.17597 -2.3463,0.70389 l -5.07389,7.42018 3.22617,7.91878 q 0.29329,0.6159 0.76255,0.90919 0.46926,0.29329 1.61309,0.41061 l -0.17598,1.11449 z"
             style="font-style:italic;font-size:29.3288px;line-height:1.25;-inkscape-font-specification:'Caladea Italic'"
             id="path1312" />
          <path
             d="m -244.15905,155.82136 h -5.49035 l -0.0381,-0.64816 6.74855,-8.57867 h 1.92544 l -1.29633,8.17833 h 1.81105 l -0.17158,1.0485 h -1.81105 l -0.36221,2.26858 q 0.51472,0.36221 1.58229,0.51472 l -0.2097,0.70536 h -5.10907 l 0.22876,-0.70536 q 1.12476,-0.13344 1.83012,-0.51472 z m -3.94619,-1.0485 h 4.11776 l 1.0485,-6.63417 z"
             style="font-size:19.0637px;baseline-shift:sub"
             id="path1314" />
          <path
             d="m -237.45889,147.7838 q 0,-4.45798 2.141,-8.32938 2.141,-3.8714 6.24703,-6.83361 l 0.76255,0.82121 q -3.2555,2.93288 -4.98589,6.86294 -1.7304,3.90073 -1.7304,8.47602 0,4.57529 2.81556,8.15341 l -0.82121,0.76255 q -0.17597,-0.14665 -0.49858,-0.41061 -0.29329,-0.23463 -1.05584,-1.17315 -0.76255,-0.90919 -1.34913,-1.96503 -0.55724,-1.05584 -1.05583,-2.75691 -0.46926,-1.7304 -0.46926,-3.60744 z"
             style="font-style:italic;font-size:29.3288px;line-height:1.25;-inkscape-font-specification:'Caladea Italic'"
             id="path1316" />
          <path
             d="m -222.55987,140.80355 q -0.70389,0 -1.3198,0.46926 -0.6159,0.46926 -0.6159,1.31979 0,0.85054 0.52792,1.46644 0.52791,0.61591 1.61308,1.5251 1.11449,0.87987 1.75973,1.70107 0.67456,0.82121 0.67456,1.81839 0,2.17033 -1.49577,3.37281 -1.49577,1.17315 -3.54878,1.17315 -2.02369,0 -3.87141,-1.23181 l 0.87987,-3.54878 1.20248,0.2053 q -0.0587,0.58657 -0.0587,1.31979 0,0.73322 0.52792,1.29047 0.55725,0.55725 1.96503,0.55725 0.64523,0 1.29047,-0.46926 0.64523,-0.46926 0.64523,-1.49577 0,-0.49859 -0.2053,-0.76255 -0.17597,-0.26396 -0.29329,-0.4106 -0.088,-0.14665 -0.35194,-0.38128 -0.26396,-0.26396 -0.38128,-0.38127 -0.52792,-0.52792 -1.08516,-0.96785 -0.52792,-0.43993 -0.96786,-0.87987 -0.4106,-0.46926 -0.79187,-1.23181 -0.38128,-0.79187 -0.38128,-1.61308 0,-2.02369 1.37846,-3.07952 1.37845,-1.08517 3.31415,-1.08517 1.9357,0 3.75409,0.99718 l -0.96785,3.31415 h -1.17316 q 0.0293,-0.38127 0.0293,-1.05583 0,-0.67456 -0.32261,-1.29047 -0.32262,-0.64523 -1.7304,-0.64523 z"
             style="font-style:italic;font-size:29.3288px;line-height:1.25;-inkscape-font-specification:'Caladea Italic'"
             id="path1318" />
          <path
             d="m -209.47923,142.53395 q 0,4.39932 -2.19966,8.3587 -2.17033,3.93006 -6.18837,6.80429 l -0.76255,-0.82121 q 3.22617,-2.87422 4.95656,-6.80428 1.75973,-3.95939 1.75973,-8.50535 0,-4.54597 -2.81556,-8.18274 l 0.8212,-0.76255 q 0.17598,0.14665 0.46926,0.4106 0.32262,0.23464 1.08517,1.17316 0.76255,0.90919 1.3198,1.96503 0.58657,1.05583 1.05583,2.78623 0.49859,1.70107 0.49859,3.57812 z"
             style="font-style:italic;font-size:29.3288px;line-height:1.25;-inkscape-font-specification:'Caladea Italic'"
             id="path1320" />
        </g>
        <g
           aria-label="X3(s)"
           id="text3778-5-2-6"
           style="font-size:12px;line-height:0%;font-family:Caladea;-inkscape-font-specification:Caladea;text-align:center;letter-spacing:0px;word-spacing:0px;text-anchor:middle">
          <path
             d="m -186.12485,153.64249 q -0.99718,0 -1.43711,-0.38128 -0.43993,-0.4106 -0.90919,-1.55442 l -2.55161,-6.33503 -4.69261,6.42301 q 0.96786,0.55725 2.6396,0.76255 l -0.11732,1.08517 h -6.98025 l 0.17597,-1.08517 q 1.58376,-0.2053 2.37563,-0.70389 l 5.95375,-8.06542 -2.90355,-7.27354 q -0.52792,-1.3198 -2.31698,-1.34913 l 0.14665,-1.08516 h 3.02086 q 0.67457,0 0.85054,0.17597 l 0.23463,0.23463 q 0.0587,0.0587 0.14664,0.29329 0.11732,0.2053 0.17598,0.32261 0.0587,0.11732 0.17597,0.43994 0.11731,0.32261 0.2053,0.49859 l 2.28765,5.63113 3.78341,-5.74845 q -0.96785,-0.58657 -2.52227,-0.76255 l 0.14664,-1.08516 h 6.80428 l -0.14664,1.08516 q -1.40779,0.17598 -2.34631,0.70389 l -5.07388,7.42019 3.22617,7.91878 q 0.29329,0.6159 0.76255,0.90919 0.46926,0.29329 1.61308,0.4106 l -0.17597,1.1145 z"
             style="font-style:italic;font-size:29.3288px;line-height:1.25;-inkscape-font-specification:'Caladea Italic'"
             id="path1301" />
          <path
             d="m -178.54634,152.47374 q 1.56322,-0.0381 2.47828,-0.87693 0.93412,-0.8388 0.93412,-2.34483 0,-1.50604 -1.46791,-1.50604 -0.80067,0 -1.41071,0.45753 -0.59097,0.43847 -0.59097,1.20102 0,0.28595 0.0763,0.53378 -0.4194,0.34315 -0.93412,0.34315 -0.80068,0 -0.80068,-0.91506 0,-1.20101 1.22008,-1.92544 1.22008,-0.72442 2.59266,-0.72442 1.39165,0 2.24952,0.66723 0.85787,0.66723 0.85787,1.88731 0,2.59266 -2.95488,3.60304 2.13514,0.57191 2.13514,2.47828 0,1.88731 -1.27727,3.08832 -1.27727,1.20101 -3.16457,1.20101 -1.46791,0 -2.44016,-0.53378 -0.95318,-0.53378 -0.95318,-1.63948 0,-0.66723 0.36221,-1.0485 0.36221,-0.38128 0.87693,-0.38128 0.51472,0 0.89599,0.30502 -0.30502,0.61004 -0.30502,1.12476 0,0.49566 0.45753,0.8388 0.45753,0.32409 1.33446,0.32409 1.14382,0 1.81105,-0.91506 0.68629,-0.91506 0.68629,-2.05888 0,-2.34484 -2.80236,-2.34484 z"
             style="font-size:19.0637px;baseline-shift:sub"
             id="path1303" />
          <path
             d="m -169.95888,147.98203 q 0,-4.45798 2.141,-8.32938 2.14101,-3.8714 6.24704,-6.83361 l 0.76255,0.8212 q -3.2555,2.93288 -4.9859,6.86294 -1.7304,3.90073 -1.7304,8.47603 0,4.57529 2.81557,8.1534 l -0.82121,0.76255 q -0.17597,-0.14664 -0.49859,-0.4106 -0.29329,-0.23463 -1.05584,-1.17315 -0.76255,-0.9092 -1.34912,-1.96503 -0.55725,-1.05584 -1.05584,-2.75691 -0.46926,-1.7304 -0.46926,-3.60744 z"
             style="font-style:italic;font-size:29.3288px;line-height:1.25;-inkscape-font-specification:'Caladea Italic'"
             id="path1305" />
          <path
             d="m -155.05986,141.00177 q -0.70389,0 -1.31979,0.46926 -0.61591,0.46927 -0.61591,1.3198 0,0.85054 0.52792,1.46644 0.52792,0.61591 1.61308,1.5251 1.1145,0.87986 1.75973,1.70107 0.67457,0.8212 0.67457,1.81838 0,2.17034 -1.49577,3.37282 -1.49577,1.17315 -3.54879,1.17315 -2.02369,0 -3.8714,-1.23181 l 0.87986,-3.54879 1.20248,0.20531 q -0.0587,0.58657 -0.0587,1.31979 0,0.73322 0.52792,1.29047 0.55724,0.55725 1.96502,0.55725 0.64524,0 1.29047,-0.46927 0.64524,-0.46926 0.64524,-1.49576 0,-0.49859 -0.20531,-0.76255 -0.17597,-0.26396 -0.29328,-0.41061 -0.088,-0.14664 -0.35195,-0.38127 -0.26396,-0.26396 -0.38127,-0.38127 -0.52792,-0.52792 -1.08517,-0.96786 -0.52792,-0.43993 -0.96785,-0.87986 -0.4106,-0.46926 -0.79188,-1.23181 -0.38127,-0.79188 -0.38127,-1.61308 0,-2.02369 1.37845,-3.07953 1.37846,-1.08516 3.31416,-1.08516 1.9357,0 3.75408,0.99718 l -0.96785,3.31415 h -1.17315 q 0.0293,-0.38127 0.0293,-1.05584 0,-0.67456 -0.32262,-1.29046 -0.32261,-0.64524 -1.7304,-0.64524 z"
             style="font-style:italic;font-size:29.3288px;line-height:1.25;-inkscape-font-specification:'Caladea Italic'"
             id="path1307" />
          <path
             d="m -141.97921,142.73217 q 0,4.39932 -2.19966,8.35871 -2.17033,3.93006 -6.18838,6.80428 l -0.76255,-0.8212 q 3.22617,-2.87423 4.95657,-6.80429 1.75973,-3.95938 1.75973,-8.50535 0,-4.54596 -2.81557,-8.18273 l 0.82121,-0.76255 q 0.17597,0.14664 0.46926,0.4106 0.32262,0.23463 1.08517,1.17315 0.76254,0.9092 1.31979,1.96503 0.58658,1.05584 1.05584,2.78624 0.49859,1.70107 0.49859,3.57811 z"
             style="font-style:italic;font-size:29.3288px;line-height:1.25;-inkscape-font-specification:'Caladea Italic'"
             id="path1309" />
        </g>
        <path
           id="path1023-6"
           style="fill:#002b00;stroke:#000000;stroke-width:2.59687;stroke-linecap:round;stroke-linejoin:round"
           d="m -172.02187,125.95163 a 3.401577,3.401577 0 0 1 -3.40158,3.40158 3.401577,3.401577 0 0 1 -3.40157,-3.40158 3.401577,3.401577 0 0 1 3.40157,-3.40158 3.401577,3.401577 0 0 1 3.40158,3.40158 z" />
        <g
           aria-label="s"
           id="text1029-9"
           style="font-size:27.5px;line-height:1.25;font-family:Caladea;-inkscape-font-specification:Caladea;text-align:center;letter-spacing:0px;word-spacing:0px;text-anchor:middle;stroke-width:0.9375">
          <path
             d="m -138.86717,197.74024 q -0.66,0 -1.2375,0.44 -0.5775,0.44 -0.5775,1.2375 0,0.7975 0.495,1.375 0.495,0.5775 1.5125,1.43 1.045,0.825 1.65,1.595 0.6325,0.77 0.6325,1.705 0,2.035 -1.4025,3.1625 -1.4025,1.1 -3.3275,1.1 -1.8975,0 -3.63,-1.155 l 0.825,-3.3275 1.1275,0.1925 q -0.055,0.55 -0.055,1.2375 0,0.6875 0.495,1.21 0.5225,0.5225 1.8425,0.5225 0.605,0 1.21,-0.44 0.605,-0.44 0.605,-1.4025 0,-0.4675 -0.1925,-0.715 -0.165,-0.2475 -0.275,-0.385 -0.0825,-0.1375 -0.33,-0.3575 -0.2475,-0.2475 -0.3575,-0.3575 -0.495,-0.495 -1.0175,-0.9075 -0.495,-0.4125 -0.9075,-0.825 -0.385,-0.44 -0.7425,-1.155 -0.3575,-0.7425 -0.3575,-1.5125 0,-1.8975 1.2925,-2.8875 1.2925,-1.0175 3.1075,-1.0175 1.815,0 3.52,0.935 l -0.9075,3.1075 h -1.1 q 0.0275,-0.3575 0.0275,-0.99 0,-0.6325 -0.3025,-1.21 -0.3025,-0.605 -1.6225,-0.605 z"
             style="font-style:italic;-inkscape-font-specification:'Caladea Italic'"
             id="path1297" />
        </g>
        <g
           aria-label="1"
           id="text1033-0"
           style="font-size:27.5px;line-height:1.25;font-family:Caladea;-inkscape-font-specification:Caladea;text-align:center;letter-spacing:0px;word-spacing:0px;text-anchor:middle;stroke-width:0.9375">
          <path
             d="m -139.4827,170.61863 h -3.685 v -1.1825 q 2.7775,-0.2475 5.1975,-1.54 l 0.9075,0.4125 v 16.28 q 0.9075,0.495 3.4375,0.825 l -0.0825,0.935 h -9.57 l 0.055,-0.935 q 2.4475,-0.275 3.74,-0.825 z"
             id="path1294" />
        </g>
        <path
           inkscape:connector-curvature="0"
           id="path1035-3"
           d="m -146.63281,192.58487 h 14.74016"
           style="fill:none;stroke:#000000;stroke-width:1.40625;stroke-linecap:butt;stroke-linejoin:miter;stroke-miterlimit:4;stroke-dasharray:none;stroke-opacity:1" />
        <path
           inkscape:connector-curvature="0"
           id="rect1044-7"
           d="m -152.29168,160.88288 h 26.99056 v 55.90396 h -26.99056 z"
           style="fill:none;fill-opacity:1;stroke:#000000;stroke-width:2.59687;stroke-linecap:round;stroke-linejoin:round;stroke-miterlimit:4;stroke-dasharray:none;stroke-dashoffset:0;stroke-opacity:1" />
        <path
           inkscape:connector-curvature="0"
           id="path3794-91-5"
           d="M -125.44225,188.83487 H -12.40051"
           style="fill:none;stroke:#000000;stroke-width:2.59687;stroke-linecap:butt;stroke-linejoin:miter;stroke-miterlimit:4;stroke-dasharray:none;stroke-opacity:1;marker-end:url(#Arrow1Mend-367535-1)" />
        <g
           aria-label="X3(s)"
           id="text3778-5-2-27-9"
           style="font-size:12px;line-height:0%;font-family:Caladea;-inkscape-font-specification:Caladea;text-align:center;letter-spacing:0px;word-spacing:0px;text-anchor:middle">
          <path
             d="m -110.15144,153.44426 q -0.99718,0 -1.43711,-0.38127 -0.43993,-0.41061 -0.90919,-1.55443 l -2.55161,-6.33502 -4.6926,6.42301 q 0.96785,0.55724 2.63959,0.76254 l -0.11732,1.08517 h -6.98025 l 0.17597,-1.08517 q 1.58376,-0.2053 2.37563,-0.70389 l 5.95375,-8.06542 -2.90355,-7.27354 q -0.52792,-1.3198 -2.31698,-1.34912 l 0.14665,-1.08517 h 3.02086 q 0.67457,0 0.85054,0.17597 l 0.23463,0.23463 q 0.0587,0.0587 0.14664,0.29329 0.11732,0.2053 0.17598,0.32262 0.0587,0.11731 0.17597,0.43993 0.11732,0.32262 0.2053,0.49859 l 2.28765,5.63113 3.78341,-5.74845 q -0.96785,-0.58657 -2.52227,-0.76254 l 0.14664,-1.08517 h 6.80428 l -0.14664,1.08517 q -1.40778,0.17597 -2.34631,0.70389 l -5.07388,7.42018 3.22617,7.91878 q 0.29329,0.6159 0.76255,0.90919 0.46926,0.29329 1.61308,0.41061 l -0.17597,1.11449 z"
             style="font-style:italic;font-size:29.3288px;line-height:1.25;-inkscape-font-specification:'Caladea Italic'"
             id="path1283" />
          <path
             d="m -102.57293,152.27551 q 1.56322,-0.0381 2.47828,-0.87693 0.93412,-0.8388 0.93412,-2.34483 0,-1.50603 -1.4679,-1.50603 -0.80068,0 -1.41072,0.45753 -0.59097,0.43846 -0.59097,1.20101 0,0.28595 0.0763,0.53378 -0.4194,0.34315 -0.93412,0.34315 -0.80068,0 -0.80068,-0.91506 0,-1.20101 1.22008,-1.92543 1.22008,-0.72442 2.59266,-0.72442 1.391655,0 2.249521,0.66723 0.857867,0.66723 0.857867,1.8873 0,2.59267 -2.954878,3.60304 2.135139,0.57191 2.135139,2.47828 0,1.88731 -1.277268,3.08832 -1.277271,1.20102 -3.164571,1.20102 -1.46791,0 -2.44016,-0.53379 -0.95318,-0.53378 -0.95318,-1.63948 0,-0.66723 0.36221,-1.0485 0.36221,-0.38127 0.87693,-0.38127 0.51472,0 0.89599,0.30502 -0.30502,0.61003 -0.30502,1.12475 0,0.49566 0.45753,0.83881 0.45753,0.32408 1.33446,0.32408 1.14382,0 1.81105,-0.91506 0.686296,-0.91506 0.686296,-2.05888 0,-2.34483 -2.802366,-2.34483 z"
             style="font-size:19.0637px;baseline-shift:sub"
             id="path1285" />
          <path
             d="m -93.985467,147.7838 q 0,-4.45798 2.141002,-8.32938 2.141003,-3.8714 6.247035,-6.83361 l 0.762548,0.82121 q -3.255496,2.93288 -4.985896,6.86294 -1.730399,3.90073 -1.730399,8.47602 0,4.57529 2.815565,8.15341 l -0.821206,0.76255 q -0.175973,-0.14665 -0.49859,-0.41061 -0.293288,-0.23463 -1.055837,-1.17315 -0.762549,-0.90919 -1.349125,-1.96503 -0.557247,-1.05584 -1.055837,-2.75691 -0.46926,-1.7304 -0.46926,-3.60744 z"
             style="font-style:italic;font-size:29.3288px;line-height:1.25;-inkscape-font-specification:'Caladea Italic'"
             id="path1287" />
          <path
             d="m -79.086445,140.80355 q -0.703892,0 -1.319796,0.46926 -0.615905,0.46926 -0.615905,1.31979 0,0.85054 0.527918,1.46644 0.527919,0.61591 1.613084,1.5251 1.114495,0.87987 1.759728,1.70107 0.674563,0.82121 0.674563,1.81839 0,2.17033 -1.495769,3.37281 -1.495769,1.17315 -3.548785,1.17315 -2.023687,0 -3.871402,-1.23181 l 0.879864,-3.54878 1.202481,0.2053 q -0.05866,0.58657 -0.05866,1.31979 0,0.73322 0.527918,1.29047 0.557247,0.55725 1.96503,0.55725 0.645233,0 1.290467,-0.46926 0.645233,-0.46926 0.645233,-1.49577 0,-0.49859 -0.205301,-0.76255 -0.175973,-0.26396 -0.293288,-0.4106 -0.08799,-0.14665 -0.351946,-0.38128 -0.263959,-0.26396 -0.381274,-0.38127 -0.527919,-0.52792 -1.085166,-0.96785 -0.527918,-0.43993 -0.96785,-0.87987 -0.410603,-0.46926 -0.791878,-1.23181 -0.381274,-0.79187 -0.381274,-1.61308 0,-2.02369 1.378453,-3.07952 1.378454,-1.08517 3.314155,-1.08517 1.935701,0 3.754086,0.99718 l -0.96785,3.31415 h -1.173152 q 0.02933,-0.38127 0.02933,-1.05583 0,-0.67456 -0.322617,-1.29047 -0.322617,-0.64523 -1.730399,-0.64523 z"
             style="font-style:italic;font-size:29.3288px;line-height:1.25;-inkscape-font-specification:'Caladea Italic'"
             id="path1289" />
          <path
             d="m -66.0058,142.53395 q 0,4.39932 -2.19966,8.3587 -2.170332,3.93006 -6.188377,6.80429 l -0.762549,-0.82121 q 3.226168,-2.87422 4.956567,-6.80428 1.759728,-3.95939 1.759728,-8.50535 0,-4.54597 -2.815565,-8.18274 l 0.821207,-0.76255 q 0.175973,0.14665 0.469261,0.4106 0.322616,0.23464 1.085165,1.17316 0.762549,0.90919 1.319796,1.96503 0.586576,1.05583 1.055837,2.78623 0.49859,1.70107 0.49859,3.57812 z"
             style="font-style:italic;font-size:29.3288px;line-height:1.25;-inkscape-font-specification:'Caladea Italic'"
             id="path1291" />
        </g>
        <g
           aria-label="X2(s)"
           id="text3778-5-2-6-8"
           style="font-size:12px;line-height:0%;font-family:Caladea;-inkscape-font-specification:Caladea;text-align:center;letter-spacing:0px;word-spacing:0px;text-anchor:middle">
          <path
             d="m -42.651417,153.64249 q -0.997179,0 -1.437111,-0.38128 -0.439932,-0.4106 -0.909193,-1.55442 l -2.551605,-6.33503 -4.692608,6.42301 q 0.96785,0.55725 2.639592,0.76255 l -0.117316,1.08517 h -6.980254 l 0.175973,-1.08517 q 1.583755,-0.2053 2.375633,-0.70389 l 5.953746,-8.06542 -2.903551,-7.27354 q -0.527919,-1.3198 -2.316975,-1.34913 l 0.146644,-1.08516 h 3.020866 q 0.674562,0 0.850535,0.17597 l 0.234631,0.23463 q 0.05866,0.0587 0.146644,0.29329 0.117315,0.2053 0.175972,0.32261 0.05866,0.11732 0.175973,0.43994 0.117315,0.32261 0.205302,0.49859 l 2.287646,5.63113 3.783415,-5.74845 q -0.96785,-0.58657 -2.522276,-0.76255 l 0.146644,-1.08516 h 6.804281 l -0.146644,1.08516 q -1.407782,0.17598 -2.346304,0.70389 l -5.073882,7.42019 3.226168,7.91878 q 0.293288,0.6159 0.762549,0.90919 0.46926,0.29329 1.613084,0.4106 l -0.175973,1.1145 z"
             style="font-style:italic;font-size:29.3288px;line-height:1.25;-inkscape-font-specification:'Caladea Italic'"
             id="path1272" />
          <path
             d="m -31.279237,149.34729 q 0,-0.76254 -0.457529,-1.18194 -0.438465,-0.43847 -1.277267,-0.43847 -0.819739,0 -1.429778,0.55285 -0.610038,0.53378 -0.610038,1.33446 0,0.45753 0.247828,0.8388 -0.476593,0.4194 -0.953185,0.4194 -1.048504,0 -1.048504,-1.0485 0,-1.3154 1.201013,-2.21139 1.220077,-0.896 2.745173,-0.896 1.54416,0 2.42109,0.76255 0.87693,0.76255 0.87693,2.13514 0,1.83011 -1.486968,3.77461 -1.467905,1.9445 -5.109072,4.7278 h 5.776301 l -0.190637,1.39165 h -7.816117 l 0.171574,-1.08663 q 4.003377,-3.35522 5.471281,-5.29971 1.467905,-1.96356 1.467905,-3.77462 z"
             style="font-size:19.0637px;baseline-shift:sub"
             id="path1274" />
          <path
             d="m -26.485448,147.98203 q 0,-4.45798 2.141002,-8.32938 2.141003,-3.8714 6.247035,-6.83361 l 0.762548,0.8212 q -3.255496,2.93288 -4.985896,6.86294 -1.730399,3.90073 -1.730399,8.47603 0,4.57529 2.815565,8.1534 l -0.821206,0.76255 q -0.175973,-0.14664 -0.49859,-0.4106 -0.293288,-0.23463 -1.055837,-1.17315 -0.762549,-0.9092 -1.349125,-1.96503 -0.557247,-1.05584 -1.055836,-2.75691 -0.469261,-1.7304 -0.469261,-3.60744 z"
             style="font-style:italic;font-size:29.3288px;line-height:1.25;-inkscape-font-specification:'Caladea Italic'"
             id="path1276" />
          <path
             d="m -11.586426,141.00177 q -0.703892,0 -1.319796,0.46926 -0.615905,0.46927 -0.615905,1.3198 0,0.85054 0.527918,1.46644 0.527919,0.61591 1.613084,1.5251 1.114495,0.87986 1.7597282,1.70107 0.6745624,0.8212 0.6745624,1.81838 0,2.17034 -1.4957686,3.37282 -1.495769,1.17315 -3.548785,1.17315 -2.023687,0 -3.871402,-1.23181 l 0.879864,-3.54879 1.202481,0.20531 q -0.05866,0.58657 -0.05866,1.31979 0,0.73322 0.527918,1.29047 0.557247,0.55725 1.96503,0.55725 0.645233,0 1.290467,-0.46927 0.645233,-0.46926 0.645233,-1.49576 0,-0.49859 -0.205301,-0.76255 -0.175973,-0.26396 -0.293288,-0.41061 -0.08799,-0.14664 -0.351946,-0.38127 -0.263959,-0.26396 -0.381274,-0.38127 -0.527919,-0.52792 -1.085166,-0.96786 -0.527918,-0.43993 -0.96785,-0.87986 -0.410603,-0.46926 -0.791878,-1.23181 -0.381274,-0.79188 -0.381274,-1.61308 0,-2.02369 1.378453,-3.07953 1.378454,-1.08516 3.314155,-1.08516 1.9357006,0 3.7540862,0.99718 l -0.9678504,3.31415 h -1.173152 q 0.029329,-0.38127 0.029329,-1.05584 0,-0.67456 -0.3226168,-1.29046 -0.322617,-0.64524 -1.730399,-0.64524 z"
             style="font-style:italic;font-size:29.3288px;line-height:1.25;-inkscape-font-specification:'Caladea Italic'"
             id="path1278" />
          <path
             d="m 1.4942187,142.73217 q 0,4.39932 -2.19966005,8.35871 -2.17033125,3.93006 -6.18837685,6.80428 l -0.7625488,-0.8212 q 3.226168,-2.87423 4.9565672,-6.80429 1.75972805,-3.95938 1.75972805,-8.50535 0,-4.54596 -2.81556485,-8.18273 l 0.8212064,-0.76255 q 0.1759728,0.14664 0.4692608,0.4106 0.3226168,0.23463 1.0851656,1.17315 0.76254885,0.9092 1.31979606,1.96503 0.586576,1.05584 1.0558368,2.78624 0.49858964,1.70107 0.49858964,3.57811 z"
             style="font-style:italic;font-size:29.3288px;line-height:1.25;-inkscape-font-specification:'Caladea Italic'"
             id="path1280" />
        </g>
        <path
           id="path1023-6-3"
           style="fill:#002b00;stroke:#000000;stroke-width:2.59687;stroke-linecap:round;stroke-linejoin:round"
           d="m -28.548439,125.95163 a 3.401577,3.401577 0 0 1 -3.401577,3.40158 3.401577,3.401577 0 0 1 -3.401577,-3.40158 3.401577,3.401577 0 0 1 3.401577,-3.40158 3.401577,3.401577 0 0 1 3.401577,3.40158 z" />
        <g
           aria-label="s"
           id="text1029-93"
           style="font-size:27.5px;line-height:1.25;font-family:Caladea;-inkscape-font-specification:Caladea;text-align:center;letter-spacing:0px;word-spacing:0px;text-anchor:middle;stroke-width:0.9375">
          <path
             d="m 4.4448598,197.74024 q -0.66,0 -1.2375,0.44 -0.5775,0.44 -0.5775,1.2375 0,0.7975 0.495,1.375 0.495,0.5775 1.5125,1.43 1.045,0.825 1.65,1.595 0.6325,0.77 0.6325,1.705 0,2.035 -1.4025,3.1625 -1.4025,1.1 -3.3275,1.1 -1.89749997,0 -3.63,-1.155 l 0.82500003,-3.3275 1.1275,0.1925 q -0.055,0.55 -0.055,1.2375 0,0.6875 0.495,1.21 0.52249997,0.5225 1.84249997,0.5225 0.605,0 1.21,-0.44 0.605,-0.44 0.605,-1.4025 0,-0.4675 -0.1925,-0.715 -0.165,-0.2475 -0.275,-0.385 -0.0825,-0.1375 -0.33,-0.3575 -0.2475,-0.2475 -0.3575,-0.3575 -0.495,-0.495 -1.0175,-0.9075 -0.495,-0.4125 -0.9075,-0.825 -0.385,-0.44 -0.74249997,-1.155 -0.3575,-0.7425 -0.3575,-1.5125 0,-1.8975 1.29249997,-2.8875 1.2925,-1.0175 3.1075,-1.0175 1.815,0 3.52,0.935 l -0.9075,3.1075 h -1.1 q 0.0275,-0.3575 0.0275,-0.99 0,-0.6325 -0.3025,-1.21 -0.3025,-0.605 -1.6225,-0.605 z"
             style="font-style:italic;-inkscape-font-specification:'Caladea Italic'"
             id="path1268" />
        </g>
        <g
           aria-label="1"
           id="text1033-4"
           style="font-size:27.5px;line-height:1.25;font-family:Caladea;-inkscape-font-specification:Caladea;text-align:center;letter-spacing:0px;word-spacing:0px;text-anchor:middle;stroke-width:0.9375">
          <path
             d="M 3.8293295,170.61863 H 0.14432945 v -1.1825 q 2.77750005,-0.2475 5.19750005,-1.54 l 0.9075,0.4125 v 16.28 q 0.9075,0.495 3.4375,0.825 l -0.0825,0.935 H 0.03432945 l 0.055,-0.935 q 2.44750005,-0.275 3.74000005,-0.825 z"
             id="path1265" />
        </g>
        <path
           inkscape:connector-curvature="0"
           id="path1035-4"
           d="M -3.32078,192.58487 H 11.41938"
           style="fill:none;stroke:#000000;stroke-width:1.40625;stroke-linecap:butt;stroke-linejoin:miter;stroke-miterlimit:4;stroke-dasharray:none;stroke-opacity:1" />
        <path
           inkscape:connector-curvature="0"
           id="rect1044-5"
           d="m -8.97965,160.88288 h 26.99056 v 55.90396 H -8.97965 Z"
           style="fill:none;fill-opacity:1;stroke:#000000;stroke-width:2.59687;stroke-linecap:round;stroke-linejoin:round;stroke-miterlimit:4;stroke-dasharray:none;stroke-dashoffset:0;stroke-opacity:1" />
        <path
           inkscape:connector-curvature="0"
           id="path3794-91-0"
           d="M 17.86978,188.83487 H 130.91152"
           style="fill:none;stroke:#000000;stroke-width:2.59687;stroke-linecap:butt;stroke-linejoin:miter;stroke-miterlimit:4;stroke-dasharray:none;stroke-opacity:1;marker-end:url(#Arrow1Mend-367535-6)" />
        <g
           aria-label="X2(s)"
           id="text3778-5-2-27-3"
           style="font-size:12px;line-height:0%;font-family:Caladea;-inkscape-font-specification:Caladea;text-align:center;letter-spacing:0px;word-spacing:0px;text-anchor:middle">
          <path
             d="m 33.160599,153.44426 q -0.997179,0 -1.437111,-0.38127 -0.439932,-0.41061 -0.909193,-1.55443 l -2.551606,-6.33502 -4.692608,6.42301 q 0.967851,0.55724 2.639592,0.76254 l -0.117315,1.08517 h -6.980254 l 0.175972,-1.08517 q 1.583756,-0.2053 2.375633,-0.70389 l 5.953747,-8.06542 -2.903552,-7.27354 q -0.527918,-1.3198 -2.316975,-1.34912 l 0.146644,-1.08517 h 3.020867 q 0.674562,0 0.850535,0.17597 l 0.23463,0.23463 q 0.05866,0.0587 0.146644,0.29329 0.117315,0.2053 0.175973,0.32262 0.05866,0.11731 0.175973,0.43993 0.117315,0.32262 0.205301,0.49859 l 2.287647,5.63113 3.783415,-5.74845 q -0.96785,-0.58657 -2.522277,-0.76254 l 0.146644,-1.08517 h 6.804282 l -0.146644,1.08517 q -1.407783,0.17597 -2.346304,0.70389 l -5.073883,7.42018 3.226168,7.91878 q 0.293288,0.6159 0.762549,0.90919 0.469261,0.29329 1.613084,0.41061 l -0.175973,1.11449 z"
             style="font-style:italic;font-size:29.3288px;line-height:1.25;-inkscape-font-specification:'Caladea Italic'"
             id="path1254" />
          <path
             d="m 44.532779,149.14907 q 0,-0.76255 -0.457529,-1.18195 -0.438465,-0.43847 -1.277268,-0.43847 -0.819739,0 -1.429777,0.55285 -0.610039,0.53378 -0.610039,1.33446 0,0.45753 0.247828,0.8388 -0.476592,0.4194 -0.953185,0.4194 -1.048503,0 -1.048503,-1.0485 0,-1.3154 1.201013,-2.21139 1.220077,-0.89599 2.745173,-0.89599 1.544159,0 2.42109,0.76254 0.87693,0.76255 0.87693,2.13514 0,1.83011 -1.486969,3.77461 -1.467905,1.9445 -5.109071,4.7278 h 5.776301 l -0.190637,1.39165 h -7.816117 l 0.171573,-1.08663 q 4.003377,-3.35521 5.471282,-5.29971 1.467905,-1.96356 1.467905,-3.77461 z"
             style="font-size:19.0637px;baseline-shift:sub"
             id="path1256" />
          <path
             d="m 49.326567,147.7838 q 0,-4.45798 2.141003,-8.32938 2.141002,-3.8714 6.247034,-6.83361 l 0.762549,0.82121 q -3.255497,2.93288 -4.985896,6.86294 -1.730399,3.90073 -1.730399,8.47602 0,4.57529 2.815565,8.15341 l -0.821207,0.76255 q -0.175973,-0.14665 -0.498589,-0.41061 -0.293288,-0.23463 -1.055837,-1.17315 -0.762549,-0.90919 -1.349125,-1.96503 -0.557247,-1.05584 -1.055837,-2.75691 -0.469261,-1.7304 -0.469261,-3.60744 z"
             style="font-style:italic;font-size:29.3288px;line-height:1.25;-inkscape-font-specification:'Caladea Italic'"
             id="path1258" />
          <path
             d="m 64.225589,140.80355 q -0.703891,0 -1.319796,0.46926 -0.615905,0.46926 -0.615905,1.31979 0,0.85054 0.527919,1.46644 0.527918,0.61591 1.613084,1.5251 1.114494,0.87987 1.759728,1.70107 0.674562,0.82121 0.674562,1.81839 0,2.17033 -1.495769,3.37281 -1.495768,1.17315 -3.548784,1.17315 -2.023688,0 -3.871402,-1.23181 l 0.879864,-3.54878 1.202481,0.2053 q -0.05866,0.58657 -0.05866,1.31979 0,0.73322 0.527919,1.29047 0.557247,0.55725 1.965029,0.55725 0.645234,0 1.290467,-0.46926 0.645234,-0.46926 0.645234,-1.49577 0,-0.49859 -0.205302,-0.76255 -0.175972,-0.26396 -0.293288,-0.4106 -0.08799,-0.14665 -0.351945,-0.38128 -0.263959,-0.26396 -0.381275,-0.38127 -0.527918,-0.52792 -1.085165,-0.96785 -0.527919,-0.43993 -0.967851,-0.87987 -0.410603,-0.46926 -0.791877,-1.23181 -0.381275,-0.79187 -0.381275,-1.61308 0,-2.02369 1.378454,-3.07952 1.378454,-1.08517 3.314154,-1.08517 1.935701,0 3.754087,0.99718 l -0.967851,3.31415 h -1.173152 q 0.02933,-0.38127 0.02933,-1.05583 0,-0.67456 -0.322617,-1.29047 -0.322616,-0.64523 -1.730399,-0.64523 z"
             style="font-style:italic;font-size:29.3288px;line-height:1.25;-inkscape-font-specification:'Caladea Italic'"
             id="path1260" />
          <path
             d="m 77.306234,142.53395 q 0,4.39932 -2.19966,8.3587 -2.170331,3.93006 -6.188377,6.80429 l -0.762548,-0.82121 q 3.226168,-2.87422 4.956567,-6.80428 1.759728,-3.95939 1.759728,-8.50535 0,-4.54597 -2.815565,-8.18274 l 0.821206,-0.76255 q 0.175973,0.14665 0.469261,0.4106 0.322617,0.23464 1.085166,1.17316 0.762549,0.90919 1.319796,1.96503 0.586576,1.05583 1.055837,2.78623 0.498589,1.70107 0.498589,3.57812 z"
             style="font-style:italic;font-size:29.3288px;line-height:1.25;-inkscape-font-specification:'Caladea Italic'"
             id="path1262" />
        </g>
        <g
           aria-label="X1(s)"
           id="text3778-5-2-6-0"
           style="font-size:12px;line-height:0%;font-family:Caladea;-inkscape-font-specification:Caladea;text-align:center;letter-spacing:0px;word-spacing:0px;text-anchor:middle">
          <path
             d="m 100.66061,153.64249 q -0.99718,0 -1.437112,-0.38128 -0.439932,-0.4106 -0.909193,-1.55442 l -2.551606,-6.33503 -4.692608,6.42301 q 0.967851,0.55725 2.639592,0.76255 l -0.117315,1.08517 h -6.980254 l 0.175973,-1.08517 q 1.583755,-0.2053 2.375632,-0.70389 l 5.953747,-8.06542 -2.903551,-7.27354 q -0.527919,-1.3198 -2.316976,-1.34913 l 0.146644,-1.08516 h 3.020867 q 0.674562,0 0.850535,0.17597 l 0.23463,0.23463 q 0.05866,0.0587 0.146644,0.29329 0.117316,0.2053 0.175973,0.32261 0.05866,0.11732 0.175973,0.43994 0.117315,0.32261 0.205302,0.49859 l 2.287646,5.63113 3.783417,-5.74845 q -0.967852,-0.58657 -2.522279,-0.76255 l 0.146644,-1.08516 h 6.804285 l -0.14665,1.08516 q -1.40778,0.17598 -2.3463,0.70389 l -5.073883,7.42019 3.226163,7.91878 q 0.29329,0.6159 0.76255,0.90919 0.46926,0.29329 1.61309,0.4106 l -0.17598,1.1145 z"
             style="font-style:italic;font-size:29.3288px;line-height:1.25;-inkscape-font-specification:'Caladea Italic'"
             id="path1243" />
          <path
             d="m 105.5702,159.50825 0.0953,-0.70536 q 1.81106,-0.11438 2.64986,-0.49566 l 1.54416,-9.72249 h -2.97394 l 0.11439,-0.81974 q 2.19232,-0.17158 4.17495,-1.04851 l 0.61004,0.26689 -1.79199,11.32385 q 0.70536,0.34315 2.24952,0.49566 l -0.0763,0.70536 z"
             style="font-size:65%;baseline-shift:sub"
             id="path1245" />
          <path
             d="m 116.82659,147.98203 q 0,-4.45798 2.141,-8.32938 2.141,-3.8714 6.24703,-6.83361 l 0.76255,0.8212 q -3.25549,2.93288 -4.98589,6.86294 -1.7304,3.90073 -1.7304,8.47603 0,4.57529 2.81556,8.1534 l -0.8212,0.76255 q -0.17598,-0.14664 -0.49859,-0.4106 -0.29329,-0.23463 -1.05584,-1.17315 -0.76255,-0.9092 -1.34913,-1.96503 -0.55724,-1.05584 -1.05583,-2.75691 -0.46926,-1.7304 -0.46926,-3.60744 z"
             style="font-style:italic;font-size:29.3288px;line-height:1.25;-inkscape-font-specification:'Caladea Italic'"
             id="path1247" />
          <path
             d="m 131.72561,141.00177 q -0.70389,0 -1.3198,0.46926 -0.6159,0.46927 -0.6159,1.3198 0,0.85054 0.52792,1.46644 0.52792,0.61591 1.61308,1.5251 1.1145,0.87986 1.75973,1.70107 0.67456,0.8212 0.67456,1.81838 0,2.17034 -1.49577,3.37282 -1.49576,1.17315 -3.54878,1.17315 -2.02369,0 -3.8714,-1.23181 l 0.87986,-3.54879 1.20248,0.20531 q -0.0587,0.58657 -0.0587,1.31979 0,0.73322 0.52792,1.29047 0.55725,0.55725 1.96503,0.55725 0.64524,0 1.29047,-0.46927 0.64523,-0.46926 0.64523,-1.49576 0,-0.49859 -0.2053,-0.76255 -0.17597,-0.26396 -0.29329,-0.41061 -0.088,-0.14664 -0.35194,-0.38127 -0.26396,-0.26396 -0.38128,-0.38127 -0.52791,-0.52792 -1.08516,-0.96786 -0.52792,-0.43993 -0.96785,-0.87986 -0.41061,-0.46926 -0.79188,-1.23181 -0.38127,-0.79188 -0.38127,-1.61308 0,-2.02369 1.37845,-3.07953 1.37845,-1.08516 3.31415,-1.08516 1.9357,0 3.75409,0.99718 l -0.96785,3.31415 h -1.17315 q 0.0293,-0.38127 0.0293,-1.05584 0,-0.67456 -0.32262,-1.29046 -0.32262,-0.64524 -1.7304,-0.64524 z"
             style="font-style:italic;font-size:29.3288px;line-height:1.25;-inkscape-font-specification:'Caladea Italic'"
             id="path1249" />
          <path
             d="m 144.80625,142.73217 q 0,4.39932 -2.19966,8.35871 -2.17033,3.93006 -6.18837,6.80428 l -0.76255,-0.8212 q 3.22616,-2.87423 4.95656,-6.80429 1.75973,-3.95938 1.75973,-8.50535 0,-4.54596 -2.81556,-8.18273 l 0.8212,-0.76255 q 0.17598,0.14664 0.46926,0.4106 0.32262,0.23463 1.08517,1.17315 0.76255,0.9092 1.3198,1.96503 0.58657,1.05584 1.05583,2.78624 0.49859,1.70107 0.49859,3.57811 z"
             style="font-style:italic;font-size:29.3288px;line-height:1.25;-inkscape-font-specification:'Caladea Italic'"
             id="path1251" />
        </g>
        <path
           id="path1023-6-2"
           style="fill:#002b00;stroke:#000000;stroke-width:2.59687;stroke-linecap:round;stroke-linejoin:round"
           d="m 114.76358,125.95163 a 3.401577,3.401577 0 0 1 -3.40157,3.40158 3.401577,3.401577 0 0 1 -3.40158,-3.40158 3.401577,3.401577 0 0 1 3.40158,-3.40158 3.401577,3.401577 0 0 1 3.40157,3.40158 z" />
        <g
           aria-label="s"
           id="text1029-5"
           style="font-size:27.5px;line-height:1.25;font-family:Caladea;-inkscape-font-specification:Caladea;text-align:center;letter-spacing:0px;word-spacing:0px;text-anchor:middle;stroke-width:0.9375">
          <path
             d="m 147.71384,197.74024 q -0.66,0 -1.2375,0.44 -0.5775,0.44 -0.5775,1.2375 0,0.7975 0.495,1.375 0.495,0.5775 1.5125,1.43 1.045,0.825 1.65,1.595 0.6325,0.77 0.6325,1.705 0,2.035 -1.4025,3.1625 -1.4025,1.1 -3.3275,1.1 -1.8975,0 -3.63,-1.155 l 0.825,-3.3275 1.1275,0.1925 q -0.055,0.55 -0.055,1.2375 0,0.6875 0.495,1.21 0.5225,0.5225 1.8425,0.5225 0.605,0 1.21,-0.44 0.605,-0.44 0.605,-1.4025 0,-0.4675 -0.1925,-0.715 -0.165,-0.2475 -0.275,-0.385 -0.0825,-0.1375 -0.33,-0.3575 -0.2475,-0.2475 -0.3575,-0.3575 -0.495,-0.495 -1.0175,-0.9075 -0.495,-0.4125 -0.9075,-0.825 -0.385,-0.44 -0.7425,-1.155 -0.3575,-0.7425 -0.3575,-1.5125 0,-1.8975 1.2925,-2.8875 1.2925,-1.0175 3.1075,-1.0175 1.815,0 3.52,0.935 l -0.9075,3.1075 h -1.1 q 0.0275,-0.3575 0.0275,-0.99 0,-0.6325 -0.3025,-1.21 -0.3025,-0.605 -1.6225,-0.605 z"
             style="font-style:italic;-inkscape-font-specification:'Caladea Italic'"
             id="path1239" />
        </g>
        <g
           aria-label="1"
           id="text1033-47"
           style="font-size:27.5px;line-height:1.25;font-family:Caladea;-inkscape-font-specification:Caladea;text-align:center;letter-spacing:0px;word-spacing:0px;text-anchor:middle;stroke-width:0.9375">
          <path
             d="m 147.09831,170.61863 h -3.685 v -1.1825 q 2.7775,-0.2475 5.1975,-1.54 l 0.9075,0.4125 v 16.28 q 0.9075,0.495 3.4375,0.825 l -0.0825,0.935 h -9.57 l 0.055,-0.935 q 2.4475,-0.275 3.74,-0.825 z"
             id="path1236" />
        </g>
        <path
           inkscape:connector-curvature="0"
           id="path1035-5"
           d="m 139.94821,192.58487 h 14.74016"
           style="fill:none;stroke:#000000;stroke-width:1.40625;stroke-linecap:butt;stroke-linejoin:miter;stroke-miterlimit:4;stroke-dasharray:none;stroke-opacity:1" />
        <path
           inkscape:connector-curvature="0"
           id="rect1044-6"
           d="m 134.28934,160.88288 h 26.99056 v 55.90396 h -26.99056 z"
           style="fill:none;fill-opacity:1;stroke:#000000;stroke-width:2.59687;stroke-linecap:round;stroke-linejoin:round;stroke-miterlimit:4;stroke-dasharray:none;stroke-dashoffset:0;stroke-opacity:1" />
        <path
           inkscape:connector-curvature="0"
           id="path3794-91-9"
           d="M 161.13877,188.83487 H 264.03751"
           style="fill:none;stroke:#000000;stroke-width:2.59687;stroke-linecap:butt;stroke-linejoin:miter;stroke-miterlimit:4;stroke-dasharray:none;stroke-opacity:1;marker-end:url(#Arrow1Mend-367535-0)" />
        <g
           aria-label="X1(s)"
           id="text3778-5-2-27-37"
           style="font-size:12px;line-height:0%;font-family:Caladea;-inkscape-font-specification:Caladea;text-align:center;letter-spacing:0px;word-spacing:0px;text-anchor:middle">
          <path
             d="m 176.42958,153.44426 q -0.99718,0 -1.43711,-0.38127 -0.43993,-0.41061 -0.90919,-1.55443 l -2.55161,-6.33502 -4.69261,6.42301 q 0.96785,0.55724 2.6396,0.76254 l -0.11732,1.08517 h -6.98025 l 0.17597,-1.08517 q 1.58375,-0.2053 2.37563,-0.70389 l 5.95375,-8.06542 -2.90355,-7.27354 q -0.52792,-1.3198 -2.31698,-1.34912 l 0.14665,-1.08517 h 3.02086 q 0.67456,0 0.85054,0.17597 l 0.23463,0.23463 q 0.0587,0.0587 0.14664,0.29329 0.11732,0.2053 0.17597,0.32262 0.0587,0.11731 0.17598,0.43993 0.11731,0.32262 0.2053,0.49859 l 2.28764,5.63113 3.78342,-5.74845 q -0.96785,-0.58657 -2.52228,-0.76254 l 0.14665,-1.08517 h 6.80428 l -0.14665,1.08517 q -1.40778,0.17597 -2.3463,0.70389 l -5.07388,7.42018 3.22617,7.91878 q 0.29328,0.6159 0.76255,0.90919 0.46926,0.29329 1.61308,0.41061 l -0.17597,1.11449 z"
             style="font-style:italic;font-size:29.3288px;line-height:1.25;-inkscape-font-specification:'Caladea Italic'"
             id="path1225" />
          <path
             d="m 181.33917,159.31002 0.0953,-0.70536 q 1.81105,-0.11438 2.64985,-0.49565 l 1.54416,-9.72249 h -2.97394 l 0.11438,-0.81974 q 2.19233,-0.17157 4.17495,-1.0485 l 0.61004,0.26689 -1.79199,11.32384 q 0.70536,0.34314 2.24952,0.49565 l -0.0762,0.70536 z"
             style="font-size:19.0637px;baseline-shift:sub"
             id="path1227" />
          <path
             d="m 192.59555,147.7838 q 0,-4.45798 2.141,-8.32938 2.141,-3.8714 6.24704,-6.83361 l 0.76254,0.82121 q -3.25549,2.93288 -4.98589,6.86294 -1.7304,3.90073 -1.7304,8.47602 0,4.57529 2.81556,8.15341 l -0.8212,0.76255 q -0.17597,-0.14665 -0.49859,-0.41061 -0.29329,-0.23463 -1.05584,-1.17315 -0.76255,-0.90919 -1.34912,-1.96503 -0.55725,-1.05584 -1.05584,-2.75691 -0.46926,-1.7304 -0.46926,-3.60744 z"
             style="font-style:italic;font-size:29.3288px;line-height:1.25;-inkscape-font-specification:'Caladea Italic'"
             id="path1229" />
          <path
             d="m 207.49457,140.80355 q -0.70389,0 -1.31979,0.46926 -0.61591,0.46926 -0.61591,1.31979 0,0.85054 0.52792,1.46644 0.52792,0.61591 1.61308,1.5251 1.1145,0.87987 1.75973,1.70107 0.67456,0.82121 0.67456,1.81839 0,2.17033 -1.49577,3.37281 -1.49576,1.17315 -3.54878,1.17315 -2.02369,0 -3.8714,-1.23181 l 0.87986,-3.54878 1.20248,0.2053 q -0.0587,0.58657 -0.0587,1.31979 0,0.73322 0.52791,1.29047 0.55725,0.55725 1.96503,0.55725 0.64524,0 1.29047,-0.46926 0.64523,-0.46926 0.64523,-1.49577 0,-0.49859 -0.2053,-0.76255 -0.17597,-0.26396 -0.29329,-0.4106 -0.088,-0.14665 -0.35194,-0.38128 -0.26396,-0.26396 -0.38128,-0.38127 -0.52791,-0.52792 -1.08516,-0.96785 -0.52792,-0.43993 -0.96785,-0.87987 -0.4106,-0.46926 -0.79188,-1.23181 -0.38127,-0.79187 -0.38127,-1.61308 0,-2.02369 1.37845,-3.07952 1.37845,-1.08517 3.31415,-1.08517 1.93571,0 3.75409,0.99718 l -0.96785,3.31415 h -1.17315 q 0.0293,-0.38127 0.0293,-1.05583 0,-0.67456 -0.32262,-1.29047 -0.32262,-0.64523 -1.7304,-0.64523 z"
             style="font-style:italic;font-size:29.3288px;line-height:1.25;-inkscape-font-specification:'Caladea Italic'"
             id="path1231" />
          <path
             d="m 220.57522,142.53395 q 0,4.39932 -2.19966,8.3587 -2.17034,3.93006 -6.18838,6.80429 l -0.76255,-0.82121 q 3.22617,-2.87422 4.95657,-6.80428 1.75973,-3.95939 1.75973,-8.50535 0,-4.54597 -2.81557,-8.18274 l 0.82121,-0.76255 q 0.17597,0.14665 0.46926,0.4106 0.32261,0.23464 1.08516,1.17316 0.76255,0.90919 1.3198,1.96503 0.58658,1.05583 1.05584,2.78623 0.49859,1.70107 0.49859,3.57812 z"
             style="font-style:italic;font-size:29.3288px;line-height:1.25;-inkscape-font-specification:'Caladea Italic'"
             id="path1233" />
        </g>
      </g>
    </g>
  </g>
</svg>
