<?xml version="1.0" encoding="UTF-8" standalone="no"?>
<!-- Created with Inkscape (http://www.inkscape.org/) -->

<svg
   version="1.0"
   width="791.34442"
   height="638.47034"
   id="svg2"
   sodipodi:version="0.32"
   inkscape:version="1.1.2 (0a00cf5339, 2022-02-04)"
   sodipodi:docname="model_fig17.svg"
   xmlns:inkscape="http://www.inkscape.org/namespaces/inkscape"
   xmlns:sodipodi="http://sodipodi.sourceforge.net/DTD/sodipodi-0.dtd"
   xmlns="http://www.w3.org/2000/svg"
   xmlns:svg="http://www.w3.org/2000/svg"
   xmlns:rdf="http://www.w3.org/1999/02/22-rdf-syntax-ns#"
   xmlns:cc="http://creativecommons.org/ns#"
   xmlns:dc="http://purl.org/dc/elements/1.1/">
  <metadata
     id="metadata2729">
    <rdf:RDF>
      <cc:Work
         rdf:about="">
        <dc:format>image/svg+xml</dc:format>
        <dc:type
           rdf:resource="http://purl.org/dc/dcmitype/StillImage" />
        <dc:source>http://commons.mediawiki.org/wiki/Image:Zusatzzeichen_1048-10.svg</dc:source>
        <dc:creator>
          <cc:Agent>
            <dc:title>Purodha Blissenbach</dc:title>
          </cc:Agent>
        </dc:creator>
        <cc:license
           rdf:resource="http://web.resource.org/cc/PublicDomain" />
      </cc:Work>
      <cc:License
         rdf:about="http://web.resource.org/cc/PublicDomain">
        <cc:permits
           rdf:resource="http://web.resource.org/cc/Reproduction" />
        <cc:permits
           rdf:resource="http://web.resource.org/cc/Distribution" />
        <cc:permits
           rdf:resource="http://web.resource.org/cc/DerivativeWorks" />
      </cc:License>
    </rdf:RDF>
  </metadata>
  <sodipodi:namedview
     inkscape:window-height="1052"
     inkscape:window-width="2580"
     inkscape:pageshadow="2"
     inkscape:pageopacity="1"
     guidetolerance="10.0"
     gridtolerance="10.0"
     objecttolerance="10.0"
     borderopacity="1.0"
     bordercolor="#666666"
     pagecolor="white"
     id="base"
     inkscape:zoom="1.2062267"
     inkscape:cx="393.78999"
     inkscape:cy="317.51909"
     inkscape:window-x="1920"
     inkscape:window-y="0"
     inkscape:current-layer="svg2"
     inkscape:showpageshadow="false"
     showgrid="false"
     height="360px"
     width="800px"
     inkscape:window-maximized="1"
     fit-margin-top="0"
     fit-margin-left="0"
     fit-margin-right="0"
     fit-margin-bottom="0"
     inkscape:pagecheckerboard="0">
    <inkscape:grid
       id="GridFromPre046Settings"
       type="xygrid"
       originx="368.69777"
       originy="41.525754"
       spacingx="1.0666667"
       spacingy="1.0666667"
       color="#0000ff"
       empcolor="#0000ff"
       opacity="0.2"
       empopacity="0.4"
       empspacing="20"
       visible="true"
       enabled="true"
       snapvisiblegridlinesonly="true" />
  </sodipodi:namedview>
  <defs
     id="defs4">
    <marker
       inkscape:stockid="Arrow1Mend"
       orient="auto"
       refY="0"
       refX="0"
       id="marker1255"
       style="overflow:visible"
       inkscape:isstock="true">
      <path
         id="path1253"
         d="M 0,0 5,-5 -12.5,0 5,5 Z"
         style="fill:#000000;fill-opacity:1;fill-rule:evenodd;stroke:#000000;stroke-width:1pt;stroke-opacity:1"
         transform="matrix(-0.4,0,0,-0.4,-4,0)"
         inkscape:connector-curvature="0" />
    </marker>
    <marker
       inkscape:stockid="Arrow1Mend"
       orient="auto"
       refY="0"
       refX="0"
       id="Arrow1Mend"
       style="overflow:visible"
       inkscape:isstock="true">
      <path
         id="path974"
         d="M 0,0 5,-5 -12.5,0 5,5 Z"
         style="fill:#000000;fill-opacity:1;fill-rule:evenodd;stroke:#000000;stroke-width:1pt;stroke-opacity:1"
         transform="matrix(-0.4,0,0,-0.4,-4,0)"
         inkscape:connector-curvature="0" />
    </marker>
    <marker
       inkscape:stockid="Arrow1Mend"
       orient="auto"
       refY="0"
       refX="0"
       id="marker3108"
       style="overflow:visible"
       inkscape:isstock="true">
      <path
         id="path3106"
         d="M 0,0 5,-5 -12.5,0 5,5 Z"
         style="fill:#000000;fill-opacity:1;fill-rule:evenodd;stroke:#000000;stroke-width:1pt;stroke-opacity:1"
         transform="matrix(-0.4,0,0,-0.4,-4,0)"
         inkscape:connector-curvature="0" />
    </marker>
    <marker
       inkscape:isstock="true"
       style="overflow:visible"
       id="Arrow1Mstart"
       refX="0"
       refY="0"
       orient="auto"
       inkscape:stockid="Arrow1Mstart">
      <path
         inkscape:connector-curvature="0"
         transform="matrix(0.4,0,0,0.4,4,0)"
         style="fill:#000000;fill-opacity:1;fill-rule:evenodd;stroke:#000000;stroke-width:1pt;stroke-opacity:1"
         d="M 0,0 5,-5 -12.5,0 5,5 Z"
         id="path2255" />
    </marker>
    <marker
       inkscape:isstock="true"
       style="overflow:visible"
       id="StopL"
       refX="0"
       refY="0"
       orient="auto"
       inkscape:stockid="StopL">
      <path
         inkscape:connector-curvature="0"
         transform="scale(0.8)"
         style="fill:none;fill-opacity:0.75;fill-rule:evenodd;stroke:#000000;stroke-width:1pt;stroke-opacity:1"
         d="M 0,5.65 V -5.65"
         id="path2419" />
    </marker>
    <marker
       inkscape:isstock="true"
       style="overflow:visible"
       id="StopM"
       refX="0"
       refY="0"
       orient="auto"
       inkscape:stockid="StopM">
      <path
         inkscape:connector-curvature="0"
         transform="scale(0.4)"
         style="fill:none;fill-opacity:0.75;fill-rule:evenodd;stroke:#000000;stroke-width:1pt;stroke-opacity:1"
         d="M 0,5.65 V -5.65"
         id="path2422" />
    </marker>
    <marker
       inkscape:isstock="true"
       style="overflow:visible"
       id="marker1839"
       refX="0"
       refY="0"
       orient="auto"
       inkscape:stockid="DotM">
      <path
         inkscape:connector-curvature="0"
         transform="matrix(0.4,0,0,0.4,2.96,0.4)"
         style="fill:#000000;fill-opacity:1;fill-rule:evenodd;stroke:#000000;stroke-width:1pt;stroke-opacity:1"
         d="m -2.5,-1 c 0,2.76 -2.24,5 -5,5 -2.76,0 -5,-2.24 -5,-5 0,-2.76 2.24,-5 5,-5 2.76,0 5,2.24 5,5 z"
         id="path1837" />
    </marker>
    <marker
       inkscape:isstock="true"
       style="overflow:visible"
       id="Arrow1Send"
       refX="0"
       refY="0"
       orient="auto"
       inkscape:stockid="Arrow1Send">
      <path
         inkscape:connector-curvature="0"
         transform="matrix(-0.2,0,0,-0.2,-1.2,0)"
         style="fill:#000000;fill-opacity:1;fill-rule:evenodd;stroke:#000000;stroke-width:1pt;stroke-opacity:1"
         d="M 0,0 5,-5 -12.5,0 5,5 Z"
         id="path4778" />
    </marker>
    <marker
       inkscape:isstock="true"
       style="overflow:visible"
       id="DotM"
       refX="0"
       refY="0"
       orient="auto"
       inkscape:stockid="DotM">
      <path
         inkscape:connector-curvature="0"
         transform="matrix(0.4,0,0,0.4,2.96,0.4)"
         style="fill:#000000;fill-opacity:1;fill-rule:evenodd;stroke:#000000;stroke-width:1pt;stroke-opacity:1"
         d="m -2.5,-1 c 0,2.76 -2.24,5 -5,5 -2.76,0 -5,-2.24 -5,-5 0,-2.76 2.24,-5 5,-5 2.76,0 5,2.24 5,5 z"
         id="path4827" />
    </marker>
    <marker
       inkscape:stockid="Arrow1Mend"
       orient="auto"
       refY="0"
       refX="0"
       id="marker4683"
       style="overflow:visible"
       inkscape:isstock="true">
      <path
         id="path4685"
         d="M 0,0 5,-5 -12.5,0 5,5 Z"
         style="fill:#000000;fill-opacity:1;fill-rule:evenodd;stroke:#000000;stroke-width:1pt;stroke-opacity:1"
         transform="matrix(-0.4,0,0,-0.4,-4,0)"
         inkscape:connector-curvature="0" />
    </marker>
    <marker
       inkscape:isstock="true"
       style="overflow:visible"
       id="Arrow1Mend-2"
       refX="0"
       refY="0"
       orient="auto"
       inkscape:stockid="Arrow1Mend">
      <path
         inkscape:connector-curvature="0"
         transform="matrix(-0.4,0,0,-0.4,-4,0)"
         style="fill:#000000;fill-opacity:1;fill-rule:evenodd;stroke:#000000;stroke-width:1pt;stroke-opacity:1"
         d="M 0,0 5,-5 -12.5,0 5,5 Z"
         id="path4285" />
    </marker>
    <marker
       inkscape:isstock="true"
       style="overflow:visible"
       id="marker4692-1"
       refX="0"
       refY="0"
       orient="auto"
       inkscape:stockid="Arrow1Mend">
      <path
         inkscape:connector-curvature="0"
         transform="matrix(-0.4,0,0,-0.4,-4,0)"
         style="fill:#000000;fill-opacity:1;fill-rule:evenodd;stroke:#000000;stroke-width:1pt;stroke-opacity:1"
         d="M 0,0 5,-5 -12.5,0 5,5 Z"
         id="path4694-8" />
    </marker>
    <marker
       inkscape:isstock="true"
       style="overflow:visible"
       id="DotM-3"
       refX="0"
       refY="0"
       orient="auto"
       inkscape:stockid="DotM">
      <path
         transform="matrix(0.4,0,0,0.4,2.96,0.4)"
         style="fill:#000000;fill-opacity:1;fill-rule:evenodd;stroke:#000000;stroke-width:1pt;stroke-opacity:1"
         d="m -2.5,-1 c 0,2.76 -2.24,5 -5,5 -2.76,0 -5,-2.24 -5,-5 0,-2.76 2.24,-5 5,-5 2.76,0 5,2.24 5,5 z"
         id="path4827-6"
         inkscape:connector-curvature="0" />
    </marker>
    <marker
       inkscape:isstock="true"
       style="overflow:visible"
       id="StopM-2"
       refX="0"
       refY="0"
       orient="auto"
       inkscape:stockid="StopM">
      <path
         transform="scale(0.4)"
         style="fill:none;fill-opacity:0.75;fill-rule:evenodd;stroke:#000000;stroke-width:1pt;stroke-opacity:1"
         d="M 0,5.65 V -5.65"
         id="path2422-9"
         inkscape:connector-curvature="0" />
    </marker>
    <marker
       inkscape:stockid="Arrow1Mend"
       orient="auto"
       refY="0"
       refX="0"
       id="marker3108-1"
       style="overflow:visible"
       inkscape:isstock="true">
      <path
         id="path3106-2"
         d="M 0,0 5,-5 -12.5,0 5,5 Z"
         style="fill:#000000;fill-opacity:1;fill-rule:evenodd;stroke:#000000;stroke-width:1pt;stroke-opacity:1"
         transform="matrix(-0.4,0,0,-0.4,-4,0)"
         inkscape:connector-curvature="0" />
    </marker>
    <marker
       inkscape:stockid="Arrow1Mend"
       orient="auto"
       refY="0"
       refX="0"
       id="marker3108-3"
       style="overflow:visible"
       inkscape:isstock="true">
      <path
         id="path3106-6"
         d="M 0,0 5,-5 -12.5,0 5,5 Z"
         style="fill:#000000;fill-opacity:1;fill-rule:evenodd;stroke:#000000;stroke-width:1pt;stroke-opacity:1"
         transform="matrix(-0.4,0,0,-0.4,-4,0)"
         inkscape:connector-curvature="0" />
    </marker>
    <marker
       inkscape:isstock="true"
       style="overflow:visible"
       id="Arrow1Mstart-0"
       refX="0"
       refY="0"
       orient="auto"
       inkscape:stockid="Arrow1Mstart">
      <path
         inkscape:connector-curvature="0"
         transform="matrix(0.4,0,0,0.4,4,0)"
         style="fill:#000000;fill-opacity:1;fill-rule:evenodd;stroke:#000000;stroke-width:1pt;stroke-opacity:1"
         d="M 0,0 5,-5 -12.5,0 5,5 Z"
         id="path2255-6" />
    </marker>
    <marker
       inkscape:isstock="true"
       style="overflow:visible"
       id="StopL-2"
       refX="0"
       refY="0"
       orient="auto"
       inkscape:stockid="StopL">
      <path
         inkscape:connector-curvature="0"
         transform="scale(0.8)"
         style="fill:none;fill-opacity:0.75;fill-rule:evenodd;stroke:#000000;stroke-width:1pt;stroke-opacity:1"
         d="M 0,5.65 V -5.65"
         id="path2419-6" />
    </marker>
    <marker
       inkscape:isstock="true"
       style="overflow:visible"
       id="StopM-1"
       refX="0"
       refY="0"
       orient="auto"
       inkscape:stockid="StopM">
      <path
         inkscape:connector-curvature="0"
         transform="scale(0.4)"
         style="fill:none;fill-opacity:0.75;fill-rule:evenodd;stroke:#000000;stroke-width:1pt;stroke-opacity:1"
         d="M 0,5.65 V -5.65"
         id="path2422-8" />
    </marker>
    <marker
       inkscape:isstock="true"
       style="overflow:visible"
       id="marker1839-7"
       refX="0"
       refY="0"
       orient="auto"
       inkscape:stockid="DotM">
      <path
         inkscape:connector-curvature="0"
         transform="matrix(0.4,0,0,0.4,2.96,0.4)"
         style="fill:#000000;fill-opacity:1;fill-rule:evenodd;stroke:#000000;stroke-width:1pt;stroke-opacity:1"
         d="m -2.5,-1 c 0,2.76 -2.24,5 -5,5 -2.76,0 -5,-2.24 -5,-5 0,-2.76 2.24,-5 5,-5 2.76,0 5,2.24 5,5 z"
         id="path1837-9" />
    </marker>
    <marker
       inkscape:isstock="true"
       style="overflow:visible"
       id="Arrow1Send-2"
       refX="0"
       refY="0"
       orient="auto"
       inkscape:stockid="Arrow1Send">
      <path
         inkscape:connector-curvature="0"
         transform="matrix(-0.2,0,0,-0.2,-1.2,0)"
         style="fill:#000000;fill-opacity:1;fill-rule:evenodd;stroke:#000000;stroke-width:1pt;stroke-opacity:1"
         d="M 0,0 5,-5 -12.5,0 5,5 Z"
         id="path4778-0" />
    </marker>
    <marker
       inkscape:isstock="true"
       style="overflow:visible"
       id="DotM-2"
       refX="0"
       refY="0"
       orient="auto"
       inkscape:stockid="DotM">
      <path
         inkscape:connector-curvature="0"
         transform="matrix(0.4,0,0,0.4,2.96,0.4)"
         style="fill:#000000;fill-opacity:1;fill-rule:evenodd;stroke:#000000;stroke-width:1pt;stroke-opacity:1"
         d="m -2.5,-1 c 0,2.76 -2.24,5 -5,5 -2.76,0 -5,-2.24 -5,-5 0,-2.76 2.24,-5 5,-5 2.76,0 5,2.24 5,5 z"
         id="path4827-3" />
    </marker>
    <marker
       inkscape:stockid="Arrow1Mend"
       orient="auto"
       refY="0"
       refX="0"
       id="marker4683-7"
       style="overflow:visible"
       inkscape:isstock="true">
      <path
         id="path4685-5"
         d="M 0,0 5,-5 -12.5,0 5,5 Z"
         style="fill:#000000;fill-opacity:1;fill-rule:evenodd;stroke:#000000;stroke-width:1pt;stroke-opacity:1"
         transform="matrix(-0.4,0,0,-0.4,-4,0)"
         inkscape:connector-curvature="0" />
    </marker>
    <marker
       inkscape:isstock="true"
       style="overflow:visible"
       id="Arrow1Mend-9"
       refX="0"
       refY="0"
       orient="auto"
       inkscape:stockid="Arrow1Mend">
      <path
         inkscape:connector-curvature="0"
         transform="matrix(-0.4,0,0,-0.4,-4,0)"
         style="fill:#000000;fill-opacity:1;fill-rule:evenodd;stroke:#000000;stroke-width:1pt;stroke-opacity:1"
         d="M 0,0 5,-5 -12.5,0 5,5 Z"
         id="path4285-2" />
    </marker>
    <marker
       inkscape:isstock="true"
       style="overflow:visible"
       id="marker4692-1-2"
       refX="0"
       refY="0"
       orient="auto"
       inkscape:stockid="Arrow1Mend">
      <path
         inkscape:connector-curvature="0"
         transform="matrix(-0.4,0,0,-0.4,-4,0)"
         style="fill:#000000;fill-opacity:1;fill-rule:evenodd;stroke:#000000;stroke-width:1pt;stroke-opacity:1"
         d="M 0,0 5,-5 -12.5,0 5,5 Z"
         id="path4694-8-8" />
    </marker>
    <marker
       inkscape:isstock="true"
       style="overflow:visible"
       id="DotM-3-9"
       refX="0"
       refY="0"
       orient="auto"
       inkscape:stockid="DotM">
      <path
         transform="matrix(0.4,0,0,0.4,2.96,0.4)"
         style="fill:#000000;fill-opacity:1;fill-rule:evenodd;stroke:#000000;stroke-width:1pt;stroke-opacity:1"
         d="m -2.5,-1 c 0,2.76 -2.24,5 -5,5 -2.76,0 -5,-2.24 -5,-5 0,-2.76 2.24,-5 5,-5 2.76,0 5,2.24 5,5 z"
         id="path4827-6-7"
         inkscape:connector-curvature="0" />
    </marker>
    <marker
       inkscape:isstock="true"
       style="overflow:visible"
       id="StopM-2-3"
       refX="0"
       refY="0"
       orient="auto"
       inkscape:stockid="StopM">
      <path
         transform="scale(0.4)"
         style="fill:none;fill-opacity:0.75;fill-rule:evenodd;stroke:#000000;stroke-width:1pt;stroke-opacity:1"
         d="M 0,5.65 V -5.65"
         id="path2422-9-6"
         inkscape:connector-curvature="0" />
    </marker>
    <marker
       inkscape:stockid="Arrow1Mend"
       orient="auto"
       refY="0"
       refX="0"
       id="marker3108-1-1"
       style="overflow:visible"
       inkscape:isstock="true">
      <path
         id="path3106-2-2"
         d="M 0,0 5,-5 -12.5,0 5,5 Z"
         style="fill:#000000;fill-opacity:1;fill-rule:evenodd;stroke:#000000;stroke-width:1pt;stroke-opacity:1"
         transform="matrix(-0.4,0,0,-0.4,-4,0)"
         inkscape:connector-curvature="0" />
    </marker>
    <marker
       inkscape:stockid="Arrow1Mend"
       orient="auto"
       refY="0"
       refX="0"
       id="marker6265"
       style="overflow:visible"
       inkscape:isstock="true">
      <path
         id="path4772"
         d="M 0,0 5,-5 -12.5,0 5,5 Z"
         style="fill:#000000;fill-opacity:1;fill-rule:evenodd;stroke:#000000;stroke-width:1pt;stroke-opacity:1"
         transform="matrix(-0.4,0,0,-0.4,-4,0)"
         inkscape:connector-curvature="0" />
    </marker>
    <marker
       inkscape:stockid="Arrow1Send"
       orient="auto"
       refY="0"
       refX="0"
       id="Arrow1Send-7"
       style="overflow:visible"
       inkscape:isstock="true">
      <path
         id="path4778-5"
         d="M 0,0 5,-5 -12.5,0 5,5 Z"
         style="fill:#000000;fill-opacity:1;fill-rule:evenodd;stroke:#000000;stroke-width:1pt;stroke-opacity:1"
         transform="matrix(-0.2,0,0,-0.2,-1.2,0)"
         inkscape:connector-curvature="0" />
    </marker>
    <marker
       inkscape:stockid="DotM"
       orient="auto"
       refY="0"
       refX="0"
       id="DotM-35"
       style="overflow:visible"
       inkscape:isstock="true">
      <path
         id="path4827-62"
         d="m -2.5,-1 c 0,2.76 -2.24,5 -5,5 -2.76,0 -5,-2.24 -5,-5 0,-2.76 2.24,-5 5,-5 2.76,0 5,2.24 5,5 z"
         style="fill:#000000;fill-opacity:1;fill-rule:evenodd;stroke:#000000;stroke-width:1pt;stroke-opacity:1"
         transform="matrix(0.4,0,0,0.4,2.96,0.4)"
         inkscape:connector-curvature="0" />
    </marker>
    <marker
       inkscape:isstock="true"
       style="overflow:visible"
       id="marker4683-9"
       refX="0"
       refY="0"
       orient="auto"
       inkscape:stockid="Arrow1Mend">
      <path
         inkscape:connector-curvature="0"
         transform="matrix(-0.4,0,0,-0.4,-4,0)"
         style="fill:#000000;fill-opacity:1;fill-rule:evenodd;stroke:#000000;stroke-width:1pt;stroke-opacity:1"
         d="M 0,0 5,-5 -12.5,0 5,5 Z"
         id="path4685-1" />
    </marker>
    <marker
       inkscape:stockid="Arrow1Mend"
       orient="auto"
       refY="0"
       refX="0"
       id="Arrow1Mend-2-9"
       style="overflow:visible"
       inkscape:isstock="true">
      <path
         id="path4285-7"
         d="M 0,0 5,-5 -12.5,0 5,5 Z"
         style="fill:#000000;fill-opacity:1;fill-rule:evenodd;stroke:#000000;stroke-width:1pt;stroke-opacity:1"
         transform="matrix(-0.4,0,0,-0.4,-4,0)"
         inkscape:connector-curvature="0" />
    </marker>
    <marker
       inkscape:stockid="Arrow1Mend"
       orient="auto"
       refY="0"
       refX="0"
       id="marker4692-1-0"
       style="overflow:visible"
       inkscape:isstock="true">
      <path
         id="path4694-8-9"
         d="M 0,0 5,-5 -12.5,0 5,5 Z"
         style="fill:#000000;fill-opacity:1;fill-rule:evenodd;stroke:#000000;stroke-width:1pt;stroke-opacity:1"
         transform="matrix(-0.4,0,0,-0.4,-4,0)"
         inkscape:connector-curvature="0" />
    </marker>
    <marker
       inkscape:stockid="DotM"
       orient="auto"
       refY="0"
       refX="0"
       id="DotM-3-3"
       style="overflow:visible"
       inkscape:isstock="true">
      <path
         inkscape:connector-curvature="0"
         id="path4827-6-6"
         d="m -2.5,-1 c 0,2.76 -2.24,5 -5,5 -2.76,0 -5,-2.24 -5,-5 0,-2.76 2.24,-5 5,-5 2.76,0 5,2.24 5,5 z"
         style="fill:#000000;fill-opacity:1;fill-rule:evenodd;stroke:#000000;stroke-width:1pt;stroke-opacity:1"
         transform="matrix(0.4,0,0,0.4,2.96,0.4)" />
    </marker>
    <marker
       inkscape:isstock="true"
       style="overflow:visible"
       id="StopM-2-5"
       refX="0"
       refY="0"
       orient="auto"
       inkscape:stockid="StopM">
      <path
         transform="scale(0.4)"
         style="fill:none;fill-opacity:0.75;fill-rule:evenodd;stroke:#000000;stroke-width:1pt;stroke-opacity:1"
         d="M 0,5.65 V -5.65"
         id="path2422-9-3"
         inkscape:connector-curvature="0" />
    </marker>
    <marker
       inkscape:stockid="Arrow1Mend"
       orient="auto"
       refY="0"
       refX="0"
       id="marker3108-1-5"
       style="overflow:visible"
       inkscape:isstock="true">
      <path
         id="path3106-2-6"
         d="M 0,0 5,-5 -12.5,0 5,5 Z"
         style="fill:#000000;fill-opacity:1;fill-rule:evenodd;stroke:#000000;stroke-width:1pt;stroke-opacity:1"
         transform="matrix(-0.4,0,0,-0.4,-4,0)"
         inkscape:connector-curvature="0" />
    </marker>
  </defs>
  <g
     id="g2025">
    <path
       id="rect1452"
       style="fill:#ffffff;stroke:#ffffff;stroke-width:0.693333;stroke-miterlimit:10"
       d="M 1.1621544,1.111626 H 790.99773 V 638.12365 H 1.1621544 Z" />
    <path
       style="fill:none;stroke:#000000;stroke-width:7.82658;stroke-linecap:round;stroke-linejoin:miter;stroke-miterlimit:4;stroke-dasharray:none;stroke-opacity:1"
       d="M 24.136381,36.33892 H 778.45989"
       id="path818"
       inkscape:connector-curvature="0" />
    <path
       style="fill:none;stroke:#000000;stroke-width:3.2164;stroke-linecap:butt;stroke-linejoin:miter;stroke-miterlimit:4;stroke-dasharray:none;stroke-opacity:1"
       d="M 72.037931,36.33892 38.342265,1.11163"
       id="path832"
       inkscape:connector-curvature="0" />
    <path
       style="fill:none;stroke:#000000;stroke-width:3.2164;stroke-linecap:butt;stroke-linejoin:miter;stroke-miterlimit:4;stroke-dasharray:none;stroke-opacity:1"
       d="M 109.21804,36.33892 75.52237,1.11163"
       id="path832-3"
       inkscape:connector-curvature="0" />
    <path
       style="fill:none;stroke:#000000;stroke-width:3.2164;stroke-linecap:butt;stroke-linejoin:miter;stroke-miterlimit:4;stroke-dasharray:none;stroke-opacity:1"
       d="M 34.857821,36.33892 1.1621544,1.11163"
       id="path832-6"
       inkscape:connector-curvature="0" />
    <path
       style="fill:none;stroke:#000000;stroke-width:3.2164;stroke-linecap:butt;stroke-linejoin:miter;stroke-miterlimit:4;stroke-dasharray:none;stroke-opacity:1"
       d="M 146.39815,36.33892 112.70248,1.11163"
       id="path832-7"
       inkscape:connector-curvature="0" />
    <path
       style="fill:none;stroke:#000000;stroke-width:3.2164;stroke-linecap:butt;stroke-linejoin:miter;stroke-miterlimit:4;stroke-dasharray:none;stroke-opacity:1"
       d="M 183.57825,36.33892 149.88258,1.11163"
       id="path832-5"
       inkscape:connector-curvature="0" />
    <path
       style="fill:none;stroke:#000000;stroke-width:3.2164;stroke-linecap:butt;stroke-linejoin:miter;stroke-miterlimit:4;stroke-dasharray:none;stroke-opacity:1"
       d="M 220.75836,36.33892 187.06269,1.11163"
       id="path832-35"
       inkscape:connector-curvature="0" />
    <path
       style="fill:none;stroke:#000000;stroke-width:3.2164;stroke-linecap:butt;stroke-linejoin:miter;stroke-miterlimit:4;stroke-dasharray:none;stroke-opacity:1"
       d="M 257.93846,36.33892 224.2428,1.11163"
       id="path832-62"
       inkscape:connector-curvature="0" />
    <path
       style="fill:none;stroke:#000000;stroke-width:3.2164;stroke-linecap:butt;stroke-linejoin:miter;stroke-miterlimit:4;stroke-dasharray:none;stroke-opacity:1"
       d="M 295.11857,36.33892 261.42291,1.11163"
       id="path832-9"
       inkscape:connector-curvature="0" />
    <path
       style="fill:none;stroke:#000000;stroke-width:3.2164;stroke-linecap:butt;stroke-linejoin:miter;stroke-miterlimit:4;stroke-dasharray:none;stroke-opacity:1"
       d="M 332.29868,36.33892 298.60302,1.11163"
       id="path832-1"
       inkscape:connector-curvature="0" />
    <path
       style="fill:none;stroke:#000000;stroke-width:3.2164;stroke-linecap:butt;stroke-linejoin:miter;stroke-miterlimit:4;stroke-dasharray:none;stroke-opacity:1"
       d="M 369.47879,36.33892 335.78312,1.11163"
       id="path832-2"
       inkscape:connector-curvature="0" />
    <path
       style="fill:none;stroke:#000000;stroke-width:3.2164;stroke-linecap:butt;stroke-linejoin:miter;stroke-miterlimit:4;stroke-dasharray:none;stroke-opacity:1"
       d="M 443.83901,36.33892 410.14334,1.11163"
       id="path832-70"
       inkscape:connector-curvature="0" />
    <path
       style="fill:none;stroke:#000000;stroke-width:3.2164;stroke-linecap:butt;stroke-linejoin:miter;stroke-miterlimit:4;stroke-dasharray:none;stroke-opacity:1"
       d="M 481.01912,36.33892 447.32345,1.11163"
       id="path832-93"
       inkscape:connector-curvature="0" />
    <path
       style="fill:none;stroke:#000000;stroke-width:3.2164;stroke-linecap:butt;stroke-linejoin:miter;stroke-miterlimit:4;stroke-dasharray:none;stroke-opacity:1"
       d="M 518.19919,36.33892 484.50353,1.11163"
       id="path832-60"
       inkscape:connector-curvature="0" />
    <path
       style="fill:none;stroke:#000000;stroke-width:3.2164;stroke-linecap:butt;stroke-linejoin:miter;stroke-miterlimit:4;stroke-dasharray:none;stroke-opacity:1"
       d="M 555.37929,36.33892 521.68362,1.11163"
       id="path832-626"
       inkscape:connector-curvature="0" />
    <path
       style="fill:none;stroke:#000000;stroke-width:3.2164;stroke-linecap:butt;stroke-linejoin:miter;stroke-miterlimit:4;stroke-dasharray:none;stroke-opacity:1"
       d="M 592.55938,36.33892 558.86371,1.11163"
       id="path832-18"
       inkscape:connector-curvature="0" />
    <path
       style="fill:none;stroke:#000000;stroke-width:3.2164;stroke-linecap:butt;stroke-linejoin:miter;stroke-miterlimit:4;stroke-dasharray:none;stroke-opacity:1"
       d="M 629.73947,36.33892 596.0438,1.11163"
       id="path832-79"
       inkscape:connector-curvature="0" />
    <path
       style="fill:none;stroke:#000000;stroke-width:3.2164;stroke-linecap:butt;stroke-linejoin:miter;stroke-miterlimit:4;stroke-dasharray:none;stroke-opacity:1"
       d="M 666.91957,36.33892 633.2239,1.11163"
       id="path832-20"
       inkscape:connector-curvature="0" />
    <path
       style="fill:none;stroke:#000000;stroke-width:3.2164;stroke-linecap:butt;stroke-linejoin:miter;stroke-miterlimit:4;stroke-dasharray:none;stroke-opacity:1"
       d="M 704.09965,36.33892 670.40399,1.11163"
       id="path832-23"
       inkscape:connector-curvature="0" />
    <path
       style="fill:none;stroke:#000000;stroke-width:3.2164;stroke-linecap:butt;stroke-linejoin:miter;stroke-miterlimit:4;stroke-dasharray:none;stroke-opacity:1"
       d="M 741.27975,36.33892 707.58408,1.11163"
       id="path832-75"
       inkscape:connector-curvature="0" />
    <path
       style="fill:none;stroke:#000000;stroke-width:3.2164;stroke-linecap:butt;stroke-linejoin:miter;stroke-miterlimit:4;stroke-dasharray:none;stroke-opacity:1"
       d="M 778.45989,36.33892 744.76425,1.11163"
       id="path832-92"
       inkscape:connector-curvature="0" />
    <path
       style="fill:none;stroke:#000000;stroke-width:3.2164;stroke-linecap:butt;stroke-linejoin:miter;stroke-miterlimit:4;stroke-dasharray:none;stroke-opacity:1"
       d="M 406.6589,36.33892 372.96323,1.11163"
       id="path832-28"
       inkscape:connector-curvature="0" />
    <path
       inkscape:connector-curvature="0"
       id="path963"
       d="m 410.05203,530.51581 v 93.4289"
       style="fill:none;stroke:#000000;stroke-width:3.69887;stroke-linecap:butt;stroke-linejoin:miter;stroke-miterlimit:4;stroke-dasharray:none;stroke-opacity:1;marker-end:url(#marker1255)" />
    <path
       d="m 438.43961,636.2422 q -0.51462,0.27447 -1.2351,0.48032 -0.68616,0.24016 -1.81834,0.24016 -1.16648,0 -2.0928,-0.72048 -0.96063,-0.72047 -0.96063,-1.88696 0,-1.13217 0.61755,-1.71541 0.58324,-0.58324 1.40664,-0.58324 1.37233,0 1.64679,1.2351 -0.58324,0.30877 -0.58324,1.06355 0,0.96064 0.92633,0.96064 1.40664,0 1.92126,-1.88696 0.34309,-1.2351 0.54893,-3.39652 0.24016,-2.16142 0.3774,-2.98482 l 1.88695,-11.76775 h -2.53881 l 0.20585,-1.16648 2.60743,-0.68617 0.30877,-1.57818 q 1.20079,-6.31273 5.83241,-6.31273 1.54388,0 2.60744,0.8234 1.09786,0.78909 1.09786,1.98988 0,1.20079 -0.65186,1.88696 -0.65185,0.68617 -1.47525,0.68617 -1.20079,0 -1.54388,-1.2351 0.8234,-0.61755 0.8234,-1.2351 0,-1.30372 -1.50956,-1.30372 -1.57818,0 -2.0585,1.71542 -0.34308,1.2694 -0.4117,2.81328 -0.0686,1.54387 -0.10293,1.92126 h 3.2936 l -0.24016,1.68111 h -3.3279 l -1.92127,12.14514 q -0.51462,3.36221 -0.75478,4.01407 -0.20585,0.65186 -0.51462,1.54387 -0.30878,0.92633 -0.61755,1.30372 -0.27447,0.4117 -0.75479,1.02925 -0.48031,0.65185 -0.99494,0.92632 z"
       style="font-style:italic;font-size:34.3083px;line-height:1.25;font-family:Caladea;-inkscape-font-specification:'Caladea Italic';text-align:center;letter-spacing:0px;word-spacing:0px;text-anchor:middle;stroke-width:0.536067"
       id="path1796" />
    <path
       d="m 449.86427,622.82766 q 0,-5.21487 2.50451,-9.74356 2.5045,-4.5287 7.30767,-7.99384 l 0.89201,0.96064 q -3.80822,3.43083 -5.83241,8.02814 -2.02419,4.563 -2.02419,9.9151 0,5.35209 3.2936,9.53771 l -0.96064,0.89201 q -0.20584,-0.17154 -0.58324,-0.48031 -0.34308,-0.27447 -1.23509,-1.37234 -0.89202,-1.06355 -1.57819,-2.29865 -0.65185,-1.2351 -1.2351,-3.22498 -0.54893,-2.02419 -0.54893,-4.21992 z"
       style="font-style:italic;font-size:34.3083px;line-height:1.25;font-family:Caladea;-inkscape-font-specification:'Caladea Italic';text-align:center;letter-spacing:0px;word-spacing:0px;text-anchor:middle;stroke-width:0.536067"
       id="path1798" />
    <path
       d="m 464.44529,626.36141 q 0,1.20079 1.20079,1.20079 1.20079,0 3.77391,-1.74972 l 0.8234,1.16648 q -1.06355,0.85771 -1.6811,1.30372 -0.61755,0.4117 -1.85265,0.92632 -1.2351,0.48032 -2.53882,0.48032 -1.30371,0 -2.02419,-0.72048 -0.68616,-0.75478 -0.68616,-1.78403 0,-1.02925 1.71541,-11.90498 h -2.47019 l 0.20585,-1.13217 q 2.02419,-0.54894 2.9162,-1.40664 0.89202,-0.89202 1.78403,-2.64174 h 1.37233 l -0.54893,3.3279 h 5.48933 l -0.37739,1.85265 h -5.42071 l -0.4117,2.50451 q -1.26941,7.71936 -1.26941,8.57707 z"
       style="font-style:italic;font-size:34.3083px;line-height:1.25;font-family:Caladea;-inkscape-font-specification:'Caladea Italic';text-align:center;letter-spacing:0px;word-spacing:0px;text-anchor:middle;stroke-width:0.536067"
       id="path1800" />
    <path
       d="m 481.32495,616.68647 q 0,5.14625 -2.57312,9.77787 -2.53882,4.59731 -7.23905,7.95952 l -0.89202,-0.96063 q 3.77391,-3.36221 5.7981,-7.95953 2.0585,-4.63162 2.0585,-9.9494 0,-5.31779 -3.2936,-9.57202 l 0.96064,-0.89202 q 0.20585,0.17155 0.54893,0.48032 0.37739,0.27447 1.26941,1.37233 0.89201,1.06356 1.54387,2.29866 0.68616,1.2351 1.2351,3.25929 0.58324,1.98988 0.58324,4.18561 z"
       style="font-style:italic;font-size:34.3083px;line-height:1.25;font-family:Caladea;-inkscape-font-specification:'Caladea Italic';text-align:center;letter-spacing:0px;word-spacing:0px;text-anchor:middle;stroke-width:0.536067"
       id="path1802" />
    <path
       d="m 404.81439,502.81851 h -1.85265 l -4.117,-17.56585 -2.19573,15.40443 q 1.13218,0.65186 3.08775,0.89201 l -0.13723,1.26941 h -8.234 l 0.17154,-1.26941 q 1.81834,-0.20584 2.91621,-0.89201 l 2.95051,-18.56079 q -1.13217,-0.68617 -2.9162,-0.89202 l 0.17154,-1.2694 h 5.93534 l 4.35715,18.90387 10.36111,-18.90387 h 5.52363 l -0.17154,1.2694 q -1.74972,0.20585 -2.9162,0.89202 l -2.95052,18.56079 q 1.13218,0.65186 3.08775,0.89201 l -0.13723,1.26941 h -9.0574 l 0.17155,-1.26941 q 1.81834,-0.24015 2.9162,-0.89201 l 2.67605,-15.40443 z"
       style="font-style:italic;font-size:34.3083px;line-height:1.25;font-family:Caladea;-inkscape-font-specification:'Caladea Italic';text-align:center;letter-spacing:0px;word-spacing:0px;text-anchor:middle;stroke-width:0.536067"
       id="path1791" />
    <path
       d="m 420.9187,509.68017 0.1115,-0.82511 q 2.11854,-0.1338 3.09975,-0.57981 l 1.80633,-11.3732 h -3.47886 l 0.13381,-0.95892 q 2.56454,-0.2007 4.88378,-1.22652 l 0.71361,0.3122 -2.09623,13.24644 q 0.82511,0.4014 2.63144,0.57981 l -0.0892,0.82511 z"
       style="font-size:8.36264px;line-height:1.25;font-family:Caladea;-inkscape-font-specification:Caladea;text-align:center;letter-spacing:0px;word-spacing:0px;baseline-shift:sub;text-anchor:middle;stroke-width:0.536067"
       id="path1793" />
    <path
       id="rect2408"
       style="fill:none;stroke:#0000ff;stroke-width:6.9;stroke-linecap:round;stroke-linejoin:bevel"
       d="m 329.23981,461.32104 h 161.6244 v 66.97295 h -161.6244 z" />
    <path
       inkscape:connector-curvature="0"
       id="path2964-7"
       d="m 287.15712,460.83782 v 80.20192"
       style="fill:none;stroke:#000000;stroke-width:2.3;stroke-linecap:butt;stroke-linejoin:miter;stroke-miterlimit:4;stroke-dasharray:none;stroke-opacity:1;marker-start:url(#StopM-2);marker-end:url(#marker3108-1)" />
    <path
       d="m 218.24668,514.34647 q -1.28441,7.42106 -3.54187,11.33917 -3.30833,5.74742 -5.96798,7.47295 -1.18062,0.76546 -4.29435,0.76546 -0.60978,0 -1.23252,-0.10379 -0.60977,-0.10379 -1.23252,-0.2984 l 0.51896,-2.6337 h 1.21954 q -0.0259,0.20758 -0.0259,0.40219 0,0.5449 0.23353,0.85628 0.32435,0.44111 1.16765,0.44111 2.2834,0 4.26841,-1.985 l -3.25645,-14.98483 h -1.56984 l 0.27246,-1.38821 h 3.56781 l 3.06184,13.68744 q 2.08879,-3.1267 2.59477,-4.41111 1.63471,-4.03488 1.95906,-7.77136 h -1.56984 l 0.27245,-1.3882 z"
       style="font-style:italic;font-size:26.5705px;line-height:1.25;font-family:'DejaVu Serif';-inkscape-font-specification:'DejaVu Serif Italic';letter-spacing:0px;word-spacing:0px;stroke-width:0.664262"
       id="path1779" />
    <path
       d="m 219.18015,533.33503 0.1771,-0.8939 h 2.19258 l 2.03236,-10.47381 -2.85879,1.64444 0.21925,-1.10472 3.45754,-1.9902 h 1.16376 l -2.31908,11.92429 h 2.19258 l -0.17709,0.8939 z"
       style="font-size:17.2708px;line-height:1.25;letter-spacing:0px;word-spacing:0px;baseline-shift:sub;stroke-width:0.664262"
       id="path1781" />
    <path
       d="m 237.4344,532.1596 q -3.15265,-1.41415 -4.76142,-4.47599 -1.60876,-3.0748 -1.60876,-7.68053 0,-4.6187 1.60876,-7.68054 1.60877,-3.0748 4.76142,-4.48896 v 1.27144 q -1.99798,1.37523 -2.86723,3.87919 -0.86925,2.49099 -0.86925,7.01887 0,4.51491 0.86925,7.01887 0.86925,2.49098 2.86723,3.86621 z"
       style="font-size:26.5705px;line-height:1.25;font-family:'DejaVu Serif';-inkscape-font-specification:'DejaVu Serif';letter-spacing:0px;word-spacing:0px;stroke-width:0.664262"
       id="path1783" />
    <path
       d="m 242.88342,515.61791 h -2.10176 l 0.27245,-1.38821 h 2.10177 l 0.83032,-4.28138 h 2.40017 l -0.83033,4.28138 h 4.48896 l -0.27245,1.38821 h -4.48896 l -1.69958,8.75737 q -0.1946,1.02493 -0.1946,1.62173 0,0.41516 0.0908,0.62275 0.24651,0.493 1.15468,0.493 0.93412,0 1.46605,-0.5449 0.5449,-0.55788 0.80438,-1.79039 h 1.80337 q -0.46706,1.88121 -1.55687,2.75046 -1.08981,0.86925 -2.97102,0.86925 -2.06284,0 -2.75046,-0.92115 -0.41516,-0.55787 -0.41516,-1.59578 0,-0.66167 0.16866,-1.50497 z"
       style="font-style:italic;font-size:26.5705px;line-height:1.25;font-family:'DejaVu Serif';-inkscape-font-specification:'DejaVu Serif Italic';letter-spacing:0px;word-spacing:0px;stroke-width:0.664262"
       id="path1785" />
    <path
       d="m 251.8873,532.1596 v -1.27144 q 1.99797,-1.37523 2.86722,-3.86621 0.88223,-2.50396 0.88223,-7.01887 0,-4.52788 -0.88223,-7.01887 -0.86925,-2.50396 -2.86722,-3.87919 v -1.27144 q 3.16562,1.41416 4.77438,4.48896 1.60876,3.06184 1.60876,7.68054 0,4.60573 -1.60876,7.68053 -1.60876,3.06184 -4.77438,4.47599 z"
       style="font-size:26.5705px;line-height:1.25;font-family:'DejaVu Serif';-inkscape-font-specification:'DejaVu Serif';letter-spacing:0px;word-spacing:0px;stroke-width:0.664262"
       id="path1787" />
    <path
       d="m 435.18806,148.89725 v -1.37523 h 2.46504 v -16.60657 h -2.46504 v -1.3882 h 7.56377 v 1.3882 h -2.46503 v 7.33024 l 8.3422,-7.33024 h -2.10177 v -1.3882 h 6.43504 v 1.3882 h -2.17961 l -8.31625,7.3043 9.30227,9.30227 h 2.20556 v 1.37523 h -4.50194 l -9.1855,-9.19848 v 7.82325 h 2.46503 v 1.37523 z"
       style="font-size:26.5705px;line-height:1.25;font-family:'DejaVu Serif';-inkscape-font-specification:'DejaVu Serif';letter-spacing:0px;word-spacing:0px;stroke-width:0.664262"
       id="path1776" />
    <path
       style="fill:none;stroke:#000000;stroke-width:3.245;stroke-linecap:butt;stroke-linejoin:miter;stroke-miterlimit:4;stroke-dasharray:none;stroke-opacity:1"
       d="M 406.6589,117.21266 V 36.33892"
       id="path4761-5-1"
       inkscape:connector-curvature="0" />
    <path
       inkscape:connector-curvature="0"
       id="path1835"
       d="m 406.6589,160.90741 v 98.83201"
       style="fill:none;stroke:#000000;stroke-width:3.245;stroke-linecap:butt;stroke-linejoin:miter;stroke-miterlimit:4;stroke-dasharray:none;stroke-opacity:1" />
    <path
       d="m 408.30924,164.34087 h -3.29951 v -5.65315 c 0,-0.84094 0.63252,-1.54725 1.46839,-1.63975 1.72663,-0.19093 3.02873,-1.64744 3.02873,-3.38771 0,-1.52349 -1.02395,-2.87343 -2.48992,-3.2829 -0.71291,-0.19918 -1.20597,-0.84874 -1.20597,-1.58893 0,-0.74019 0.49306,-1.38986 1.20597,-1.58893 1.46608,-0.40947 2.48992,-1.7594 2.48992,-3.283 0,-1.5235 -1.02395,-2.87343 -2.48992,-3.2829 -0.71291,-0.19918 -1.20597,-0.84874 -1.20597,-1.58893 0,-0.74019 0.49306,-1.38986 1.20597,-1.58893 1.46608,-0.40947 2.48992,-1.75941 2.48992,-3.2829 0,-1.5236 -1.02395,-2.87354 -2.48992,-3.28301 -0.71291,-0.19918 -1.20597,-0.84874 -1.20597,-1.58893 0,-0.74019 0.49306,-1.38986 1.20597,-1.58893 1.46608,-0.40947 2.48992,-1.7594 2.48992,-3.2829 0,-1.74026 -1.3021,-3.19666 -3.02873,-3.38771 -0.83587,-0.0925 -1.46839,-0.79881 -1.46839,-1.63974 v -5.65315 h 3.29951 v 4.34435 c 2.64433,0.91792 4.49711,3.42543 4.49711,6.33625 0,1.88336 -0.7954,3.63199 -2.10255,4.87183 1.30715,1.23974 2.10255,2.98847 2.10255,4.87194 0,1.88336 -0.7954,3.63198 -2.10255,4.87183 1.30715,1.23973 2.10255,2.98847 2.10255,4.87183 0,1.88346 -0.7954,3.63209 -2.10255,4.87193 1.30715,1.23974 2.10255,2.98847 2.10255,4.87183 0,2.91093 -1.85278,5.41845 -4.49711,6.33626 z"
       id="XMLID_309_"
       inkscape:connector-curvature="0"
       style="stroke-width:0.109983" />
    <path
       style="fill:none;stroke:#000000;stroke-width:3.245;stroke-linecap:butt;stroke-linejoin:miter;stroke-miterlimit:4;stroke-dasharray:none;stroke-opacity:1"
       d="M 186.39815,123.49804 V 36.338912"
       id="path4761-5"
       inkscape:connector-curvature="0" />
    <g
       id="XMLID_1382_"
       transform="matrix(0,0.11308341,-0.11308341,0,212.36814,119.00605)">
      <path
         id="XMLID_1383_"
         d="M 314,410 V 245 H 460 V 215 H 314 V 50 h -30 v 360 z" />
      <path
         id="XMLID_1384_"
         d="M 176,410 V 50 H 146 V 215 H 0 v 30 h 146 v 165 z" />
    </g>
    <g
       id="g2747"
       transform="matrix(0,0.11308341,-0.11308341,0,212.36814,119.00605)" />
    <g
       id="g2749"
       transform="matrix(0,0.11308341,-0.11308341,0,212.36814,119.00605)" />
    <g
       id="g2751"
       transform="matrix(0,0.11308341,-0.11308341,0,212.36814,119.00605)" />
    <g
       id="g2753"
       transform="matrix(0,0.11308341,-0.11308341,0,212.36814,119.00605)" />
    <g
       id="g2755"
       transform="matrix(0,0.11308341,-0.11308341,0,212.36814,119.00605)" />
    <g
       id="g2757"
       transform="matrix(0,0.11308341,-0.11308341,0,212.36814,119.00605)" />
    <g
       id="g2759"
       transform="matrix(0,0.11308341,-0.11308341,0,212.36814,119.00605)" />
    <g
       id="g2761"
       transform="matrix(0,0.11308341,-0.11308341,0,212.36814,119.00605)" />
    <g
       id="g2763"
       transform="matrix(0,0.11308341,-0.11308341,0,212.36814,119.00605)" />
    <g
       id="g2765"
       transform="matrix(0,0.11308341,-0.11308341,0,212.36814,119.00605)" />
    <g
       id="g2767"
       transform="matrix(0,0.11308341,-0.11308341,0,212.36814,119.00605)" />
    <g
       id="g2769"
       transform="matrix(0,0.11308341,-0.11308341,0,212.36814,119.00605)" />
    <g
       id="g2771"
       transform="matrix(0,0.11308341,-0.11308341,0,212.36814,119.00605)" />
    <g
       id="g2773"
       transform="matrix(0,0.11308341,-0.11308341,0,212.36814,119.00605)" />
    <g
       id="g2775"
       transform="matrix(0,0.11308341,-0.11308341,0,212.36814,119.00605)" />
    <path
       style="fill:none;stroke:#000000;stroke-width:3.5;stroke-linecap:butt;stroke-linejoin:miter;stroke-miterlimit:4;stroke-dasharray:none;stroke-opacity:1"
       d="m 203.07487,152.75933 12.14971,-0.0323 v -27.47511"
       id="path4205"
       inkscape:connector-curvature="0" />
    <path
       inkscape:connector-curvature="0"
       id="path4216"
       d="m 170.96992,152.75933 -12.1497,-0.0323 v -27.47511"
       style="fill:none;stroke:#000000;stroke-width:3.5;stroke-linecap:butt;stroke-linejoin:miter;stroke-miterlimit:4;stroke-dasharray:none;stroke-opacity:1" />
    <path
       style="fill:none;stroke:#000000;stroke-width:3.245;stroke-linecap:butt;stroke-linejoin:miter;stroke-miterlimit:4;stroke-dasharray:none;stroke-opacity:1"
       d="M 186.39815,259.08147 V 171.02442"
       id="path4761-5-0"
       inkscape:connector-curvature="0" />
    <path
       d="m 678.16534,540.78021 -2.46154,12.57026 H 641.80021 L 659.2279,532.50944 642.16123,511.66842 H 674.752 l 0.45949,9.74769 h -1.47692 q -0.52513,-2.36308 -1.44411,-3.80718 -0.91897,-1.47692 -2.69128,-2.23179 -1.73948,-0.75488 -4.59487,-0.75488 h -11.61846 l 12.07795,15.95077 -14.50667,17.00103 h 18.47795 q 2.78974,0 4.43077,-1.64103 1.67385,-1.67384 2.82256,-5.15282 z"
       style="font-size:64px;line-height:1.25;font-family:Alfa-beta;-inkscape-font-specification:Alfa-beta;text-align:center;letter-spacing:0px;word-spacing:0px;text-anchor:middle"
       id="path1826" />
    <path
       d="m 718.60072,520.52175 q -0.832,0.32 -1.664,0.32 -0.768,0 -1.088,-0.128 -0.768,-3.968 -3.008,-6.528 h -11.712 v 16.512 l 7.232,-0.32 q 2.496,-0.064 3.584,-4.352 h 2.048 v 12.672 h -2.048 l -0.064,-0.384 q -1.024,-4.16 -3.584,-4.288 l -7.168,-0.384 v 15.744 q 1.984,1.216 6.208,1.728 l -0.256,2.368 h -17.856 l 0.384,-2.368 q 4.288,-0.512 5.888,-1.728 v -34.56 q -2.496,-1.28 -6.272,-1.728 0.256,-1.536 0.32,-2.304 h 28.544 z"
       style="font-size:64px;line-height:1.25;font-family:Caladea;-inkscape-font-specification:Caladea;text-align:center;letter-spacing:0px;word-spacing:0px;text-anchor:middle"
       id="path1819" />
    <path
       d="m 725.57664,541.51375 v -3.392 h 27.52 v 3.392 z m 0,-9.216 v -3.328 h 27.52 v 3.328 z"
       style="font-size:64px;line-height:1.25;font-family:Caladea;-inkscape-font-specification:Caladea;text-align:center;letter-spacing:0px;word-spacing:0px;text-anchor:middle"
       id="path1821" />
    <path
       d="m 766.02458,532.23375 q 0,10.048 2.048,14.336 2.048,4.224 6.912,4.224 4.928,0 6.976,-4.224 2.112,-4.288 2.112,-14.272 0,-10.048 -2.112,-14.272 -2.048,-4.288 -6.912,-4.288 -4.864,0 -6.976,4.224 -2.048,4.224 -2.048,14.272 z m 20.032,16.128 q -3.776,5.568 -11.008,5.568 -7.232,0 -11.072,-5.632 -3.84,-5.632 -3.84,-16.064 0,-10.496 3.84,-16.064 3.84,-5.632 11.072,-5.632 7.232,0 11.008,5.568 3.84,5.568 3.84,16.128 0,10.496 -3.84,16.128 z"
       style="font-size:64px;line-height:1.25;font-family:Caladea;-inkscape-font-specification:Caladea;text-align:center;letter-spacing:0px;word-spacing:0px;text-anchor:middle"
       id="path1823" />
    <path
       inkscape:connector-curvature="0"
       id="path2964-7-2"
       d="m 89.583031,256.76156 v 80.20192"
       style="fill:none;stroke:#000000;stroke-width:2.3;stroke-linecap:butt;stroke-linejoin:miter;stroke-miterlimit:4;stroke-dasharray:none;stroke-opacity:1;marker-start:url(#StopM-2-5);marker-end:url(#marker3108-1-5)" />
    <path
       d="m 20.6726,310.27024 q -1.284414,7.42105 -3.541868,11.33916 -3.308339,5.74743 -5.967984,7.47296 -1.1806224,0.76546 -4.2943528,0.76546 -0.6097722,0 -1.2325182,-0.10379 -0.6097722,-0.1038 -1.2325183,-0.2984 l 0.518955,-2.6337 h 1.2195444 q -0.025948,0.20758 -0.025948,0.40219 0,0.5449 0.2335298,0.85627 0.3243469,0.44112 1.1676489,0.44112 2.2834023,0 4.2684062,-1.98501 L 8.5290515,311.54168 H 6.9592124 l 0.2724514,-1.38821 H 10.79948 l 3.061835,13.68744 q 2.088794,-3.1267 2.594775,-4.41112 1.634709,-4.03487 1.959055,-7.77135 h -1.569839 l 0.272452,-1.3882 z"
       style="font-style:italic;font-size:26.5705px;line-height:1.25;font-family:'DejaVu Serif';-inkscape-font-specification:'DejaVu Serif Italic';letter-spacing:0px;word-spacing:0px;stroke-width:0.664262"
       id="path1765" />
    <path
       d="m 23.233644,319.67046 h -0.944499 l 0.438517,-2.24318 q 0.995097,-0.48069 1.956461,-0.73368 0.969797,-0.25299 1.846831,-0.25299 1.964894,0 2.917825,0.95293 0.952931,0.95293 0.632477,2.58894 -0.354187,1.84683 -3.440673,4.4189 -0.236124,0.19396 -0.362619,0.29516 l -3.794859,3.17925 h 5.253771 l 0.303589,-1.55168 h 0.986663 l -0.573445,2.93469 h -8.120998 l 0.177093,-0.9192 4.562264,-3.81172 q 1.50951,-1.26496 2.251616,-2.31908 0.750539,-1.06256 0.97823,-2.22632 0.244558,-1.27339 -0.278289,-1.99019 -0.522848,-0.71681 -1.686604,-0.71681 -1.205922,0 -1.98176,0.59875 -0.767405,0.59874 -1.121591,1.79623 z"
       style="font-size:17.2708px;line-height:1.25;letter-spacing:0px;word-spacing:0px;baseline-shift:sub;stroke-width:0.664262"
       id="path1767" />
    <path
       d="m 39.860315,328.08337 q -3.152652,-1.41415 -4.761412,-4.47599 -1.608761,-3.07481 -1.608761,-7.68053 0,-4.6187 1.608761,-7.68054 1.60876,-3.07481 4.761412,-4.48896 v 1.27144 q -1.997977,1.37523 -2.867226,3.87919 -0.86925,2.49098 -0.86925,7.01887 0,4.51491 0.86925,7.01886 0.869249,2.49099 2.867226,3.86622 z"
       style="font-size:26.5705px;line-height:1.25;font-family:'DejaVu Serif';-inkscape-font-specification:'DejaVu Serif';letter-spacing:0px;word-spacing:0px;stroke-width:0.664262"
       id="path1769" />
    <path
       d="m 45.309343,311.54168 h -2.101768 l 0.272451,-1.38821 h 2.101768 l 0.830329,-4.28138 h 2.400167 l -0.830328,4.28138 h 4.488961 l -0.272451,1.38821 H 47.70951 l -1.699578,8.75736 q -0.194608,1.02494 -0.194608,1.62174 0,0.41516 0.09082,0.62274 0.246504,0.49301 1.154675,0.49301 0.93412,0 1.466048,-0.5449 0.544903,-0.55788 0.804381,-1.7904 h 1.803369 q -0.46706,1.88122 -1.556866,2.75046 -1.089805,0.86925 -2.971017,0.86925 -2.062847,0 -2.750462,-0.92114 -0.415164,-0.55788 -0.415164,-1.59579 0,-0.66167 0.16866,-1.50497 z"
       style="font-style:italic;font-size:26.5705px;line-height:1.25;font-family:'DejaVu Serif';-inkscape-font-specification:'DejaVu Serif Italic';letter-spacing:0px;word-spacing:0px;stroke-width:0.664262"
       id="path1771" />
    <path
       d="m 54.313215,328.08337 v -1.27144 q 1.997977,-1.37523 2.867226,-3.86622 0.882224,-2.50395 0.882224,-7.01886 0,-4.52789 -0.882224,-7.01887 -0.869249,-2.50396 -2.867226,-3.87919 v -1.27144 q 3.165626,1.41415 4.774386,4.48896 1.608761,3.06184 1.608761,7.68054 0,4.60572 -1.608761,7.68053 -1.60876,3.06184 -4.774386,4.47599 z"
       style="font-size:26.5705px;line-height:1.25;font-family:'DejaVu Serif';-inkscape-font-specification:'DejaVu Serif';letter-spacing:0px;word-spacing:0px;stroke-width:0.664262"
       id="path1773" />
    <path
       style="fill:none;stroke:#000000;stroke-width:3.245;stroke-linecap:butt;stroke-linejoin:miter;stroke-miterlimit:4;stroke-dasharray:none;stroke-opacity:1"
       d="M 626.91957,123.49804 V 36.33891"
       id="path4761-5-6"
       inkscape:connector-curvature="0" />
    <g
       id="XMLID_1382_-5"
       transform="matrix(0,0.11308341,-0.11308341,0,652.88956,119.00605)">
      <path
         id="XMLID_1383_-3"
         d="m 314,50 h -30 v 360 h 30 V 245 H 460 V 215 H 314 Z" />
      <path
         id="XMLID_1384_-5"
         d="m 0,245 h 146 v 165 h 30 V 50 H 146 V 215 H 0 Z" />
    </g>
    <g
       id="g2747-6"
       transform="matrix(0,0.11308341,-0.11308341,0,652.88956,119.00605)" />
    <g
       id="g2749-2"
       transform="matrix(0,0.11308341,-0.11308341,0,652.88956,119.00605)" />
    <g
       id="g2751-9"
       transform="matrix(0,0.11308341,-0.11308341,0,652.88956,119.00605)" />
    <g
       id="g2753-1"
       transform="matrix(0,0.11308341,-0.11308341,0,652.88956,119.00605)" />
    <g
       id="g2755-2"
       transform="matrix(0,0.11308341,-0.11308341,0,652.88956,119.00605)" />
    <g
       id="g2757-7"
       transform="matrix(0,0.11308341,-0.11308341,0,652.88956,119.00605)" />
    <g
       id="g2759-0"
       transform="matrix(0,0.11308341,-0.11308341,0,652.88956,119.00605)" />
    <g
       id="g2761-9"
       transform="matrix(0,0.11308341,-0.11308341,0,652.88956,119.00605)" />
    <g
       id="g2763-3"
       transform="matrix(0,0.11308341,-0.11308341,0,652.88956,119.00605)" />
    <g
       id="g2765-6"
       transform="matrix(0,0.11308341,-0.11308341,0,652.88956,119.00605)" />
    <g
       id="g2767-0"
       transform="matrix(0,0.11308341,-0.11308341,0,652.88956,119.00605)" />
    <g
       id="g2769-6"
       transform="matrix(0,0.11308341,-0.11308341,0,652.88956,119.00605)" />
    <g
       id="g2771-2"
       transform="matrix(0,0.11308341,-0.11308341,0,652.88956,119.00605)" />
    <g
       id="g2773-6"
       transform="matrix(0,0.11308341,-0.11308341,0,652.88956,119.00605)" />
    <g
       id="g2775-1"
       transform="matrix(0,0.11308341,-0.11308341,0,652.88956,119.00605)" />
    <path
       style="fill:none;stroke:#000000;stroke-width:3.5;stroke-linecap:butt;stroke-linejoin:miter;stroke-miterlimit:4;stroke-dasharray:none;stroke-opacity:1"
       d="m 643.59629,152.75933 12.14971,-0.0323 v -27.47511"
       id="path4205-8"
       inkscape:connector-curvature="0" />
    <path
       inkscape:connector-curvature="0"
       id="path4216-7"
       d="m 611.49134,152.75933 -12.1497,-0.0323 v -27.47511"
       style="fill:none;stroke:#000000;stroke-width:3.5;stroke-linecap:butt;stroke-linejoin:miter;stroke-miterlimit:4;stroke-dasharray:none;stroke-opacity:1" />
    <path
       style="fill:none;stroke:#000000;stroke-width:3.245;stroke-linecap:butt;stroke-linejoin:miter;stroke-miterlimit:4;stroke-dasharray:none;stroke-opacity:1"
       d="M 626.91957,259.08147 V 171.02442"
       id="path4761-5-0-9"
       inkscape:connector-curvature="0" />
    <path
       id="rect1696"
       style="fill:#ffffff;stroke:#0000ff;stroke-width:6.9;stroke-linecap:round;stroke-linejoin:bevel"
       d="m 129.80428,257.05316 h 556.31213 v 70.2585 H 129.80428 Z" />
    <path
       d="m 393.80169,302.93048 h -1.85265 l -4.11699,-17.56585 -2.19573,15.40443 q 1.13217,0.65186 3.08774,0.89201 l -0.13723,1.26941 h -8.23399 l 0.17154,-1.26941 q 1.81834,-0.20585 2.9162,-0.89201 l 2.95052,-18.56079 q -1.13218,-0.68617 -2.91621,-0.89202 l 0.17154,-1.26941 h 5.93534 l 4.35715,18.90388 10.36111,-18.90388 h 5.52364 l -0.17154,1.26941 q -1.74973,0.20585 -2.91621,0.89202 l -2.95051,18.56079 q 1.13217,0.65186 3.08774,0.89201 l -0.13723,1.26941 h -9.05739 l 0.17154,-1.26941 q 1.81834,-0.24015 2.91621,-0.89201 l 2.67604,-15.40443 z"
       style="font-style:italic;font-size:34.3083px;line-height:1.25;font-family:Caladea;-inkscape-font-specification:'Caladea Italic';text-align:center;letter-spacing:0px;word-spacing:0px;text-anchor:middle;stroke-width:0.536067"
       id="path1759" />
    <path
       d="m 417.46583,297.90603 q 0,-0.89201 -0.53521,-1.38262 -0.5129,-0.51291 -1.49412,-0.51291 -0.95892,0 -1.67253,0.64671 -0.71361,0.62441 -0.71361,1.56103 0,0.53521 0.2899,0.98121 -0.55751,0.49061 -1.11502,0.49061 -1.22652,0 -1.22652,-1.22652 0,-1.53873 1.40492,-2.58684 1.42723,-1.04812 3.21126,-1.04812 1.80633,0 2.83215,0.89201 1.02582,0.89202 1.02582,2.49765 0,2.14083 -1.73943,4.41547 -1.71713,2.27464 -5.97651,5.5305 h 6.75702 l -0.223,1.62793 h -9.14316 l 0.2007,-1.27112 q 4.68308,-3.92487 6.40021,-6.19951 1.71713,-2.29694 1.71713,-4.41548 z"
       style="font-size:8.36264px;line-height:1.25;font-family:Caladea;-inkscape-font-specification:Caladea;text-align:center;letter-spacing:0px;word-spacing:0px;baseline-shift:sub;text-anchor:middle;stroke-width:0.536067"
       id="path1761" />
    <path
       style="fill:none;stroke:#000000;stroke-width:3.245;stroke-linecap:butt;stroke-linejoin:miter;stroke-miterlimit:4;stroke-dasharray:none;stroke-opacity:1"
       d="M 408.09726,373.59507 V 327.73995"
       id="path4761-5-1-0"
       inkscape:connector-curvature="0" />
    <path
       inkscape:connector-curvature="0"
       id="path1835-2"
       d="M 408.09726,417.28982 V 460.4512"
       style="fill:none;stroke:#000000;stroke-width:3.245;stroke-linecap:butt;stroke-linejoin:miter;stroke-miterlimit:4;stroke-dasharray:none;stroke-opacity:1" />
    <path
       d="m 409.7476,420.72328 h -3.29951 v -5.65315 c 0,-0.84094 0.63252,-1.54725 1.46839,-1.63975 1.72663,-0.19093 3.02873,-1.64744 3.02873,-3.38771 0,-1.52349 -1.02395,-2.87343 -2.48992,-3.2829 -0.71291,-0.19918 -1.20597,-0.84874 -1.20597,-1.58893 0,-0.74019 0.49306,-1.38986 1.20597,-1.58893 1.46608,-0.40947 2.48992,-1.7594 2.48992,-3.283 0,-1.5235 -1.02395,-2.87343 -2.48992,-3.2829 -0.71291,-0.19918 -1.20597,-0.84874 -1.20597,-1.58893 0,-0.74019 0.49306,-1.38986 1.20597,-1.58893 1.46608,-0.40947 2.48992,-1.75941 2.48992,-3.2829 0,-1.5236 -1.02395,-2.87354 -2.48992,-3.28301 -0.71291,-0.19918 -1.20597,-0.84874 -1.20597,-1.58893 0,-0.74019 0.49306,-1.38986 1.20597,-1.58893 1.46608,-0.40947 2.48992,-1.7594 2.48992,-3.2829 0,-1.74026 -1.3021,-3.19666 -3.02873,-3.38771 -0.83587,-0.0925 -1.46839,-0.79881 -1.46839,-1.63974 v -5.65315 h 3.29951 v 4.34435 c 2.64433,0.91792 4.49711,3.42543 4.49711,6.33625 0,1.88336 -0.7954,3.63199 -2.10255,4.87183 1.30715,1.23974 2.10255,2.98847 2.10255,4.87194 0,1.88336 -0.7954,3.63198 -2.10255,4.87183 1.30715,1.23973 2.10255,2.98847 2.10255,4.87183 0,1.88346 -0.7954,3.63209 -2.10255,4.87193 1.30715,1.23974 2.10255,2.98847 2.10255,4.87183 0,2.91093 -1.85278,5.41845 -4.49711,6.33626 z"
       id="XMLID_309_-3"
       inkscape:connector-curvature="0"
       style="stroke-width:0.109983" />
    <path
       d="m 681.24697,140.94394 -1.20079,6.34704 q -0.10293,0.446 -0.30878,1.06355 -0.17154,0.61755 -0.44601,1.50957 h -2.98482 q 0.54894,-1.74972 0.78909,-2.60743 0.54894,-1.78403 0.68617,-2.60743 l 4.01407,-22.47194 q 0.30878,-1.81834 1.68111,-3.08775 0.68616,-0.65185 2.23004,-1.47525 1.54387,-0.8234 3.39652,-0.8234 2.77897,0 4.66593,1.78403 0.44601,0.4117 0.78909,1.09787 0.48031,0.92632 0.48031,1.88695 0,0.68617 -0.24015,1.40664 -0.51463,1.57818 -1.54388,2.71036 -0.61755,0.68616 -2.02419,1.71541 1.50957,0.78909 2.29866,1.98988 0.8234,1.20079 1.06356,3.25929 0.0686,0.54894 0.0686,0.96064 0,1.98988 -0.8234,3.91114 -0.96063,2.29866 -2.64174,3.63668 -1.09786,0.89202 -2.33296,1.26941 -1.20079,0.4117 -2.60743,0.4117 -0.58324,0 -0.89202,-0.0343 -0.37739,-0.10293 -0.51462,-0.10293 -1.81834,-0.30877 -3.60237,-1.74972 z m 3.29359,-19.21265 -3.08774,17.29139 q 0.37739,0.446 0.8234,0.92632 0.446,0.44601 1.13217,0.72047 0.68617,0.27447 1.20079,0.4117 0.54893,0.10293 1.20079,0.10293 1.02925,0 1.98988,-0.48032 0.96064,-0.48031 1.6468,-1.37233 0.58324,-0.72047 0.89202,-1.6468 0.72047,-1.88695 0.72047,-4.04838 0,-2.74466 -1.20079,-4.46008 -0.24016,-0.37739 -0.54893,-0.54893 -0.27447,-0.20585 -0.75478,-0.20585 -0.27447,0.0343 -0.4117,0.0343 -0.3774,0.0686 -0.65186,0.10292 -0.24016,0 -0.58324,0 -0.54894,0 -0.8234,-0.17154 -0.48032,-0.27446 -0.48032,-0.65185 0,-0.30878 0.20585,-0.54894 0.20585,-0.27446 0.54893,-0.51462 0.34309,-0.24016 1.02925,-0.24016 0.4117,0 0.92633,0.10293 0.54893,0.0686 0.72047,0.10292 0.37739,0.0343 0.75478,-0.27447 0.4117,-0.446 0.58325,-0.61755 0.51462,-0.54893 0.92632,-1.71541 0.44601,-1.20079 0.44601,-2.43589 0,-0.96063 -0.24016,-1.61249 -0.20585,-0.65186 -0.8234,-1.20079 -0.92632,-0.8234 -2.02419,-0.8234 -0.27447,0 -0.58324,0.0686 -0.27447,0.0686 -0.51462,0.13723 -1.02925,0.37739 -1.92127,1.40664 -0.89202,0.99494 -1.09787,2.16142 z"
       style="font-style:italic;font-size:34.3083px;line-height:1.25;font-family:Atene;-inkscape-font-specification:'Atene Italic';text-align:center;letter-spacing:0px;word-spacing:0px;text-anchor:middle;stroke-width:0.536067"
       id="path1814" />
    <path
       d="m 698.70598,156.91867 h -1.45307 v -3.45105 q 1.3882,-0.73951 2.78938,-1.12873 1.41415,-0.38921 2.76343,-0.38921 3.02292,0 4.77439,1.46604 1.75147,1.46605 1.75147,3.98298 0,2.84128 -3.97,6.79831 -0.31137,0.2984 -0.46706,0.45409 l -4.89115,4.89115 h 8.08272 v -2.38719 h 1.51795 v 4.51491 h -12.49385 v -1.41415 l 5.87717,-5.8642 q 1.94608,-1.94608 2.77641,-3.56781 0.83033,-1.63471 0.83033,-3.42511 0,-1.95905 -1.02494,-3.06183 -1.01196,-1.10278 -2.80236,-1.10278 -1.85526,0 -2.86722,0.92114 -1.01197,0.92115 -1.1936,2.76344 z"
       style="font-size:26.5705px;line-height:1.25;font-family:'DejaVu Serif';-inkscape-font-specification:'DejaVu Serif';letter-spacing:0px;word-spacing:0px;stroke-width:0.664262"
       id="path1811" />
    <path
       style="fill:none;stroke:#000000;stroke-width:2.2;stroke-linecap:butt;stroke-linejoin:miter;stroke-miterlimit:4;stroke-dasharray:none;stroke-opacity:1"
       d="m 709.75765,133.25175 -33.22279,31.42697"
       id="path2138"
       inkscape:connector-curvature="0" />
    <path
       d="m 109.81084,140.94394 -1.20079,6.34704 q -0.10292,0.446 -0.30877,1.06355 -0.17155,0.61755 -0.44601,1.50957 h -2.98482 q 0.54893,-1.74972 0.78909,-2.60743 0.54893,-1.78403 0.68616,-2.60743 l 4.01407,-22.47194 q 0.30878,-1.81834 1.68111,-3.08775 0.68617,-0.65185 2.23004,-1.47525 1.54387,-0.8234 3.39652,-0.8234 2.77897,0 4.66593,1.78403 0.44601,0.4117 0.78909,1.09787 0.48032,0.92632 0.48032,1.88695 0,0.68617 -0.24016,1.40664 -0.51462,1.57818 -1.54387,2.71036 -0.61755,0.68616 -2.02419,1.71541 1.50956,0.78909 2.29865,1.98988 0.8234,1.20079 1.06356,3.25929 0.0686,0.54894 0.0686,0.96064 0,1.98988 -0.8234,3.91114 -0.96064,2.29866 -2.64174,3.63668 -1.09787,0.89202 -2.33297,1.26941 -1.20079,0.4117 -2.60743,0.4117 -0.58324,0 -0.89201,-0.0343 -0.37739,-0.10293 -0.51463,-0.10293 -1.81834,-0.30877 -3.60237,-1.74972 z m 3.2936,-19.21265 -3.08775,17.29139 q 0.37739,0.446 0.8234,0.92632 0.44601,0.44601 1.13217,0.72047 0.68617,0.27447 1.20079,0.4117 0.54894,0.10293 1.2008,0.10293 1.02924,0 1.98988,-0.48032 0.96063,-0.48031 1.64679,-1.37233 0.58325,-0.72047 0.89202,-1.6468 0.72048,-1.88695 0.72048,-4.04838 0,-2.74466 -1.2008,-4.46008 -0.24015,-0.37739 -0.54893,-0.54893 -0.27446,-0.20585 -0.75478,-0.20585 -0.27447,0.0343 -0.4117,0.0343 -0.37739,0.0686 -0.65186,0.10292 -0.24016,0 -0.58324,0 -0.54893,0 -0.8234,-0.17154 -0.48031,-0.27446 -0.48031,-0.65185 0,-0.30878 0.20585,-0.54894 0.20584,-0.27446 0.54893,-0.51462 0.34308,-0.24016 1.02925,-0.24016 0.4117,0 0.92632,0.10293 0.54893,0.0686 0.72048,0.10292 0.37739,0.0343 0.75478,-0.27447 0.4117,-0.446 0.58324,-0.61755 0.51462,-0.54893 0.92632,-1.71541 0.44601,-1.20079 0.44601,-2.43589 0,-0.96063 -0.24016,-1.61249 -0.20585,-0.65186 -0.8234,-1.20079 -0.92632,-0.8234 -2.02419,-0.8234 -0.27446,0 -0.58324,0.0686 -0.27446,0.0686 -0.51462,0.13723 -1.02925,0.37739 -1.92127,1.40664 -0.89201,0.99494 -1.09786,2.16142 z"
       style="font-style:italic;font-size:34.3083px;line-height:1.25;font-family:Atene;-inkscape-font-specification:'Atene Italic';text-align:center;letter-spacing:0px;word-spacing:0px;text-anchor:middle;stroke-width:0.536067"
       id="path1808" />
    <path
       d="m 127.26985,156.91867 h -1.45307 v -3.45105 q 1.3882,-0.73951 2.78938,-1.12873 1.41415,-0.38921 2.76344,-0.38921 3.02291,0 4.77438,1.46604 1.75148,1.46605 1.75148,3.98298 0,2.84128 -3.97001,6.79831 -0.31137,0.2984 -0.46706,0.45409 l -4.89115,4.89115 h 8.08273 v -2.38719 h 1.51794 v 4.51491 h -12.49384 v -1.41415 l 5.87716,-5.8642 q 1.94608,-1.94608 2.77641,-3.56781 0.83033,-1.63471 0.83033,-3.42511 0,-1.95905 -1.02494,-3.06183 -1.01196,-1.10278 -2.80235,-1.10278 -1.85527,0 -2.86723,0.92114 -1.01196,0.92115 -1.1936,2.76344 z"
       style="font-size:26.5705px;line-height:1.25;font-family:'DejaVu Serif';-inkscape-font-specification:'DejaVu Serif';letter-spacing:0px;word-spacing:0px;stroke-width:0.664262"
       id="path1805" />
    <path
       style="fill:none;stroke:#000000;stroke-width:2.2;stroke-linecap:butt;stroke-linejoin:miter;stroke-miterlimit:4;stroke-dasharray:none;stroke-opacity:1"
       d="m 138.32151,133.25175 -33.22279,31.42697"
       id="path2138-7"
       inkscape:connector-curvature="0" />
    <path
       d="m 464.74767,157.51524 v 1.776 h -9.96 v -1.392 q 4.032,-3.816 5.568,-6.12 1.536,-2.304 1.536,-4.392 0,-3 -2.472,-3 -1.128,0 -1.776,0.552 -0.648,0.552 -0.648,1.416 0,0.84 0.504,1.488 -0.528,0.528 -1.2,0.528 -0.648,0 -1.104,-0.456 -0.432,-0.456 -0.432,-1.368 0,-1.656 1.32,-2.496 1.344,-0.864 3.48,-0.864 2.136,0 3.336,1.152 1.224,1.152 1.224,3.264 0,2.112 -1.56,4.44 -1.56,2.304 -5.256,5.472 z"
       id="path1756"
       style="font-size:24px;line-height:1.25;font-family:Caladea;-inkscape-font-specification:Caladea;text-align:center;letter-spacing:0px;word-spacing:0px;text-anchor:middle" />
    <path
       d="m 433.28306,400.82837 v -1.37523 h 2.46504 v -16.60656 h -2.46504 v -1.38821 h 7.56377 v 1.38821 h -2.46503 v 7.33024 l 8.3422,-7.33024 h -2.10177 v -1.38821 h 6.43505 v 1.38821 h -2.17962 l -8.31625,7.30429 9.30227,9.30227 h 2.20556 v 1.37523 h -4.50194 l -9.1855,-9.19848 v 7.82325 h 2.46503 v 1.37523 z"
       style="font-size:26.5705px;line-height:1.25;font-family:'DejaVu Serif';-inkscape-font-specification:'DejaVu Serif';letter-spacing:0px;word-spacing:0px;stroke-width:0.664262"
       id="path1753" />
    <path
       d="m 457.63467,397.49435 h -3.216 v -1.032 q 2.424,-0.216 4.536,-1.344 l 0.792,0.36 v 14.208 q 0.792,0.432 3,0.72 l -0.072,0.816 h -8.352 l 0.048,-0.816 q 2.136,-0.24 3.264,-0.72 z"
       id="path1750"
       style="font-size:24px;line-height:1.25;font-family:Caladea;-inkscape-font-specification:Caladea;text-align:center;letter-spacing:0px;word-spacing:0px;text-anchor:middle" />
  </g>
</svg>
