<?xml version="1.0" encoding="UTF-8" standalone="no"?>
<!-- Created with Inkscape (http://www.inkscape.org/) -->

<svg
   xmlns:dc="http://purl.org/dc/elements/1.1/"
   xmlns:cc="http://creativecommons.org/ns#"
   xmlns:rdf="http://www.w3.org/1999/02/22-rdf-syntax-ns#"
   xmlns:svg="http://www.w3.org/2000/svg"
   xmlns="http://www.w3.org/2000/svg"
   xmlns:sodipodi="http://sodipodi.sourceforge.net/DTD/sodipodi-0.dtd"
   xmlns:inkscape="http://www.inkscape.org/namespaces/inkscape"
   version="1.0"
   width="764.08801"
   height="213.21181"
   id="svg2"
   sodipodi:version="0.32"
   inkscape:version="0.92.3 (2405546, 2018-03-11)"
   sodipodi:docname="pid5.svg">
  <metadata
     id="metadata2729">
    <rdf:RDF>
      <cc:Work
         rdf:about="">
        <dc:format>image/svg+xml</dc:format>
        <dc:type
           rdf:resource="http://purl.org/dc/dcmitype/StillImage" />
        <dc:source>http://commons.mediawiki.org/wiki/Image:Zusatzzeichen_1048-10.svg</dc:source>
        <dc:creator>
          <cc:Agent>
            <dc:title>Purodha Blissenbach</dc:title>
          </cc:Agent>
        </dc:creator>
        <dc:title></dc:title>
        <cc:license
           rdf:resource="http://web.resource.org/cc/PublicDomain" />
      </cc:Work>
      <cc:License
         rdf:about="http://web.resource.org/cc/PublicDomain">
        <cc:permits
           rdf:resource="http://web.resource.org/cc/Reproduction" />
        <cc:permits
           rdf:resource="http://web.resource.org/cc/Distribution" />
        <cc:permits
           rdf:resource="http://web.resource.org/cc/DerivativeWorks" />
      </cc:License>
    </rdf:RDF>
  </metadata>
  <sodipodi:namedview
     inkscape:window-height="1012"
     inkscape:window-width="1920"
     inkscape:pageshadow="2"
     inkscape:pageopacity="1"
     guidetolerance="10.0"
     gridtolerance="10.0"
     objecttolerance="10.0"
     borderopacity="1.0"
     bordercolor="#666666"
     pagecolor="white"
     id="base"
     inkscape:zoom="1.3512555"
     inkscape:cx="443.36379"
     inkscape:cy="83.497952"
     inkscape:window-x="0"
     inkscape:window-y="40"
     inkscape:current-layer="svg2"
     inkscape:showpageshadow="false"
     showgrid="false"
     height="360px"
     width="800px"
     inkscape:window-maximized="1"
     fit-margin-top="0"
     fit-margin-left="0"
     fit-margin-right="0"
     fit-margin-bottom="0">
    <inkscape:grid
       id="GridFromPre046Settings"
       type="xygrid"
       originx="549.55431"
       originy="-336.78535"
       spacingx="1.0666667"
       spacingy="1.0666667"
       color="#0000ff"
       empcolor="#0000ff"
       opacity="0.2"
       empopacity="0.4"
       empspacing="20"
       visible="true"
       enabled="true"
       snapvisiblegridlinesonly="true" />
  </sodipodi:namedview>
  <defs
     id="defs4">
    <marker
       inkscape:isstock="true"
       style="overflow:visible"
       id="marker7958"
       refX="0"
       refY="0"
       orient="auto"
       inkscape:stockid="Arrow1Mend">
      <path
         inkscape:connector-curvature="0"
         transform="matrix(-0.4,0,0,-0.4,-4,0)"
         style="fill:#000000;fill-opacity:1;fill-rule:evenodd;stroke:#000000;stroke-width:1.00000003pt;stroke-opacity:1"
         d="M 0,0 5,-5 -12.5,0 5,5 Z"
         id="path7956" />
    </marker>
    <marker
       inkscape:stockid="DotM"
       orient="auto"
       refY="0"
       refX="0"
       id="DotM"
       style="overflow:visible"
       inkscape:isstock="true">
      <path
         id="path1029"
         d="m -2.5,-1 c 0,2.76 -2.24,5 -5,5 -2.76,0 -5,-2.24 -5,-5 0,-2.76 2.24,-5 5,-5 2.76,0 5,2.24 5,5 z"
         style="fill:#000000;fill-opacity:1;fill-rule:evenodd;stroke:#000000;stroke-width:1.00000003pt;stroke-opacity:1"
         transform="matrix(0.4,0,0,0.4,2.96,0.4)"
         inkscape:connector-curvature="0" />
    </marker>
    <marker
       inkscape:stockid="DotL"
       orient="auto"
       refY="0"
       refX="0"
       id="DotL"
       style="overflow:visible"
       inkscape:isstock="true">
      <path
         id="path1026"
         d="m -2.5,-1 c 0,2.76 -2.24,5 -5,5 -2.76,0 -5,-2.24 -5,-5 0,-2.76 2.24,-5 5,-5 2.76,0 5,2.24 5,5 z"
         style="fill:#000000;fill-opacity:1;fill-rule:evenodd;stroke:#000000;stroke-width:1.00000003pt;stroke-opacity:1"
         transform="matrix(0.8,0,0,0.8,5.92,0.8)"
         inkscape:connector-curvature="0" />
    </marker>
    <marker
       inkscape:stockid="Arrow1Mend"
       orient="auto"
       refY="0"
       refX="0"
       id="marker1255"
       style="overflow:visible"
       inkscape:isstock="true">
      <path
         id="path1253"
         d="M 0,0 5,-5 -12.5,0 5,5 Z"
         style="fill:#000000;fill-opacity:1;fill-rule:evenodd;stroke:#000000;stroke-width:1.00000003pt;stroke-opacity:1"
         transform="matrix(-0.4,0,0,-0.4,-4,0)"
         inkscape:connector-curvature="0" />
    </marker>
    <marker
       inkscape:stockid="Arrow1Mend"
       orient="auto"
       refY="0"
       refX="0"
       id="Arrow1Mend"
       style="overflow:visible"
       inkscape:isstock="true">
      <path
         id="path974"
         d="M 0,0 5,-5 -12.5,0 5,5 Z"
         style="fill:#000000;fill-opacity:1;fill-rule:evenodd;stroke:#000000;stroke-width:1.00000003pt;stroke-opacity:1"
         transform="matrix(-0.4,0,0,-0.4,-4,0)"
         inkscape:connector-curvature="0" />
    </marker>
    <marker
       inkscape:stockid="DotL"
       orient="auto"
       refY="0"
       refX="0"
       id="DotL-0"
       style="overflow:visible"
       inkscape:isstock="true">
      <path
         inkscape:connector-curvature="0"
         id="path1026-0"
         d="m -2.5,-1 c 0,2.76 -2.24,5 -5,5 -2.76,0 -5,-2.24 -5,-5 0,-2.76 2.24,-5 5,-5 2.76,0 5,2.24 5,5 z"
         style="fill:#000000;fill-opacity:1;fill-rule:evenodd;stroke:#000000;stroke-width:1.00000003pt;stroke-opacity:1"
         transform="matrix(0.8,0,0,0.8,5.92,0.8)" />
    </marker>
    <marker
       inkscape:stockid="Arrow1Mend"
       orient="auto"
       refY="0"
       refX="0"
       id="marker1255-7"
       style="overflow:visible"
       inkscape:isstock="true"
       inkscape:collect="always">
      <path
         id="path1253-0"
         d="M 0,0 5,-5 -12.5,0 5,5 Z"
         style="fill:#000000;fill-opacity:1;fill-rule:evenodd;stroke:#000000;stroke-width:1.00000003pt;stroke-opacity:1"
         transform="matrix(-0.4,0,0,-0.4,-4,0)"
         inkscape:connector-curvature="0" />
    </marker>
    <marker
       inkscape:stockid="Arrow1Mend"
       orient="auto"
       refY="0"
       refX="0"
       id="marker1255-7-6"
       style="overflow:visible"
       inkscape:isstock="true">
      <path
         id="path1253-0-3"
         d="M 0,0 5,-5 -12.5,0 5,5 Z"
         style="fill:#000000;fill-opacity:1;fill-rule:evenodd;stroke:#000000;stroke-width:1.00000003pt;stroke-opacity:1"
         transform="matrix(-0.4,0,0,-0.4,-4,0)"
         inkscape:connector-curvature="0" />
    </marker>
    <marker
       inkscape:stockid="Arrow1Mend"
       orient="auto"
       refY="0"
       refX="0"
       id="marker1255-7-6-8"
       style="overflow:visible"
       inkscape:isstock="true">
      <path
         id="path1253-0-3-7"
         d="M 0,0 5,-5 -12.5,0 5,5 Z"
         style="fill:#000000;fill-opacity:1;fill-rule:evenodd;stroke:#000000;stroke-width:1.00000003pt;stroke-opacity:1"
         transform="matrix(-0.4,0,0,-0.4,-4,0)"
         inkscape:connector-curvature="0" />
    </marker>
    <marker
       inkscape:stockid="Arrow1Mend"
       orient="auto"
       refY="0"
       refX="0"
       id="marker1255-7-6-1"
       style="overflow:visible"
       inkscape:isstock="true">
      <path
         id="path1253-0-3-9"
         d="M 0,0 5,-5 -12.5,0 5,5 Z"
         style="fill:#000000;fill-opacity:1;fill-rule:evenodd;stroke:#000000;stroke-width:1.00000003pt;stroke-opacity:1"
         transform="matrix(-0.4,0,0,-0.4,-4,0)"
         inkscape:connector-curvature="0" />
    </marker>
  </defs>
  <g
     id="g8291">
    <text
       id="text2225"
       y="40.771835"
       x="739.66479"
       style="font-style:normal;font-variant:normal;font-weight:normal;font-stretch:normal;font-size:12.86561871px;line-height:1.25;font-family:Caladea;-inkscape-font-specification:Caladea;text-align:center;letter-spacing:0px;word-spacing:0px;text-anchor:middle;fill:#000000;fill-opacity:1;stroke:none;stroke-width:0.53606743"
       xml:space="preserve"><tspan
         style="font-style:italic;font-variant:normal;font-weight:normal;font-stretch:normal;font-size:34.30831528px;font-family:Caladea;-inkscape-font-specification:'Caladea Italic';stroke-width:0.53606743"
         y="40.771835"
         x="739.66479"
         id="tspan2223"
         sodipodi:role="line">y(s)</tspan></text>
    <path
       inkscape:connector-curvature="0"
       id="path963-6"
       d="M 600.5303,64.018253 H 725.32028"
       style="fill:none;stroke:#000000;stroke-width:3.70000005;stroke-linecap:butt;stroke-linejoin:miter;stroke-miterlimit:4;stroke-dasharray:none;stroke-opacity:1;marker-end:url(#marker1255-7)" />
    <path
       inkscape:connector-curvature="0"
       id="path963-6-8"
       d="M 356.60209,64.018253 H 457.85534"
       style="fill:none;stroke:#000000;stroke-width:3.70000005;stroke-linecap:butt;stroke-linejoin:miter;stroke-miterlimit:4;stroke-dasharray:none;stroke-opacity:1;marker-end:url(#marker1255-7-6)" />
    <g
       transform="translate(245.53436,16.412933)"
       id="g5774">
      <text
         xml:space="preserve"
         style="font-style:normal;font-variant:normal;font-weight:normal;font-stretch:normal;font-size:12.86561871px;line-height:1.25;font-family:Caladea;-inkscape-font-specification:Caladea;text-align:center;letter-spacing:0px;word-spacing:0px;text-anchor:middle;fill:#000000;fill-opacity:1;stroke:none;stroke-width:0.53606743"
         x="287.43842"
         y="57.297424"
         id="text2225-3"><tspan
           sodipodi:role="line"
           id="tspan2223-7"
           x="287.43842"
           y="57.297424"
           style="font-style:italic;font-variant:normal;font-weight:normal;font-stretch:normal;font-size:34.30831528px;font-family:Caladea;-inkscape-font-specification:'Caladea Italic';stroke-width:0.53606743">G(s)</tspan></text>
      <rect
         style="opacity:1;fill:none;fill-opacity:1;stroke:#0000ff;stroke-width:3.70000005;stroke-linecap:round;stroke-linejoin:bevel;stroke-miterlimit:4;stroke-dasharray:none;stroke-dashoffset:0;stroke-opacity:1"
         id="rect4786"
         width="136.48283"
         height="80.812202"
         x="219.00668"
         y="7.1992192" />
    </g>
    <text
       id="text2225-1"
       y="42.041245"
       x="408.50339"
       style="font-style:normal;font-variant:normal;font-weight:normal;font-stretch:normal;font-size:12.86561871px;line-height:1.25;font-family:Caladea;-inkscape-font-specification:Caladea;text-align:center;letter-spacing:0px;word-spacing:0px;text-anchor:middle;fill:#000000;fill-opacity:1;stroke:none;stroke-width:0.53606743"
       xml:space="preserve"><tspan
         style="font-style:italic;font-variant:normal;font-weight:normal;font-stretch:normal;font-size:34.30831528px;font-family:Caladea;-inkscape-font-specification:'Caladea Italic';stroke-width:0.53606743"
         y="42.041245"
         x="408.50339"
         id="tspan2223-3"
         sodipodi:role="line">u(s)</tspan></text>
    <g
       transform="translate(2.19984,-123.71573)"
       id="g5769">
      <text
         xml:space="preserve"
         style="font-style:normal;font-variant:normal;font-weight:normal;font-stretch:normal;font-size:12.86561871px;line-height:1.25;font-family:Caladea;-inkscape-font-specification:Caladea;text-align:center;letter-spacing:0px;word-spacing:0px;text-anchor:middle;fill:#000000;fill-opacity:1;stroke:none;stroke-width:0.53606743"
         x="287.72253"
         y="197.42609"
         id="text2225-3-4"><tspan
           sodipodi:role="line"
           id="tspan2223-7-1"
           x="287.72253"
           y="197.42609"
           style="font-style:italic;font-variant:normal;font-weight:normal;font-stretch:normal;font-size:34.30831528px;font-family:Caladea;-inkscape-font-specification:'Caladea Italic';stroke-width:0.53606743">H(s)</tspan></text>
      <rect
         style="opacity:1;fill:none;fill-opacity:1;stroke:#0000ff;stroke-width:3.70000005;stroke-linecap:round;stroke-linejoin:bevel;stroke-miterlimit:4;stroke-dasharray:none;stroke-dashoffset:0;stroke-opacity:1"
         id="rect4786-4"
         width="136.48283"
         height="80.812202"
         x="218.19295"
         y="147.32788" />
    </g>
    <g
       transform="translate(245.53436,16.412933)"
       id="g6435">
      <circle
         style="opacity:1;fill:none;fill-opacity:1;stroke:#0000ff;stroke-width:3.70000005;stroke-linecap:round;stroke-linejoin:bevel;stroke-miterlimit:4;stroke-dasharray:none;stroke-dashoffset:0;stroke-opacity:1"
         id="path6412"
         cx="-105.95377"
         cy="47.605324"
         r="15.264527" />
      <text
         xml:space="preserve"
         style="font-style:normal;font-variant:normal;font-weight:normal;font-stretch:normal;font-size:12.86561871px;line-height:1.25;font-family:Caladea;-inkscape-font-specification:Caladea;text-align:center;letter-spacing:0px;word-spacing:0px;text-anchor:middle;fill:#000000;fill-opacity:1;stroke:none;stroke-width:0.53606743"
         x="-105.92483"
         y="57.417503"
         id="text2225-1-8"><tspan
           sodipodi:role="line"
           id="tspan2223-3-6"
           x="-105.92483"
           y="57.417503"
           style="font-style:normal;font-variant:normal;font-weight:normal;font-stretch:normal;font-size:34.30831528px;font-family:Caladea;-inkscape-font-specification:Caladea;stroke-width:0.53606743">+</tspan></text>
    </g>
    <path
       inkscape:connector-curvature="0"
       id="path963-6-8-5"
       d="m 152.92307,64.018255 h 62.62669"
       style="fill:none;stroke:#000000;stroke-width:3.70000005;stroke-linecap:butt;stroke-linejoin:miter;stroke-miterlimit:4;stroke-dasharray:none;stroke-opacity:1;marker-end:url(#marker1255-7-6-8)" />
    <path
       inkscape:connector-curvature="0"
       id="path963-6-8-3"
       d="M 14.38943,64.018255 H 115.64267"
       style="fill:none;stroke:#000000;stroke-width:3.70000005;stroke-linecap:butt;stroke-linejoin:miter;stroke-miterlimit:4;stroke-dasharray:none;stroke-opacity:1;marker-end:url(#marker1255-7-6-1)" />
    <text
       id="text2225-1-83"
       y="42.041245"
       x="24.894972"
       style="font-style:normal;font-variant:normal;font-weight:normal;font-stretch:normal;font-size:12.86561871px;line-height:1.25;font-family:Caladea;-inkscape-font-specification:Caladea;text-align:center;letter-spacing:0px;word-spacing:0px;text-anchor:middle;fill:#000000;fill-opacity:1;stroke:none;stroke-width:0.53606743"
       xml:space="preserve"><tspan
         style="font-style:italic;font-variant:normal;font-weight:normal;font-stretch:normal;font-size:34.30831528px;font-family:Caladea;-inkscape-font-specification:'Caladea Italic';stroke-width:0.53606743"
         y="42.041245"
         x="24.894972"
         id="tspan2223-3-9"
         sodipodi:role="line">r(s)</tspan></text>
    <text
       id="text7795"
       y="16.728001"
       x="532.40912"
       style="font-style:normal;font-variant:normal;font-weight:normal;font-stretch:normal;font-size:24px;line-height:1.25;font-family:Caladea;-inkscape-font-specification:Caladea;text-align:center;letter-spacing:0px;word-spacing:0px;text-anchor:middle;fill:#000000;fill-opacity:1;stroke:none"
       xml:space="preserve"><tspan
         y="16.728001"
         x="532.40912"
         id="tspan7793"
         sodipodi:role="line">Plant</tspan></text>
    <text
       id="text7799"
       y="16.728001"
       x="288.26801"
       style="font-style:normal;font-variant:normal;font-weight:normal;font-stretch:normal;font-size:24px;line-height:1.25;font-family:Caladea;-inkscape-font-specification:Caladea;text-align:center;letter-spacing:0px;word-spacing:0px;text-anchor:middle;fill:#000000;fill-opacity:1;stroke:none"
       xml:space="preserve"><tspan
         y="16.728001"
         x="288.26801"
         id="tspan7797"
         sodipodi:role="line">Control</tspan></text>
    <g
       transform="translate(310.65898,-5.04859)"
       id="g7810">
      <text
         xml:space="preserve"
         style="font-style:normal;font-variant:normal;font-weight:normal;font-stretch:normal;font-size:24px;line-height:1.25;font-family:Caladea;-inkscape-font-specification:Caladea;text-align:center;letter-spacing:0px;word-spacing:0px;text-anchor:middle;fill:#000000;fill-opacity:1;stroke:none"
         x="98.085899"
         y="203.62146"
         id="text7803"><tspan
           sodipodi:role="line"
           id="tspan7801"
           x="98.085899"
           y="203.62146"
           style="font-style:italic;font-variant:normal;font-weight:normal;font-stretch:normal;font-size:29.33333397px;font-family:Caladea;-inkscape-font-specification:'Caladea Italic'">K</tspan></text>
      <rect
         style="opacity:1;fill:none;fill-opacity:1;stroke:#0000ff;stroke-width:3.70000005;stroke-linecap:round;stroke-linejoin:bevel;stroke-miterlimit:4;stroke-dasharray:none;stroke-dashoffset:0;stroke-opacity:1"
         id="rect7805"
         width="48.103413"
         height="45.143204"
         x="74.7453"
         y="171.2672" />
    </g>
    <path
       sodipodi:nodetypes="ccc"
       inkscape:connector-curvature="0"
       id="path7812"
       d="m 657.00355,64.09136 -0.49036,124.61151 -222.26544,0.45736"
       style="fill:none;stroke:#000000;stroke-width:3.70000005;stroke-linecap:butt;stroke-linejoin:miter;stroke-miterlimit:4;stroke-dasharray:none;stroke-opacity:1;marker-start:url(#DotM);marker-end:url(#marker1255)" />
    <path
       sodipodi:nodetypes="ccc"
       inkscape:connector-curvature="0"
       id="path7948"
       d="m 384.66423,189.16023 -244.91342,-0.099 -0.044,-108.688735"
       style="fill:none;stroke:#000000;stroke-width:3.70000005;stroke-linecap:butt;stroke-linejoin:miter;stroke-miterlimit:4;stroke-dasharray:none;stroke-opacity:1;marker-end:url(#marker7958)" />
    <text
       id="text2225-1-8-5"
       y="53.551964"
       x="113.25699"
       style="font-style:normal;font-variant:normal;font-weight:normal;font-stretch:normal;font-size:12.86561871px;line-height:1.25;font-family:Caladea;-inkscape-font-specification:Caladea;text-align:center;letter-spacing:0px;word-spacing:0px;text-anchor:middle;fill:#000000;fill-opacity:1;stroke:none;stroke-width:0.53606743"
       xml:space="preserve"><tspan
         style="font-style:normal;font-variant:normal;font-weight:normal;font-stretch:normal;font-size:34.30831528px;font-family:Caladea;-inkscape-font-specification:Caladea;stroke-width:0.53606743"
         y="53.551964"
         x="113.25699"
         id="tspan2223-3-6-9"
         sodipodi:role="line">+</tspan></text>
    <text
       id="text2225-1-8-5-4"
       y="86.854324"
       x="122.87767"
       style="font-style:normal;font-variant:normal;font-weight:normal;font-stretch:normal;font-size:12.86561871px;line-height:1.25;font-family:Caladea;-inkscape-font-specification:Caladea;text-align:center;letter-spacing:0px;word-spacing:0px;text-anchor:middle;fill:#000000;fill-opacity:1;stroke:none;stroke-width:0.53606743"
       xml:space="preserve"><tspan
         style="font-style:normal;font-variant:normal;font-weight:normal;font-stretch:normal;font-size:34.30831528px;font-family:Caladea;-inkscape-font-specification:Caladea;stroke-width:0.53606743"
         y="86.854324"
         x="122.87767"
         id="tspan2223-3-6-9-1"
         sodipodi:role="line">_</tspan></text>
    <text
       id="text2225-1-84"
       y="42.041245"
       x="180.46909"
       style="font-style:normal;font-variant:normal;font-weight:normal;font-stretch:normal;font-size:12.86561871px;line-height:1.25;font-family:Caladea;-inkscape-font-specification:Caladea;text-align:center;letter-spacing:0px;word-spacing:0px;text-anchor:middle;fill:#000000;fill-opacity:1;stroke:none;stroke-width:0.53606743"
       xml:space="preserve"><tspan
         style="font-style:italic;font-variant:normal;font-weight:normal;font-stretch:normal;font-size:34.30831528px;font-family:Caladea;-inkscape-font-specification:'Caladea Italic';stroke-width:0.53606743"
         y="42.041245"
         x="180.46909"
         id="tspan2223-3-1"
         sodipodi:role="line">e(s)</tspan></text>
  </g>
</svg>
